no,citation,patients_ref,dupl,ethnicity.exac,ethnicity,nucls1,exon,aminoacid1,nucls2,exon,aminoacid2,phenotype,age,age now/age of onset,age of onset,disease duration,phenotype,GMW scale,Ck level
1,balci2006,1,,European (Non-Finnish),Turkey,c.550delA,,p.Thr184ArgfsX36),c.550delA,,,InTermediaTe,,20 (10),,,,,
2,balci2006,2,,European (Non-Finnish),Turkey,c.19_23delGCATC,,,c.19_23delGCATC,,,InTermediaTe,,20 (3),,,,,
3,balci2006,3,,European (Non-Finnish),Turkey,c.550delA,,p.Thr184ArgfsX36),c.550delA,,,InTermediaTe,,23 (12),,,,,
4,balci2006,4,,European (Non-Finnish),Turkey,c.1006T>A,,p.Y336N,c.1469G>A,,p.Y336N,InTermediaTe,,27 (10),,,,,
5,balci2006,5,,European (Non-Finnish),Turkey,c.2105C>T,,p.A702V,c.2105C>T,,p.A702V,InTermediaTe,,22 (11),,,,,
6,balci2006,6,,European (Non-Finnish),Turkey,c.550delA,,p.Thr184ArgfsX36),c.550delA,,,InTermediaTe,,24 (2 1/2),,,,,
7,balci2006,7,,European (Non-Finnish),Turkey,c.550delA,,p.Thr184ArgfsX36),c.550delA,,,InTermediaTe,,21 (10),,,,,
8,balci2006,8,,European (Non-Finnish),Turkey,c.550delA,,p.Thr184ArgfsX36),c.550delA,,,ModeraTe,,26 (14),,,,,
9,balci2006,9,,European (Non-Finnish),Turkey,c.1611C>A,,p.Y537*,c.1611C>A,,p.Y537*,InTermediaTe,,23 (10),,,,,
10,balci2006,10,,European (Non-Finnish),Turkey,c.550delA,,p.Thr184ArgfsX36),c.550delA,,,InTermediaTe,,31 (10),,,,,
11,balci2006,11,,European (Non-Finnish),Turkey,c.550delA,,p.Thr184ArgfsX36),c.550delA,,,Mild,,22 (10),,,,,
13,balci2006,13,,European (Non-Finnish),Turkey,c.1469G>A,,p.R490Q,c.1622G>A,,p.R541Q,InTermediaTe,,16 (10),,,,,
14,balci2006,14,,European (Non-Finnish),Turkey,c.2212C>T,,p.Q738*,c.2212C>T,,p.Q738*,Mild,,11 (6),,,,,
15,balci2006,15,,European (Non-Finnish),Turkey,c.146G>A,,p.R49H,c.2257delGinsAA,,,InTermediaTe,,30 (17),,,,,
16,balci2006,16,,European (Non-Finnish),Turkey,c.1469G>A,,p.R490Q,c.1469G>A,,p.R490Q,InTermediaTe,,45 (19),,,,,
17,balci2006,17,,European (Non-Finnish),Turkey,c.689A>G,,p.D230G,c.689A>G,,p.D230G,InTermediaTe,,24 (13),,,,,
20,balci2006,20,,European (Non-Finnish),Turkey,c.550delA,,p.Thr184ArgfsX36),c.2092C>A,,p.R698S,InTermediaTe,,15 (6),,,,,
21,balci2006,21,,European (Non-Finnish),Turkey,c.1746-20C>G,,,c.1746-20C>G,,,InTermediaTe,,44 (17),,,,,
22,blázquez2008,1,,European (Non-Finnish),Spain,c.664G>A,,p.Gly222Arg,c.2243G>A,,p.Arg748Gln,,33,,20,13,LGMD + PseudohyperTrophy,4,
23,blázquez2008,2,,European (Non-Finnish),Spain,c.302G>A,,p.Arg101Lys,c.664G>A,,p.Gly222Arg,,12,,-,-,AsympTomaTic,0,
24,blázquez2008,3,,European (Non-Finnish),Spain,c.424C>T,,p.Gln142*,c.424C>T,,p.Gln142*,,47,,15,32,LGMD2A,8,
25,blázquez2008,4,,European (Non-Finnish),Spain,c.664G>A,,p.Gly222Arg,c.2362_2363delAGinsTCATCT,,p.Arg788Serfs*14,,31,,11,20,LGMD2A,8,
26,blázquez2008,5,,European (Non-Finnish),Spain,c.1465C>T,,p.Arg489Trp,c.2362_2363delAGinsTCATCT,,p.Arg788Serfs*14,,46,,20,26,LGMD2A,8,
27,blázquez2008,6,,European (Non-Finnish),Spain,c.1468C>T,,p.Arg490Trp,c.2071_2080delGGGTTCACAC,,p.Gly691Trpfs*7,,14,,13,1,Scapular winging,0,
28,blázquez2008,7,,European (Non-Finnish),Spain,c.760A>G,,p.Lys254Glu,c.1910delC,,p.Pro637Hisfs*25,,25,,18,7,LGMD + PseudohyperTrophy,5,
29,blázquez2008,8,,European (Non-Finnish),Spain,c.759_761delGAA,,p.Lys254del,c.2362_2363delAGinsTCATCT,,p.Arg788Serfs*14,,41,,8,33,LGMD2A,8,
30,blázquez2008,9,,European (Non-Finnish),Spain,c.2362_2363delAGinsTCATCT,,p.Arg788Serfs*25,c.2362_2363delAGinsTCATCT,,p.Arg788Serfs*14,,50,,20,30,LGMD2A,8,
31,blázquez2008,10,,European (Non-Finnish),Spain,c.2069_2070delAC,,p.His690Argfs*9,c.2069_2070delAC,,p.His690Argfs*9,,16,,12,4,LGMD2A,5,
32,blázquez2008,11,,European (Non-Finnish),Spain,c.632_1029del,,p.Leu212Serfs*8,c.2362_2363delAGinsTCATCT,,p.Arg788Serfs*14,,64,,15,49,LGMD2A,8,
33,blázquez2008,12,,European (Non-Finnish),Spain,c.632+4A>G,,,c.779C>T,,p.Ser260Phe,,49,,27,22,LGMD2A,7,
34,blázquez2008,13,,European (Non-Finnish),Spain,c.802-9G>A,,p.Asp268Alafs*31,c.2362_2363delAGinsTCATCT,,p.Arg788Serfs*14,,22,,12,10,LGMD2A,7,
35,blázquez2008,14,,European (Non-Finnish),Spain,c.1469G>A,,p.Arg490Gln,c.1524+1G>C,,,,50,,18,32,LGMD2A,8,
36,blázquez2008,15,,European (Non-Finnish),Spain,c.1694A>C,,p.Gln565Pro,c.1910delC,,p.Pro637Hisfs*25,,24,,7,17,LGMD2A,6,
37,blázquez2008,16,,European (Non-Finnish),Spain,c.616G>A,,p.Glu206Lys,c.1309C>T,,p.Arg437Cys,,48,,33,15,LGMD2A,7,
38,blázquez2008,17,,European (Non-Finnish),Spain,c.1714C>T,,p.Arg572Trp,c.2185-12_2194del,,p.Lys729Valfs*21,,53,,23,30,LGMD2A,7,
39,blázquez2008,18,,European (Non-Finnish),Spain,c.1910delC,,p.Pro637Hisfs*25,c.2362_2363delAGinsTCATCT,,p.Arg788Serfs*14,,30,,9,21,LGMD2A,6,
40,blázquez2008,19,,European (Non-Finnish),Spain,c.1910delC,,p.Pro637Hisfs*25,c.1992+1G>T,,p.Asp665Leufs*18,,49,,12,37,LGMD2A,7,
41,blázquez2008,20,,European (Non-Finnish),Spain,c.1435A>G,,p.Ser479Gly,c.1992+1G>T,,p.Asp665Leufs*18,,51,,20,31,LGMD2A,6,
42,blázquez2008,21,,European (Non-Finnish),Spain,c.1782+1072G>C,,p.Lys595Valfs*70,c.2362_2363delAGinsTCATCT,,p.Arg788Serfs*14,,45,,13,32,LGMD2A,8,
43,blázquez2008,22,,European (Non-Finnish),Spain,c.1782+1072G>C,,p.Lys595Valfs*70,c.2069_2070delAC,,p.His690Argfs*9,,28,,9,19,LGMD2A,8,
44,blázquez2008,23,,European (Non-Finnish),Spain,c.1782+1072G>C,,p.Lys595Valfs*70,c.1992+1G>T,,p.Asp665Leufs*18,,45,,13,32,LGMD2A,8,
45,blázquez2008,24,,European (Non-Finnish),Spain,c.1782+1072G>C,,p.Lys595Valfs*70,c.1992+1G>T,,p.Asp665Leufs*18,,39,,13,26,LGMD2A,7,
46,blázquez2008,25,,European (Non-Finnish),Spain,c.1782+1072G>C,,p.Lys595Valfs*70,c.2243G>A,,p.Arg748Gln,,43,,14,29,LGMD2A,8,
47,blázquez2008,26,,European (Non-Finnish),Spain,c.309G>A,,p.0,c.416C>T,,p.Thr139Ile,,33,,24,9,LGMD2A,3,
48,chae2001,1,,East Asian,Japan,c.698G>T,,G233V,c.698G>T,,G233V,,,,16,,AmbulanT (21),,2000
49,chae2001,2,,East Asian,Japan,c.698G>T,,G233V,c.698G>T,,G233V,,,,8,,Wheelchair bound (22),,494
50,chae2001,3,,East Asian,Japan,c.1318C>T,,R440W,c.1318C>T,,R440W,,,,23,,AmbulanT (30),,2929
51,chae2001,4,,East Asian,Japan,c.1381C>T,,R461C,c.1381C>T,,R461C,,,,38,,wheelchair bound (61),,1077
52,chae2001,5,,East Asian,Japan,c.1381C>T,,R461C,c.1381C>T,,R461C,,,,52,,AmbulanT (65),,828
53,chae2001,6,,East Asian,Japan,c.1381C>T,,R461C,c.1381C>T,,R461C,,,,14,,AmbulanT (59),,1460
54,chae2001,7,,East Asian,Japan,c.2120A>G,,D707G,c.2120A>G,,D707G,,,,30,,AmbulanT (48),,457
55,chae2001,8,,East Asian,Japan,c.2120A>G,,D707G,c.2120A>G,,D707G,,,,35,,Wheelchair bound (57),,968
56,chae2001,9,,East Asian,Japan,c.1999dupG,,,c.1999dupG,,c.1999ą2000insG,,,,9,,Wheelchair bound (21),,7600
57,chae2001,10,,East Asian,Japan,c.1795dupA,,,c.1795dupA,,,,,,10,,AmbulanT (30),,2000
58,chae2001,11,,East Asian,Japan,c.1194-9A>G,,,c.1194-9A>G,,1194ą9A>G,,,,20,,Wheelchair bound (48),,484
59,chae2001,12,,East Asian,Japan,c.698G>T,,G233V,c.2120A>G,,D707G,,,,16,,AmbulanT (37),,5652
60,chae2001,13,,East Asian,Japan,c.698G>T,,G233V,c.2120A>G,,D707G,,,,20,,AmbulanT (35),,6226
61,chae2001,14,,East Asian,Japan,c.1354G>C,,D452H,c.2050+1G>A,,,,,,8,,ND,,1973
62,chae2001,15,,East Asian,Japan,c.1381C>T,,R461C,c.801+1G>A,,,,,,6,,AmbulanT (12),,7669
63,chae2001,16,,East Asian,Japan,c.1742C>G,,S581C,c.2050+1G>A,,,,,,7,,No sympTom (8),,12082
64,chae2001,17,,East Asian,Japan,c.1115+5G>T,,,c.2050+1G>A,,,,,,32,,Wheelchair bound (35),,466
65,chae2001,18,,East Asian,Japan,c.2120A>G,,D707G,c.1795dupA,,,,,,32,,AmbulanT (67),,1774
66,chae2001,19,,East Asian,Japan,c.2120A>G,,D707G,c.1795dupA,,,,,,39,,AmbulanT (47),,2660
67,chroba´kova2004,1,,European (Non-Finnish),Czech,c.133G>A,,A45T,c.133G>A,,A45T,,,,15,,,,
68,chroba´kova2004,2,,European (Non-Finnish),Czech,c.245C>T,,P82L,c.245C>T,, P82L,,,,18,,,,
69,chroba´kova2004,4,,European (Non-Finnish),Czech,c.550delA,,p.Thr184ArgfsX36),c.1981delA,,I661X,,,,6,,,,
70,chroba´kova2004,5,,European (Non-Finnish),Czech,c.550delA,,p.Thr184ArgfsX36),c.1722delC,,F574fsX21,,,,10,,wheelch(62),,
73,chroba´kova2004,8,,European (Non-Finnish),Czech,c.1788_1793delGAAAAA,,K595-K596del,c.2242C>T,,R748X,,,,,,,,
74,paula2002,1,,Latino,Brazilian,c.245C>T,,P82L,c.245C>T,,P82L,,,,18,,,,14
75,paula2002,2,,Latino,Brazilian,c.245C>T,,P82L,c.1486G>A,,G496R,,,,32.5+0.7,,,,23+1.4
76,paula2002,3,,Latino,Brazilian,c.2242C>T,,R748X,c.245C>T,,P82L,,,,10.6+0.5,,,,27.3+7.5
77,paula2002,4,,,,c.260_265delTCTTTTinsGA,,260^265 delTCTTTTinsGA,c.2362_2363delAGinsTCATCT,,260^265 delTCTTTTinsGA,,,,10,,,,26+19.8
78,paula2002,5,,Latino,Brazilian,c.328C>T,,R110*,c.328C>T,,R110*,,,,14,,,,29.3+27
79,paula2002,6,,Latino,Brazilian,c.328C>T,,R110*,c.328C>T,,R110*,,,,8.75+1.9,,,,19.3+15
80,paula2002,7,,Latino,Brazilian,c.328C>T,,R110*,c.328C>T,,R110*,,,,9,,,,23.0+9.8
81,paula2002,8,,Latino,Brazilian,c.328C>T,,R110*,c.1714C>T,,R572W,,,,12.5+0.7,,,,9.3+4.1
82,paula2002,9,,Latino,Brazilian,c.328C>T,,R110*,c.2243G>A,,R748Q,,,,13+1.4,,,,42+15.8
83,paula2002,10,,Latino,Brazilian,c.509_510insA,,,c.509_510insA,,,,,,12.5+2.1,,,,6.4+4.6
84,paula2002,11,,Latino,Brazilian,c.743T>G,,M248R,c.743T>G,,M248R,,,,13,,,,
85,paula2002,12,,Latino,Brazilian,c.759_761delGAA,,254DK,c.1468C>T,,R490W,,,,18,,,,
86,paula2002,13,,Latino,Brazilian,c.1468C>T,,R490W,c.1061T>G,,V354G,,,,15+2.1,,,,24.5+33
87,paula2002,14,,Latino,Brazilian,c.1194-9A>G,,,c.1194-9A>G,,,,,,14,,,,8.6
88,paula2002,15,,Latino,Brazilian,c.2362_2363delAGinsTCATCT,,p.Arg788Serfs*17,c.2362_2363delAGinsTCATCT,,p.Arg788Serfs*14,,,,13,,,,10.1+14
89,paula2002,16,,Latino,Brazilian,c.2362_2363delAGinsTCATCT,,p.Arg788Serfs*17,c.2362_2363delAGinsTCATCT,,p.Arg788Serfs*14,,,,15,,,,2
90,paula2002,17,,Latino,Brazilian,c.2362_2363delAGinsTCATCT,,p.Arg788Serfs*17,c.2362_2363delAGinsTCATCT,,p.Arg788Serfs*14,,,,11,,,,34
91,paula2002,18,,Latino,Brazilian,c.2362_2363delAGinsTCATCT,,p.Arg788Serfs*17,c.2362_2363delAGinsTCATCT,,p.Arg788Serfs*14,,,,2,,,,12
92,paula2002,19,,Latino,Brazilian,c.2362_2363delAGinsTCATCT,,p.Arg788Serfs*17,c.2362_2363delAGinsTCATCT,,p.Arg788Serfs*14,,,,12.5+0.7,,,,62+76
93,paula2002,20,,Latino,Brazilian,c.2362_2363delAGinsTCATCT,,p.Arg788Serfs*22,c.759_761delGAA,,254DK,,,,,,,,
94,duno2008,1,,African,Somalia,c.1117T>C,,Trp373Arg,c.1117T>C,,,Trp373Arg,,,,,,,
95,duno2008,2,,Latino,Peru,c.853G>T,,Glu285X,c.853G>T,,Glu285X,,,,,,,,
96,duno2008,3,,European (Non-Finnish),Denmark,c.257C>T,,Ser86Phe,c.1505T>G,,Ile502Ser,,,,,,,,
97,duno2008,5,,European (Non-Finnish),Netherlands,c.865C>T,,Arg289Trp,c.1981delA,,,,,,,,,,
98,duno2008,7,,European (Non-Finnish),Turkey,c.1309C>G,,Arg437Gly,c.1309C>G,,Arg437Gly,,,,,,,,
99,duno2008,8,,Other,Israel,c.1800+2T>C,,,c.1800+2T>C,,,,,,,,,,
100,duno2008,9,,European (Non-Finnish),Romania,c.380-13T>A,,,c.380-13T>A,,,,,,,,,,
101,duno2008,11,,European (Non-Finnish),Denmark,c.2393C>A,,Ala798Glu,c.1801-51G>A,,,,,,,,,,
102,duno2008,12,,Other,Palestine,c.1381C>T,,Arg461Cys,c.1381C>T,,Arg461Cys,,,,,,,,
103,duno2008,15,,European (Non-Finnish),Russia,c.1699G>T,,Gly567Trp,c.1699G>T,,Gly567Trp,,,,,,,,
104,duno2008,16,,European (Non-Finnish),Sweden,c.2362_2363delAGinsTCATCT,,p.Arg788Serfs*14,c.2362_2363delAGinsTCATCT,,p.788fs,,,,,,,,
105,fanin2004,4a,,European (Non-Finnish),Italy,c.1469G>A,,p.R490Q,c.1469G>A,,p.R490Q,e.o. LGMD,26,,11,,,,
106,fanin2004,6,,European (Non-Finnish),Italy,c.533T>C,,p.I178T,c.533T>C,,p.I178T,e.o. LGMD,35,,11,,,,
107,fanin2004,8,,European (Non-Finnish),Italy,c.1469G>A,,p.R490Q,c.1469G>A,,p.R490Q,LGMD,46,,17,,,,
108,fanin2004,11,,European (Non-Finnish),Italy,c.550delA,,p.(Thr184Argfs*36,c.550delA,,^,e.o. LGMD,35,,10,,,,
109,fanin2004,12,,European (Non-Finnish),Italy,c.550delA,,p.(Thr184Argfs*37,c.550delA,,^,e.o. LGMD,25,,10,,,,
110,fanin2004,15,,European (Non-Finnish),Italy,c.1342C>T,,p.R448C,c.1342C>T,,p.R448C,LGMD,30,,21,,,,
111,fanin2004,20,,European (Non-Finnish),Italy,c.1061T>G,,p.V354G,c.1061T>G,,p.V354G,LGMD,27,,16,,,,
112,fanin2004,24,,European (Non-Finnish),Italy,c.1469G>A,,p.R490Q,c.1469G>A,,p.R490Q,ERB,36,,28,,,,
113,fanin2004,25,,European (Non-Finnish),Italy,c.550delA,,p.(Thr184Argfs*38,c.550delA,,^,LGMD,24,,15,,,,
114,fanin2004,26,,European (Non-Finnish),Italy,c.848T>C,,p.M283T,c.848T>C,,p.M283T,LGMD,27,,27,,,,
115,fanin2004,27a,,European (Non-Finnish),Italy,c.1469G>A,,p.R490Q,c.1469G>A,,p.R490Q,l.o. ERB,49,,37,,,,
116,fanin2004,42,,European (Non-Finnish),Italy,c.550delA,,p.(Thr184Argfs*39,c.550delA,,^,e.o. LGMD,15,,10,,,,
117,fanin2004,43,,European (Non-Finnish),Italy,c.550delA,,p.(Thr184Argfs*40,c.550delA,,^,l.o. LGMD,50,,45,,,,
118,fanin2004,46,,European (Non-Finnish),Italy,c.1345A>C,,p.N449H,c.1345A>C,,p.N449H,LGMD,25,,15,,,,
119,fanin2004,49,,European (Non-Finnish),Italy,c.2243G>A,,p.R748Q,c.2243G>A,,p.R748Q,LGMD,39,,21,,,,
120,fanin2004,53,,European (Non-Finnish),Italy,c.2230_2231insAACA,,^,c.2230_2231insAACA,,^,e.o. LGMD,21,,10,,,,
121,fanin2004,9,,European (Non-Finnish),Italy,c.1469G>A,,p.R490Q,c.1466G>A,,p.R489Q,high CK,18,,11,,,,
122,fanin2004,14,,European (Non-Finnish),Italy,c.1992+1G>T,,,c.1061T>G,,p.V354G,e.o. LGMD,31,,8,,,,
123,fanin2004,17,,European (Non-Finnish),Italy,c.1291G>A,,p.V431M,c.1343G>A,,p.R448C,ERB,33,,16,,,,
124,fanin2004,21b,,European (Non-Finnish),Italy,c.550delA,,p.(Thr184Argfs*41,c.229G>A,,p.D77N,e.o. LGMD,26,,6,,,,
125,fanin2004,23,,European (Non-Finnish),Italy,c.245C>T,,p.P82L,c.697G>C,,p.G233R,e.o. LGMD,40,,4,,,,
126,fanin2004,28,,European (Non-Finnish),Italy,c.1319G>A,,p.R440Q,c.1343G>A,,p.R448H,e.o. LGMD,35,,12,,,,
127,fanin2004,29,,European (Non-Finnish),Italy,c.1469G>A,,p.R490Q,c.550delA,,^,LGMD,26,,18,,,,
128,fanin2004,32,,European (Non-Finnish),Italy,c.550delA,,p.(Thr184Argfs*42,c.801+1G>A,,^,e.o. LGMD,11,,10,,,,
129,fanin2004,34b,,European (Non-Finnish),Italy,c.550delA,,p.(Thr184Argfs*43,c.229G>A,,p.D77N,LGMD,29,,21,,,,
130,fanin2004,2,,European (Non-Finnish),Italy,c.328C>T,,p.R110X,c.649G>A,,p.E217K,e.o. LGMD,25,,4,,,,
131,fanin2004,5,,European (Non-Finnish),Italy,c.550delA,,p.(Thr184Argfs*44,c.1343G>A,,p.R448H,e.o. LGMD,24,,7,,,,
132,fanin2004,36,,European (Non-Finnish),Italy,c.550delA,,p.(Thr184Argfs*45,c.2242C>T,,p.R748X,e.o. LGMD,14,,7,,,,
133,fanin2004,40,,European (Non-Finnish),Italy,c.1343G>A,,p.R448H,c.1992+1G>T,,^,LGMD,43,,24,,,,
134,fanin2004,41,,European (Non-Finnish),Italy,c.1468C>T,,p.R490W,c.550delA,,^,e.o. LGMD,25,,11,,,,
135,fanin2004,48,,European (Non-Finnish),Italy,c.551C>T,,p.T184M,c.260dupT,,^,ERB,26,,24,,,,
136,fanin2004,55,,European (Non-Finnish),Italy,c.1621C>T,,p.R541W,c.598_612del15,,p.F200_L204d el.,LGMD,16,,14,,,,
137,fanin2004,57,,European (Non-Finnish),Italy,c.550delA,,p.(Thr184Argfs*46,c.1309C>T,,p.R437C,l.o. LGMD,74,,48,,,,
138,gallardo2011,1,,Latino,Brazilian,c.2362_2363delAGinsTCATCT,,p.Arg788Serfs*26,c.2362_2363delAGinsTCATCT,,p.Arg788SerfsX14,,19,,,,,,
141,georgieva2005,Female/APB,,European (Non-Finnish),Bulgaria,c.550delA,,p.Thr184ArgfsX36),c.967G>T,,Glu323X,LGMD,,,,,,,
144,georgieva2005,Female/DDG,,European (Non-Finnish),Bulgaria,c.550delA,,p.Thr184ArgfsX36),c.967G>T,,Glu323X,LGMD,,,,,,,
153,todorova2007,1,,European (Non-Finnish),Bulgaria,c.550delA,,p.Thr184ArgfsX36,c.550delA,,p.Thr184ArgfsX36,,F 26,,11,wheelchair,wheelchair No,cikk infók,
154,todorova2007,2,,European (Non-Finnish),Bulgaria,c.550delA,,p.Thr184ArgfsX36,c.550delA,,p.Thr184ArgfsX36,,F 58,,11,wheelchair,Yes (at 39),cikk infók,
155,todorova2007,3,,European (Non-Finnish),Bulgaria,c.550delA,,p.Thr184ArgfsX36,c.550delA,,p.Thr184ArgfsX36,,F 26,,19,wheelchair,No,cikk infók,
156,todorova2007,4,,European (Non-Finnish),Bulgaria,c.550delA,,p.Thr184ArgfsX36,c.550delA,,p.Thr184ArgfsX36,,F 48,,14,wheelchair,Yes,cikk infók,
157,todorova2007,5,,European (Non-Finnish),Bulgaria,c.550delA,,p.Thr184ArgfsX36,c.550delA,,p.Thr184ArgfsX36,,M 18,,10.szept,wheelchair,No,cikk infók,
158,todorova2007,6,,European (Non-Finnish),Bulgaria,c.550delA,,p.Thr184ArgfsX36,c.550delA,,p.Thr184ArgfsX36,,M 15,,11,wheelchair,No (walking,cikk infók,
159,todorova2007,7:00 de.,,European (Non-Finnish),Bulgaria,c.550delA,,p.Thr184ArgfsX36,c.550delA,,p.Thr184ArgfsX36,,F 35,,17,wheelchair,Yes (at 30),cikk infók,
160,todorova2007,7 B.,,European (Non-Finnish),Bulgaria,c.550delA,,p.Thr184ArgfsX36,c.550delA,,p.Thr184ArgfsX36,,F 30,,21 at pregn.,wheelchair,No,cikk infók,
161,todorova2007,8,,European (Non-Finnish),Bulgaria,c.550delA,,p.Thr184ArgfsX36,c.550delA,,p.Thr184ArgfsX36,,F 28,,12,wheelchair,No,cikk infók,
162,todorova2007,9,,European (Non-Finnish),Bulgaria,c.550delA,,p.Thr184ArgfsX36,c.310_1115del,,p.Glu104_Arg372delfshX11,,M 27,,8,wheelchair,Yes (at 18),cikk infók,
163,todorova2007,10,,European (Non-Finnish),Bulgaria,c.550delA,,p.Thr184ArgfsX36,c.310_1115del,,p.Glu104_Arg372delfshX11,,F 21,,12,wheelchair,No,cikk infók,
166,todorova2007,13,,European (Non-Finnish),Bulgaria,c.550delA,,p.Thr184ArgfsX36,c.967G>T,,p.Glu323X,,F 18,,12,wheelchair,No,cikk infók,
167,todorova2007,14,,European (Non-Finnish),Bulgaria,c.550delA,,p.Thr184ArgfsX36,c.967G>T,,p.Glu323X,,F 29,,13.dec,wheelchair,No,cikk infók,
168,todorova2007,15,,European (Non-Finnish),Bulgaria,c.146G>A,,p.Arg49His,c.967G>T,,p.Glu323X,,M 51,,13,wheelchair,Yes (at 30),cikk infók,
169,todorova2007,16A.,,European (Non-Finnish),Bulgaria,c.1811_1812delTC,,p.Phe604CysfshX27a,c.1811_1812delTC,,p.Phe604CysfshX27,,F 41,,13,wheelchair,No,cikk infók,
170,todorova2007,16B.,,European (Non-Finnish),Bulgaria,c.1811_1812delTC,,p.Phe604CysfshX27,c.1811_1812delTC,,p.Phe604CysfshX27,,M 51,,14,wheelchair,Yes (at 32),cikk infók,
171,todorova2007,17,,European (Non-Finnish),Bulgaria,c.1342C>T,,p.Arg448Cys,c.1342C>T,,p.Arg448Cys,,F 32,,14,wheelchair,No,cikk infók,
175,ghaoui2015,1,,European (Non-Finnish),Australia,c.439C>T,,p.R147*,c.220dupC,,p.L74Pfs*6,,,,,,,,
176,ghaoui2015,2,,European (Non-Finnish),Australia,c.1469G>A,,p.R490Q,c.1469G>A,,p.R490Q,,,,,,,,
177,groen2007,1,,European (Non-Finnish),England,c.1435A>G,,,c.327_328delCC,,,,,,,,,,
178,groen2007,2,,European (Non-Finnish),England,c.620A>C,,,c.1746-20C>G,,,,,,,,,,
179,groen2007,3,,European (Non-Finnish),England,c.759_761delGAA,,,c.1468C>T,,,,,,,,,,
180,groen2007,4,,European (Non-Finnish),England,c.649G>A,,,c.2093G>C,,,,,,,,,,
181,groen2007,5,,European (Non-Finnish),England,c.1838delA,,,c.1981delA,,,,,,,,,,
182,groen2007,6,,European (Non-Finnish),England,c.633G>C,,,c.1319G>A,,,,,,,,,,
183,groen2007,7,,European (Non-Finnish),England,c.759_761delGAA,,p. DelLys254,c.759_761delGAA,,p. DelLys254,,,,,,,,
184,groen2007,8,,European (Non-Finnish),England,c.133G>A,,p. Ala45Thr,c.133G>A,,p. Ala45Thr,,,,,,,,
185,groen2007,9,,European (Non-Finnish),England,c.550delA,,p.Thr184ArgfsX36),c.550delA,,prem. trunc.,,,,,,,,
186,groen2007,10,,European (Non-Finnish),England,c.327_328delCC,,prem. trunc.,c.1477C>T,,p. Arg493Trp,,,,,,,,
187,groen2007,11,,European (Non-Finnish),England,c.566T>C,,p. Leu189Pro,c.1993-1G>A,,splicing defect,,,,,,,,
188,groen2007,12,,European (Non-Finnish),England,c.946-2A>G,,,c.946-2A>G,,,,,,,,,,
189,groen2007,13,,European (Non-Finnish),England,c.1319G>A,,Arg440Gl,c.1992+1G>T,,,,,,,,,,
190,groen2007,14,,European (Non-Finnish),England,c.550delA,,p.Thr184ArgfsX36),c.1257T>G,,Asp419Glu,,,,,,,,
191,groen2007,15,,European (Non-Finnish),England,c.724dupA,,,c.724dupA,,,,,,,,,,
192,groen2007,16,,European (Non-Finnish),England,c.1194-9A>G,,,c.2263+1G>C,,,,,,,,,,
193,groen2007,17,,European (Non-Finnish),England,c.145C>T,,p. Arg49Cys,c.1468C>T,,p. Arg490Trp,,,,,,,,
194,groen2007,18,,European (Non-Finnish),England,c.133G>A,,p. Ala45Thr,c.2362_2363delAGinsTCATCT,,,,,,,,,,
195,groen2007,19,,European (Non-Finnish),England,c.2380+2T>G,,,c.2393C>A,,,,,,,,,,
196,groen2007,20,,European (Non-Finnish),England,c.327_328delCC,,,c.550delA,,,,,,,,,,
197,groen2007,21,,European (Non-Finnish),England,c.2362_2363delAGinsTCATCT,,p.Arg788Serfs*15,c.2393C>A,,p. Ala798Glu,,,,,,,,
198,groen2007,22,,European (Non-Finnish),England,c.1981delA,,,c.1981delA,,,,,,,,,,
199,groen2007,23,,European (Non-Finnish),England,c.1373delC,,,c.1983delA,,,,,,,,,,
200,groen2007,24,,European (Non-Finnish),England,c.1373delC,,,c.1983delA,,,,,,,,,,
201,groen2007,25,,European (Non-Finnish),England,c.418dupC,,,c.550delA,,,,,,,,,,
202,groen2007,26,,European (Non-Finnish),England,c.566T>C,,p. Leu189Pro,c.1993-1G>T,,,,,,,,,,
203,groen2007,27,,European (Non-Finnish),England,c.550delA,,p.Thr184ArgfsX36),c.2114A>G,,,,,,,,,,
204,groen2007,28,,European (Non-Finnish),England,c.550delA,,p.Thr184ArgfsX36),c.1257T>G,,,,,,,,,,
205,groen2007,29,,European (Non-Finnish),England,c.2362_2363delAGinsTCATCT,,p.Arg788Serfs*16,c.2393C>A,,,,,,,,,,
206,groen2007,30,,European (Non-Finnish),England,c.595G>C,,p. Leu189Pro,c.2440-3C>G,,,,,,,,,,
207,groen2007,31,,European (Non-Finnish),England,c.258dupT,,,c.550delA,,,,,,,,,,
208,groen2007,32,,European (Non-Finnish),England,c.550delA,,p.Thr184ArgfsX36),c.1465C>T,,p. Arg489Trp,,,,,,,,
209,groen2007,33,,European (Non-Finnish),England,c.133G>A,,p. Ala45Thr,c.643_663del,,p. Del215-221,,,,,,,,
210,groen2007,34,,European (Non-Finnish),England,c.1468C>T,,p. Arg490Trp,c.2279dupA,,prem. trunc.,,,,,,,,
211,groen2007,35,,European (Non-Finnish),England,c.1319G>A,,p. Arg440Gln,c.1342C>G,,p. Arg448Gly,,,,,,,,
212,groen2007,36,,European (Non-Finnish),England,c.1435A>G,,p. Ser479Gly,c.550delA,,prem. trunc.,,,,,,,,
213,groen2007,37,,European (Non-Finnish),England,c.193C>G,,p. His65Asp,c.1319G>A,,p. Arg440Gln,,,,,,,,
214,groen2007,38,,European (Non-Finnish),England,c.509A>G,,p. Tyr170Cys,c.2242C>T,,p. Arg748Stop,,,,,,,,
215,groen2007,39,,European (Non-Finnish),England,c.643_663del,,p. Del215-221,c.1256A>G,,p. Asp419Gly,,,,,,,,
216,groen2007,40,,European (Non-Finnish),England,c.1355-6G>A,,,c.551C>T,,,,,,,,,,
217,groen2007,41,,European (Non-Finnish),England,c.2050+29G>A,,,c.1373delC,,,,,,,,,,
218,groen2007,42,,European (Non-Finnish),England,c.1897C>T,,,c.1981delA,,,,,,,,,,
219,groen2007,43,,European (Non-Finnish),England,c.1468C>T,,,c.1468C>T,,,,,,,,,,
220,groen2007,44,,European (Non-Finnish),England,c.145C>T,,,c.755T>A,,,,,,,,,,
221,groen2007,45,,European (Non-Finnish),England,c.133G>A,,,c.499-1G>A,,,,,,,,,,
222,hermanova2005,1,,European (Non-Finnish),Czech,c.550delA,,p.Thr184ArgfsX36),c.1981delA,,1661X,,8,,7,,,,
223,hermanova2005,2,,European (Non-Finnish),Czech,c.245C>T,,P82L,c.245C>T,,P82L,,28,,24,,,,
224,hermanova2005,3,,European (Non-Finnish),Czech,c.133G>A,,A45T,c.133G>A,,A45T,,48,,15,,,,
225,hermanova2005,4,,European (Non-Finnish),Czech,c.1468C>T,,R490W,c.550delA,,T184fsX36,,20,,12,,,,
226,hermanova2005,5,,European (Non-Finnish),Czech,c.598_612del15,,F200_L204del,c.1746-20C>G,,,,67,,25,,,,
227,hermanova2005,6,,European (Non-Finnish),Czech,c.1788_1793delGAAAAA,,K595_596,c.2242C>T,,R748X,,52,,20,,,,
228,hermanova2005,7,,European (Non-Finnish),Czech,c.550delA,,p.Thr184ArgfsX36),c.1722delC,,F574fsX21,,15,,10,,,,
229,hermanova2005,8,,European (Non-Finnish),Czech,c.550delA,,p.Thr184ArgfsX36),c.550delA,,T184fsX36,,26,,10,,,,
230,hermanova2005,9,,European (Non-Finnish),Czech,c.550delA,,p.Thr184ArgfsX36),c.550delA,,T184fsX36,,26,,4,,,,
231,hermanova2005,10,,European (Non-Finnish),Czech,c.598_612del15,,F200_L204del,c.2245A>C,,N749H,,22,,17,,,,
232,hermanova2005,11,,European (Non-Finnish),Czech,c.1322G>A,,G441N,c.1322G>A,,G441N,,41,,31,,,,
233,hermanova2005,12,,European (Non-Finnish),Czech,c.245C>T,,P82L,c.550delA,,T184fsX36,,20,,12,,,,
234,hermanova2005,13,,European (Non-Finnish),Czech,c.550delA,,p.Thr184ArgfsX36),c.1722delC,,F574fsX21,,9,,7,,,,
235,hermanova2005,14,,European (Non-Finnish),Czech,c.245C>T,,P82L,c.245C>T,,P82L,,21,,13,,,,
237,keira2007,2,,East Asian,japan,c.2120A>G,,p.D707G,c.1795dupA,,p.T559fs,Defect of gait,,,40,1,,,
238,keira2007,3,,East Asian,japan,c.698G>T,,p.G233V,c.2120A>G,,.D707G,"Difficulty of climbing stairs,Gowers sign",,,25,5,,,
239,keira2007,5,,East Asian,japan,c.2120A>G,,p.D707G,c.2120A>G,,p.D707G,"Unable to walk
without stick,",,,56,21,,,
240,keira2007,6,,East Asian,japan,c.1524+1G>T,,V476_E508delc,c.1524+1G>T,,V476_E508delc," Waddling gait, Gowers sign ",,,32,17,,,
241,keira2007,7,,East Asian,japan,c.1381C>T,,p.R461C,c.1381C>T,,p.R461C,"Unable to climb
stairs without
banister",,,49,11,,,
242,krahn2006,PEM1,,European (Non-Finnish),France,c.1079G>A,,(p.Trp360X)a,c.1838delA,,(p.Lys613ArgfsX49)b,,,,4,,,,
243,krahn2006,PEM2,,European (Non-Finnish),France,c.802-9G>A,,,c.2306G>C,,(p.Arg769Pro)d,,,,9,,,,
244,krahn2006,PEM3,,European (Non-Finnish),France,c.302G>A,,(p.Arg101Lys)e,c.664G>A,,(p.Gly222Arg)f,,,,7,,,,
245,krahn2006,PEM4,,European (Non-Finnish),France,c.2362_2363delAGinsTCATCT,,p.Arg788Serfs*23,c.2362_2363delAGinsTCATCT,,(p.Arg788delinsSerSerfsX11)g,,,,11,,,,
246,krahn2006,PEM5,,European (Non-Finnish),France,c.664G>A,,(p.Gly222Arg)f,c.2362_2363delAGinsTCATCT,,(p.Arg788delinsSerSerfsX11)g,,,,3,,,,
247,krahn2006,PEM6,,European (Non-Finnish),France,c.2362_2363delAGinsTCATCT,,p.Arg788Serfs*24,c.2362_2363delAGinsTCATCT,,(p.Arg788delinsSerSerfsX11)g,,,,11,,,,
248,krahn2011,PEM7,,European (Non-Finnish),France,c.2338G>C,,(Asp780His),c.2338G>C,,(Asp780His),,cikkben bőven,,34,,,,
249,krahn2011,PEM8,,European (Non-Finnish),France,c.402delC,,p.Ile145LeufsX4,c.1657G>A,,(p.Glu553Lys,,cikkben bőven,,7,,,,
250,krahn2011,PEM9,,European (Non-Finnish),France,c.1468C>T,,p.Arg490Trp,c.2071_2080delGGGTTCACAC,,p.Gly691TrpfsX7),,cikkben bőven,,13,,,,
251,krahn2011,PEM10,,European (Non-Finnish),France,c.2069_2070delAC,,(p.His690ArgfsX9),c.2069_2070delAC,,(p.His690ArgfsX9),,cikkben bőven,,13,,,,
252,krahn2011,PEM11,,European (Non-Finnish),France,c.2092C>T,,p.Arg698Cys,c.2243G>A,,p.Arg748Gln),,cikkben bőven,,9,,,,
253,krahn2011,PEM12,,European (Non-Finnish),France,c.550delA,,p.Thr184ArgfsX36),c.1706T>C,,p.Phe569Ser,,cikkben bőven,,5,,,,
254,luo2012,1,,East Asian,chinese,c.1507_1511delGGCTT,,p.Gly503ArgfsX72,c.1507_1511delGGCTT,,p.Gly503ArgfsX72,,,,,,,,
257,luo2012,4,,East Asian,chinese,c.1076C>T,,p.Pro359Leu,c.1076C>T,,p.Pro359Leu,,,,,,,,
258,luo2012,5,,East Asian,chinese,c.1507_1511delGGCTT,,p.Gly503ArgfsX72,c.2381-2A>G,,-,,,,,,,,
260,luo2012,7,,East Asian,chinese,c.1318C>T,,p.Arg440Trp,c.1890delT,,p.Asp629IlefsX31,,,,,,,,
261,luo2012,8,,East Asian,chinese,c.801+1G>C,,-,c.801+1G>C,,-,,,,,,,,
262,luo2012,9,,East Asian,chinese,c.1795dupA,,p.Thr599AspfsX33,c.1795dupA,,p.Thr599AspfsX33,,,,,,,,
264,luo2012,12,,East Asian,chinese,c.1178delA,,p.Glu393GlyfsX41,c.1178delA,,p.Glu393GlyfsX41,,,,,,,,
265,luo2012,13,,East Asian,chinese,c.566delT,,p.Leu189ArgfsX31,c.706G>A,,p.Ala236Thr*,,,,,,,,
269,luo2012,17,,East Asian,chinese,c.1343G>T,,p.Arg448Leu,c.1343G>T,,p.Arg448Leu,,,,,,,,
271,minami1999,1,,East Asian,japan,c.1381C>T,,R461C,c.1381C>T,,R461C,,,,50 y,,,,579
272,minami1999,2,,East Asian,japan,c.2120A>G,,D707G,c.2120A>G,,D707G,,,,35 y,,,,457
273,minami1999,3,,East Asian,japan,c.1381C>T,,R461C,c.1381C>T,,R461C,,,,14 y,,,,1460
274,minami1999,4,,East Asian,japan,c.1381C>T,,R461C,c.801+1G>A,,,,,,,,,,
275,park2016,1,,East Asian,korean,c.1795dupA,,,c.2120A>G,,,Muscular dystrophy,F/44,,36,,,,27
276,park2016,2,,East Asian,korean,c.1795dupA,,,c.1795dupA,,,Muscular dystrophy,F/22,,15,,,,20
277,park2016,3,,East Asian,korean,c.2050+1G>A,,,c.1468C>T,,,Muscular dystrophy,F/35,,23,,,,58
278,park2016,4,,East Asian,korean,c.2050+1G>A,,,c.1468C>T,,,Muscular dystrophy,F/33,,23,,,,31
279,park2016,5,,East Asian,korean,c.1795dupA,,,c.706G>A,,,Muscular dystrophy,F/16,,12,,,,20
280,park2016,6,,East Asian,korean,c.2120A>G,,p.D707G,c.2384C>T,,,Muscular dystrophy,F/42,,25,,,,6
281,park2016,7,,East Asian,korean,c.2120A>G,,p.D707G,c.2384C>T,,,Muscular dystrophy,F/39,,33,,,,15
282,park2016,8,,East Asian,korean,c.2120A>G,,p.D707G,c.2384C>T,,,Muscular dystrophy,M/34,,15,,,,11
283,park2016,9,,East Asian,korean,c.2120A>G,,p.D707G,c.2120A>G,,,Polymyositis,M/21,,20,,,,19
284,park2016,10,,East Asian,korean,c.1795dupA,,,c.1524+1G>T,,,Emery-Dreifuss muscular,F/19,,8,,,,11
285,park2016,11,,East Asian,korean,c.1795dupA,,,c.2120A>G,,,HyperCKemia,M/19,,16,,,,20
286,saenz2005,,,European (Non-Finnish),Spain,c.946-2A>G,,,c.1063C>T,,R355W,"Late onset, 40 years",,,,,,,
287,saenz2005,,,European (Non-Finnish),Spain,c.779C>T,,S260F/,c.632+4A>G,,,,,,,,,,
288,saenz2005,,,European (Non-Finnish),Spain,c.1259C>A,,A420D/,c.2185-16A>G,,,"Late onset, 31 years",,,,,,,
289,saenz2005,,,European (Non-Finnish),Spain,c.1259C>A,,A420D/,c.2185-16A>G,,,"Late onset, 36 years",,,,,,,
290,saenz2005,,,European (Non-Finnish),Spain,c.2362_2363delAGinsTCATCT,,,c.2362_2363delAGinsTCATCT,,,"Early onset, 2 years",,,,,,,
291,saenz2005,,,European (Non-Finnish),Spain,c.479C>G,,A160G,c.1029+3A>G,,,Very early onset,,,,,,,
292,saenz2005,,,European (Non-Finnish),Spain,c.149A>G,,N50S,c.149A>G,,N50S,"Early onset, 5 years",,,,,,,
293,saenz2005,,,European (Non-Finnish),Spain,c.149A>G,,N50S,c.149A>G,,N50S,"Early onset, 5 years",,,,,,,
294,saenz2005,,,European (Non-Finnish),Spain,c.701G>A,,G234E/,c.984C>T,,C328C (,"Late onset, 40-45 years",,,,,,,
295,saenz2005,,,European (Non-Finnish),Spain,c.2069_2070delAC,,,c.2362_2363delAGinsTCATCT,,,"Early onset, 4 years",,,,,,,
296,saenz2005,,,European (Non-Finnish),Spain,c.1202A>G,,Y401C,c.2362_2363delAGinsTCATCT,,,Early onset,,,,,,,
297,saenz2005,,,European (Non-Finnish),Spain,c.550delA,,p.Thr184ArgfsX36),c.550delA,,T184RfsX36,"Early onset, 5 years",,,,,,,
298,stehl?´kova´2007,,,European (Non-Finnish),Czech,c.224A>G,,p.Y75C,c.224A>G,,p.Y75C,,,,8,,,,
300,stehl?´kova´2007,,,European (Non-Finnish),Czech,c.245C>T,,p.P82L,c.550delA,,T184RfsX36,,,,12,,,,
301,stehl?´kova´2007,,,European (Non-Finnish),Czech,c.245C>T,,p.P82L,c.2314_2317delGACA,,p.D772delK773NfsX3,,,,13,,,,
302,stehl?´kova´2007,,,European (Non-Finnish),Czech,c.550delA,,p.T184RfsX36,c.598_612del15,,F200_L204del,,,,5,,,,
310,stehl?´kova´2014,1,,European (Non-Finnish),Czech,c.550delA,,p.(Thr184Argfs*36,c.550delA,,p.(Thr184Argfs*36,,,,,,,,
311,stehl?´kova´2014,2,,European (Non-Finnish),Czech,c.550delA,,p.(Thr184Argfs*36,c.550delA,,p.(Thr184Argfs*36,,,,,,,,
312,stehl?´kova´2014,3,,European (Non-Finnish),Czech,c.550delA,,p.(Thr184Argfs*36,c.550delA,,p.(Thr184Argfs*36,,,,,,,,
313,stehl?´kova´2014,4,,European (Non-Finnish),Czech,c.550delA,,p.(Thr184Argfs*36,c.550delA,,p.(Thr184Argfs*36,,,,,,,,
314,stehl?´kova´2014,5,,European (Non-Finnish),Czech,c.550delA,,p.(Thr184Argfs*36,c.550delA,,p.(Thr184Argfs*36,,,,,,,,
315,stehl?´kova´2014,6,,European (Non-Finnish),Czech,c.550delA,,p.(Thr184Argfs*36,c.550delA,,p.(Thr184Argfs*36,,,,,,,,
316,stehl?´kova´2014,7,,European (Non-Finnish),Czech,c.550delA,,p.(Thr184Argfs*36,c.550delA,,p.(Thr184Argfs*36,,,,,,,,
317,stehl?´kova´2014,8,,European (Non-Finnish),Czech,c.550delA,,p.(Thr184Argfs*36,c.550delA,,p.(Thr184Argfs*36,,,,,,,,
318,stehl?´kova´2014,9,,European (Non-Finnish),Czech,c.550delA,,p.(Thr184Argfs*36,c.550delA,,p.(Thr184Argfs*36,,,,,,,,
319,stehl?´kova´2014,10,,European (Non-Finnish),Czech,c.550delA,,p.(Thr184Argfs*36,c.550delA,,p.(Thr184Argfs*36,,,,,,,,
320,stehl?´kova´2014,11,,European (Non-Finnish),Czech,c.550delA,,p.(Thr184Argfs*36,c.550delA,,p.(Thr184Argfs*36,,,,,,,,
321,stehl?´kova´2014,12,,European (Non-Finnish),Czech,c.550delA,,p.(Thr184Argfs*36,c.550delA,,p.(Thr184Argfs*36,,,,,,,,
322,stehl?´kova´2014,13,,European (Non-Finnish),Czech,c.550delA,,p.(Thr184Argfs*36,c.550delA,,p.(Thr184Argfs*36,,,,,,,,
323,stehl?´kova´2014,14,,European (Non-Finnish),Czech,c.550delA,,p.(Thr184Argfs*36,c.550delA,,p.(Thr184Argfs*36,,,,,,,,
324,stehl?´kova´2014,15,,European (Non-Finnish),Czech,c.550delA,,p.(Thr184Argfs*36,c.550delA,,p.(Thr184Argfs*36,,,,,,,,
325,stehl?´kova´2014,16,,European (Non-Finnish),Czech,c.550delA,,p.(Thr184Argfs*36,c.550delA,,p.(Thr184Argfs*36,,,,,,,,
326,stehl?´kova´2014,17,,European (Non-Finnish),Czech,c.550delA,,p.(Thr184Argfs*36,c.550delA,,p.(Thr184Argfs*36,,,,,,,,
327,stehl?´kova´2014,18,,European (Non-Finnish),Czech,c.550delA,,p.(Thr184Argfs*36,c.550delA,,p.(Thr184Argfs*36,,,,,,,,
328,stehl?´kova´2014,19,,European (Non-Finnish),Czech,c.550delA,,p.(Thr184Argfs*36,c.550delA,,p.(Thr184Argfs*36,,,,,,,,
329,stehl?´kova´2014,20,,European (Non-Finnish),Czech,c.550delA,,p.(Thr184Argfs*36,c.550delA,,p.(Thr184Argfs*36,,,,,,,,
330,stehl?´kova´2014,21,,European (Non-Finnish),Czech,c.550delA,,p.(Thr184Argfs*36,c.550delA,,p.(Thr184Argfs*36,,,,,,,,
331,stehl?´kova´2014,22,,European (Non-Finnish),Czech,c.550delA,,p.(Thr184Argfs*36,c.550delA,,p.(Thr184Argfs*36,,,,,,,,
332,stehl?´kova´2014,23,,European (Non-Finnish),Czech,c.550delA,,p.(Thr184Argfs*36,c.550delA,,p.(Thr184Argfs*36,,,,,,,,
333,stehl?´kova´2014,24,,European (Non-Finnish),Czech,c.550delA,,p.(Thr184Argfs*36,c.245C>T,,,,,,,,,,
334,stehl?´kova´2014,25,,European (Non-Finnish),Czech,c.550delA,,p.(Thr184Argfs*36,c.245C>T,,,,,,,,,,
335,stehl?´kova´2014,26,,European (Non-Finnish),Czech,c.550delA,,p.(Thr184Argfs*36,c.328C>T,,p.(Arg110*),,,,,,,,
336,stehl?´kova´2014,27,,European (Non-Finnish),Czech,c.550delA,,p.(Thr184Argfs*36,c.509A>G,,p.(Tyr170Cys),,,,,,,,
337,stehl?´kova´2014,28,,European (Non-Finnish),Czech,c.550delA,,p.(Thr184Argfs*36,c.598_612del15,,Phe200_Leu204del,,,,,,,,
338,stehl?´kova´2014,29,,European (Non-Finnish),Czech,c.550delA,,p.(Thr184Argfs*36,c.1043delG,,p.(Gly348Valfs*4),,,,,,,,
339,stehl?´kova´2014,30,,European (Non-Finnish),Czech,c.550delA,,p.(Thr184Argfs*36,c.1069C>T,,p.(Arg357Trp),,,,,,,,
340,stehl?´kova´2014,31,,European (Non-Finnish),Czech,c.550delA,,p.(Thr184Argfs*36,c.1451T>C,,p.(Leu484Pro),,,,,,,,
341,stehl?´kova´2014,32,,European (Non-Finnish),Czech,c.550delA,,p.(Thr184Argfs*36,c.1465C>T,,p.(Arg489Trp),,,,,,,,
342,stehl?´kova´2014,33,,European (Non-Finnish),Czech,c.550delA,,p.(Thr184Argfs*36,c.1468C>T,,/p.(Arg490Trp),,,,,,,,
343,stehl?´kova´2014,34,,European (Non-Finnish),Czech,c.550delA,,p.(Thr184Argfs*36,c.1468C>T,,/p.(Arg490Trp),,,,,,,,
344,stehl?´kova´2014,35,,European (Non-Finnish),Czech,c.550delA,,p.(Thr184Argfs*36,c.1470delG,,p.(Arg490Argfs*6),,,,,,,,
345,stehl?´kova´2014,36,,European (Non-Finnish),Czech,c.550delA,,p.(Thr184Argfs*36,c.1722delC,,/p.Ser575Leufs*20,,,,,,,,
346,stehl?´kova´2014,37,,European (Non-Finnish),Czech,c.550delA,,p.(Thr184Argfs*36,c.1823G>A,,p.(Arg608Lys),,,,,,,,
347,stehl?´kova´2014,38,,European (Non-Finnish),Czech,c.550delA,,p.(Thr184Argfs*36,c.1981delA,,Ile661*,,,,,,,,
348,stehl?´kova´2014,39,,European (Non-Finnish),Czech,c.550delA,,p.(Thr184Argfs*36,c.2245A>C,,p.(Asn749His),,,,,,,,
349,stehl?´kova´2014,40,,European (Non-Finnish),Czech,c.1A>G,,,c.865C>T,,Arg289Trp),,,,,,,,
350,stehl?´kova´2014,41,,European (Non-Finnish),Czech,c.133G>A,,A45T,c.133G>A,,Ala45Thr,,,,,,,,
351,stehl?´kova´2014,42,,European (Non-Finnish),Czech,c.146G>A,,p.R49H,c.1069C>T,,Arg357Trp),,,,,,,,
352,stehl?´kova´2014,43,,European (Non-Finnish),Czech,c.224A>G,,,c.224A>G,,Tyr75Cys,,,,,,,,
353,stehl?´kova´2014,44,,European (Non-Finnish),Czech,c.245C>T,,P82L,c.245C>T,,Pro82Leu,,,,,,,,
354,stehl?´kova´2014,45,,European (Non-Finnish),Czech,c.245C>T,,P82L,c.1800+1G>A,,splicing,,,,,,,,
355,stehl?´kova´2014,46,,European (Non-Finnish),Czech,c.245C>T,,P82L,c.1855C>T,,Gln619*),,,,,,,,
356,stehl?´kova´2014,47,,European (Non-Finnish),Czech,c.245C>T,,P82L,c.2314_2317delGACA,,Asp772Asnfs*3,,,,,,,,
357,stehl?´kova´2014,48,,European (Non-Finnish),Czech,c.509A>G,,,c.509A>G,,Tyr170Cys),,,,,,,,
358,stehl?´kova´2014,49,,European (Non-Finnish),Czech,c.598_612del15,,F200-L204del,c.598_612del15,,Phe200_Leu204del),,,,,,,,
359,stehl?´kova´2014,50,,European (Non-Finnish),Czech,c.598_612del15,,F200-L204del,c.640G>A,,Gly214Ser),,,,,,,,
360,stehl?´kova´2014,51,,European (Non-Finnish),Czech,c.598_612del15,,F200-L204del,c.2245A>C,,Asn749His,,,,,,,,
361,stehl?´kova´2014,52,,European (Non-Finnish),Czech,c.1043delG,,,c.1094G>A,,Trp365*),,,,,,,,
362,stehl?´kova´2014,53,,European (Non-Finnish),Czech,c.1043delG,,,c.1343G>A,,Arg448His),,,,,,,,
363,stehl?´kova´2014,54,,European (Non-Finnish),Czech,c.1194-9A>G,,,c.1800+1G>A,,,,,,,,,,
364,stehl?´kova´2014,55,,European (Non-Finnish),Czech,c.1194-9A>G,,,c.2393C>A,,Ala798Glu),,,,,,,,
365,stehl?´kova´2014,56,,European (Non-Finnish),Czech,c.1250C>T,,,c.1250C>T,,Thr417Met),,,,,,,,
366,stehl?´kova´2014,57,,European (Non-Finnish),Czech,c.1322G>A,,,c.1322G>A,,Gly441Asn,,,,,,,,
367,stehl?´kova´2014,58,,European (Non-Finnish),Czech,c.1322delG,,,c.2114A>G,,Asp705Gly),,,,,,,,
368,stehl?´kova´2014,59,,European (Non-Finnish),Czech,c.1343G>A,,,c.2093G>A,,Arg698His),,,,,,,,
369,stehl?´kova´2014,60,,European (Non-Finnish),Czech,c.1468C>T,,,c.2314_2317delGACA,,Asp772Asnfs*3),,,,,,,,
370,stehl?´kova´2014,61,,European (Non-Finnish),Czech,c.1788_1793delGAAAAA,,,c.2242C>T,,Arg748*,,,,,,,,
372,stehl?´kova´2014,63,,European (Non-Finnish),Czech,c.598_612del15,,F200-L204del,c.1746-20C>G,,,,,,,,,,
373,stehl?´kova´2014,64,,European (Non-Finnish),Czech,c.614T>C,,,c.1746-20C>G,,,,,,,,,,
374,todorova2005,1,,European (Non-Finnish),Gemany,c.550delA,,p.Thr184ArgfsX36),c.1043delG,,,,36,,11,,,,
375,todorova2005,2,,European (Non-Finnish),Gemany,c.550delA,,p.Thr184ArgfsX36),c.1070G>A,,Arg357Gln,,47,,34,,,,
376,todorova2005,3,,European (Non-Finnish),Gemany,c.550delA,,p.Thr184ArgfsX36),c.1322delG,,,,11,,3,,,,
377,todorova2005,4,,European (Non-Finnish),Gemany,c.550delA,,p.Thr184ArgfsX36),c.1465C>T,,Arg489Trp,,24,,13,,,,
378,todorova2005,5,,European (Non-Finnish),Gemany,c.1106G>A,,Trp369Stop,c.2338G>C,,Asp780His,,40,,,,,,
379,todorova2005,6,,European (Non-Finnish),Gemany,c.1298_1299delTG,,,c.1298_1299delTG,,,,11,,,,,,
380,todorova2005,7,,European (Non-Finnish),Gemany,c.1693delC,,,c.2117C>A,,Thr706Lys,,40,,,,,,
381,todorova2005,8,,European (Non-Finnish),Gemany,c.2243G>A,,Arg748Gln,c.2243G>A,,Arg748Gln,,8,,,,,,
382,hauerslev2012,1M,,European (Non-Finnish),Denmark,c.143G>A,,p.S48N,c.2242C>T,,p.R748X,LGMD2A,,30/n.d,,,,,
384,hauerslev2012,3M,,European (Non-Finnish),Denmark,c.551C>T,,p.T184M,c.260dupT,,,LGMD2A,,36/35,,,,,
385,hauerslev2012,4F,,European (Non-Finnish),Denmark,c.575C>T,,T192I,c.1611C>A,,p.Y537X,LGMD2A,,38/28,,,,,
386,hauerslev2012,5M,,European (Non-Finnish),Denmark,c.643_663del,,,c.643_663del,,,LGMD2A,,61/n.d.,,,,,
387,hauerslev2012,6M,,European (Non-Finnish),Denmark,c.643_663del,,,c.643_663del,,,LGMD2A,,41/40,,,,,
388,hauerslev2012,7M,,European (Non-Finnish),Denmark,c.865C>T,,R289W,,,I661X,LGMD2A,,36/32,,,,,
389,hauerslev2012,8M,,European (Non-Finnish),Denmark,c.1061T>G,,p.V354G,c.1061T>G,,p.V354G,LGMD2A,,17/16,,,,,
390,hauerslev2012,9M,,European (Non-Finnish),Denmark,c.1117T>C,,p.W373R,c.1117T>C,,p.W373R,LGMD2A,,30/30,,,,,
391,hauerslev2012,10M,,European (Non-Finnish),Denmark,c.1309C>G,,p.R437G,c.1309C>G,,p.R437G,LGMD2A,,38/22,,,,,
392,hauerslev2012,11M,,European (Non-Finnish),Denmark,c.1336G>A,,p.G446S,c.1336G>A,,p.G446S,LGMD2A,,43/22,,,,,
393,hauerslev2012,12F,,European (Non-Finnish),Denmark,c.1343G>A,,p.R448H/,c.1992+1G>T,,c.1992+1G>T,LGMD2A,,46/24,,,,,
394,hauerslev2012,13F,,European (Non-Finnish),Denmark,c.1345A>C,,p.N449H,c.1345A>C,,p.N449H,LGMD2A,,23/15,,,,,
395,hauerslev2012,14M,,European (Non-Finnish),Denmark,c.1381C>T,,p.R461C,c.1381C>T,,p.R461C,LGMD2A,,44/36,,,,,
396,hauerslev2012,15F,,European (Non-Finnish),Denmark,c.1469G>A,,p.R490Q,c.1469G>A,,p.R490Q,LGMD2A,,49/47,,,,,
397,hauerslev2012,16M,,European (Non-Finnish),Denmark,c.1469G>A,,p.R490Q,c.1469G>A,,p.R490Q,LGMD2A,,16/16,,,,,
398,hauerslev2012,17M,,European (Non-Finnish),Denmark,c.2243G>A,,p.R748Q,c.2243G>A,,p.R748Q,LGMD2A,,38/19,,,,,
399,hauerslev2012,18F,,European (Non-Finnish),Denmark,c.2330T>C,,p.I777T,c.550delA,,,LGMD2A,, 20/ 12 ,,,,,
400,hauerslev2012,19F,,European (Non-Finnish),Denmark,c.2393C>A,,p.A798E,c.2393C>A,,p.A798E,LGMD2A,,46/22,,,,,
401,hauerslev2012,20M,,European (Non-Finnish),Denmark,c.1800+2T>C,,,c.1800+2T>C,,,LGMD2A,, 38 / 15,,,,,
402,hauerslev2012,21M,,European (Non-Finnish),Denmark,c.380-13T>A,,,c.380-13T>A,,,LGMD2A,,68/29,,,,,
403,hauerslev2012,22M,,European (Non-Finnish),Denmark,c.853G>T,,p.E285X,c.853G>T,,p.E285X,LGMD2A,,38/15,,,,,
 22 / 11,hauerslev2012,2M,,European (Non-Finnish),Denmark,c.533T>C,,p.I178T,c.533T>C,,p.I178T,LGMD2A,, 22/ 11,,,,,
