Input Variant	Errors	Chromosomal Variant	Coding Variant(s)
NM_000255.3:c.1A>G		NC_000006.11:g.49427179T>C	NM_000255.3:c.1A>G	XM_005249143.1:c.1A>G	NM_000255.2:c.1A>G	XM_005249205.1:c.-4025T>C	NM_018132.3:c.-4006T>C
NM_000255.3:c.7delA		NC_000006.11:g.49427173delT	NM_000255.3:c.7delA	XM_005249143.1:c.7delA	NM_000255.2:c.7delA	XM_005249205.1:c.-4031delT	NM_018132.3:c.-4012delT
NM_000255.3:c.19C>T		NC_000006.11:g.49427161G>A	NM_000255.3:c.19C>T	XM_005249143.1:c.19C>T	NM_000255.2:c.19C>T	XM_005249205.1:c.-4043G>A	NM_018132.3:c.-4024G>A
NM_000255.3:c.91C>T		NC_000006.11:g.49427089G>A	NM_000255.3:c.91C>T	XM_005249143.1:c.91C>T	NM_000255.2:c.91C>T	XM_005249205.1:c.-4115G>A	NM_018132.3:c.-4096G>A
NM_000255.3:c.141_142insTTTT		NC_000006.11:g.49427038_49427039insAAAA	NM_000255.3:c.141_142insTTTT	XM_005249143.1:c.141_142insTTTT	NM_000255.2:c.141_142insTTTT	XM_005249205.1:c.-4166_-4165insAAAA	NM_018132.3:c.-4147_-4146insAAAA
NM_000255.3:c.146dupA		NC_000006.11:g.49427034dup	NM_000255.3:c.146dup	XM_005249143.1:c.146dup	NM_000255.2:c.146dup	XM_005249205.1:c.-4170dup	NM_018132.3:c.-4151dup
NM_000255.3:c.160A>T		NC_000006.11:g.49427020T>A	NM_000255.3:c.160A>T	XM_005249143.1:c.160A>T	NM_000255.2:c.160A>T	XM_005249205.1:c.-4184T>A	NM_018132.3:c.-4165T>A
NM_000255.3:c.257C>T		NC_000006.11:g.49426923G>A	NM_000255.3:c.257C>T	XM_005249143.1:c.257C>T	NM_000255.2:c.257C>T	XM_005249205.1:c.-4281G>A	NM_018132.3:c.-4262G>A
NM_000255.3:c.260G>A		NC_000006.11:g.49426920C>T	NM_000255.3:c.260G>A	XM_005249143.1:c.260G>A	NM_000255.2:c.260G>A	XM_005249205.1:c.-4284C>T	NM_018132.3:c.-4265C>T
NM_000255.3:c.278G>A		NC_000006.11:g.49426902C>T	NM_000255.3:c.278G>A	XM_005249143.1:c.278G>A	NM_000255.2:c.278G>A	XM_005249205.1:c.-4302C>T	NM_018132.3:c.-4283C>T
NM_000255.3:c.280G>A		NC_000006.11:g.49426900C>T	NM_000255.3:c.280G>A	XM_005249143.1:c.280G>A	NM_000255.2:c.280G>A	XM_005249205.1:c.-4304C>T	NM_018132.3:c.-4285C>T
NM_000255.3:c.281G>T		NC_000006.11:g.49426899C>A	NM_000255.3:c.281G>T	XM_005249143.1:c.281G>T	NM_000255.2:c.281G>T	XM_005249205.1:c.-4305C>A	NM_018132.3:c.-4286C>A
NM_000255.3:c.281G>A		NC_000006.11:g.49426899C>T	NM_000255.3:c.281G>A	XM_005249143.1:c.281G>A	NM_000255.2:c.281G>A	XM_005249205.1:c.-4305C>T	NM_018132.3:c.-4286C>T
NM_000255.3:c.284C>G		NC_000006.11:g.49426896G>C	NM_000255.3:c.284C>G	XM_005249143.1:c.284C>G	NM_000255.2:c.284C>G	XM_005249205.1:c.-4308G>C	NM_018132.3:c.-4289G>C
NM_000255.3:c.299A>G		NC_000006.11:g.49426881T>C	NM_000255.3:c.299A>G	XM_005249143.1:c.299A>G	NM_000255.2:c.299A>G	XM_005249205.1:c.-4323T>C	NM_018132.3:c.-4304T>C
NM_000255.3:c.313T>C		NC_000006.11:g.49426867A>G	NM_000255.3:c.313T>C	XM_005249143.1:c.313T>C	NM_000255.2:c.313T>C	XM_005249205.1:c.-4337A>G	NM_018132.3:c.-4318A>G
NM_000255.3:c.322C>T		NC_000006.11:g.49426858G>A	NM_000255.3:c.322C>T	XM_005249143.1:c.322C>T	NM_000255.2:c.322C>T	XM_005249205.1:c.-4346G>A	NM_018132.3:c.-4327G>A
NM_000255.3:c.322C>G		NC_000006.11:g.49426858G>C	NM_000255.3:c.322C>G	XM_005249143.1:c.322C>G	NM_000255.2:c.322C>G	XM_005249205.1:c.-4346G>C	NM_018132.3:c.-4327G>C
NM_000255.3:c.323G>A		NC_000006.11:g.49426857C>T	NM_000255.3:c.323G>A	XM_005249143.1:c.323G>A	NM_000255.2:c.323G>A	XM_005249205.1:c.-4347C>T	NM_018132.3:c.-4328C>T
NM_000255.3:c.326A>G		NC_000006.11:g.49426854T>C	NM_000255.3:c.326A>G	XM_005249143.1:c.326A>G	NM_000255.2:c.326A>G	XM_005249205.1:c.-4350T>C	NM_018132.3:c.-4331T>C
NM_000255.3:c.349G>T		NC_000006.11:g.49426831C>A	NM_000255.3:c.349G>T	XM_005249143.1:c.349G>T	NM_000255.2:c.349G>T	XM_005249205.1:c.-4373C>A	NM_018132.3:c.-4354C>A
NM_000255.3:c.360dupT		NC_000006.11:g.49426820dup	NM_000255.3:c.360dup	XM_005249143.1:c.360dup	NM_000255.2:c.360dup	XM_005249205.1:c.-4384dup	NM_018132.3:c.-4365dup
NM_000255.3:c.385+5G>A		NC_000006.11:g.49426790C>T	NM_000255.3:c.385+5G>A	XM_005249143.1:c.385+5G>A	NM_000255.2:c.385+5G>A	XM_005249205.1:c.-4414C>T	NM_018132.3:c.-4395C>T
NM_000255.3:c.385+2T>G		NC_000006.11:g.49426793A>C	NM_000255.3:c.385+2T>G	XM_005249143.1:c.385+2T>G	NM_000255.2:c.385+2T>G	XM_005249205.1:c.-4411A>C	NM_018132.3:c.-4392A>C
NM_000255.3:c.385+3_385+4insTAAGGGT		NC_000006.11:g.49426791_49426792insACCCTTA	NM_000255.3:c.385+3_385+4insTAAGGGT	XM_005249143.1:c.385+3_385+4insTAAGGGT	NM_000255.2:c.385+3_385+4insTAAGGGT	XM_005249205.1:c.-4413_-4412insACCCTTA	NM_018132.3:c.-4394_-4393insACCCTTA
NM_000255.3:c.394C>T		NC_000006.11:g.49425763G>A	NM_000255.3:c.394C>T	XM_005249143.1:c.394C>T	NM_000255.2:c.394C>T
NM_000255.3:c.404C>A		NC_000006.11:g.49425753G>T	NM_000255.3:c.404C>A	XM_005249143.1:c.404C>A	NM_000255.2:c.404C>A
NM_000255.3:c.410C>G		NC_000006.11:g.49425747G>C	NM_000255.3:c.410C>G	XM_005249143.1:c.410C>G	NM_000255.2:c.410C>G
NM_000255.3:c.410C>T		NC_000006.11:g.49425747G>A	NM_000255.3:c.410C>T	XM_005249143.1:c.410C>T	NM_000255.2:c.410C>T
NM_000255.3:c.421delG		NC_000006.11:g.49425736delC	NM_000255.3:c.421delG	XM_005249143.1:c.421delG	NM_000255.2:c.421delG
NM_000255.3:c.427C>T		NC_000006.11:g.49425730G>A	NM_000255.3:c.427C>T	XM_005249143.1:c.427C>T	NM_000255.2:c.427C>T
NM_000255.3:c.433G>A		NC_000006.11:g.49425724C>T	NM_000255.3:c.433G>A	XM_005249143.1:c.433G>A	NM_000255.2:c.433G>A
NM_000255.3:c.443C>T		NC_000006.11:g.49425714G>A	NM_000255.3:c.443C>T	XM_005249143.1:c.443C>T	NM_000255.2:c.443C>T
NM_000255.3:c.454C>T		NC_000006.11:g.49425703G>A	NM_000255.3:c.454C>T	XM_005249143.1:c.454C>T	NM_000255.2:c.454C>T
NM_000255.3:c.457G>A		NC_000006.11:g.49425700C>T	NM_000255.3:c.457G>A	XM_005249143.1:c.457G>A	NM_000255.2:c.457G>A
NM_000255.3:c.459delT		NC_000006.11:g.49425698delA	NM_000255.3:c.459delT	XM_005249143.1:c.459delT	NM_000255.2:c.459delT
NM_000255.3:c.466G>A		NC_000006.11:g.49425691C>T	NM_000255.3:c.466G>A	XM_005249143.1:c.466G>A	NM_000255.2:c.466G>A
NM_000255.3:c.473G>T		NC_000006.11:g.49425684C>A	NM_000255.3:c.473G>T	XM_005249143.1:c.473G>T	NM_000255.2:c.473G>T
NM_000255.3:c.481G>T		NC_000006.11:g.49425676C>A	NM_000255.3:c.481G>T	XM_005249143.1:c.481G>T	NM_000255.2:c.481G>T
NM_000255.3:c.481G>A		NC_000006.11:g.49425676C>T	NM_000255.3:c.481G>A	XM_005249143.1:c.481G>A	NM_000255.2:c.481G>A
NM_000255.3:c.484G>T		NC_000006.11:g.49425673C>A	NM_000255.3:c.484G>T	XM_005249143.1:c.484G>T	NM_000255.2:c.484G>T
NM_000255.3:c.521T>C		NC_000006.11:g.49425636A>G	NM_000255.3:c.521T>C	XM_005249143.1:c.521T>C	NM_000255.2:c.521T>C
NM_000255.3:c.544dupA		NC_000006.11:g.49425613dup	NM_000255.3:c.544dup	XM_005249143.1:c.544dup	NM_000255.2:c.544dup
NM_000255.3:c.550G>T		NC_000006.11:g.49425607C>A	NM_000255.3:c.550G>T	XM_005249143.1:c.550G>T	NM_000255.2:c.550G>T
NM_000255.3:c.556A>G		NC_000006.11:g.49425601T>C	NM_000255.3:c.556A>G	XM_005249143.1:c.556A>G	NM_000255.2:c.556A>G
NM_000255.3:c.567T>G		NC_000006.11:g.49425590A>C	NM_000255.3:c.567T>G	XM_005249143.1:c.567T>G	NM_000255.2:c.567T>G
NM_000255.3:c.572C>A		NC_000006.11:g.49425585G>T	NM_000255.3:c.572C>A	XM_005249143.1:c.572C>A	NM_000255.2:c.572C>A
NM_000255.3:c.590C>A		NC_000006.11:g.49425567G>T	NM_000255.3:c.590C>A	XM_005249143.1:c.590C>A	NM_000255.2:c.590C>A
NM_000255.3:c.593delA		NC_000006.11:g.49425564delT	NM_000255.3:c.593delA	XM_005249143.1:c.593delA	NM_000255.2:c.593delA
NM_000255.3:c.597T>C		NC_000006.11:g.49425560A>G	NM_000255.3:c.597T>C	XM_005249143.1:c.597T>C	NM_000255.2:c.597T>C
NM_000255.3:c.607G>A		NC_000006.11:g.49425550C>T	NM_000255.3:c.607G>A	XM_005249143.1:c.607G>A	NM_000255.2:c.607G>A
NM_000255.3:c.623_624delTA		NC_000006.11:g.49425533_49425534delTA	NM_000255.3:c.623_624delTA	XM_005249143.1:c.623_624delTA	NM_000255.2:c.623_624delTA
NM_000255.3:c.643G>A		NC_000006.11:g.49425514C>T	NM_000255.3:c.643G>A	XM_005249143.1:c.643G>A	NM_000255.2:c.643G>A
NM_000255.3:c.643G>T		NC_000006.11:g.49425514C>A	NM_000255.3:c.643G>T	XM_005249143.1:c.643G>T	NM_000255.2:c.643G>T
NM_000255.3:c.648C>A		NC_000006.11:g.49425509G>T	NM_000255.3:c.648C>A	XM_005249143.1:c.648C>A	NM_000255.2:c.648C>A
NM_000255.3:c.654A>C		NC_000006.11:g.49425503T>G	NM_000255.3:c.654A>C	XM_005249143.1:c.654A>C	NM_000255.2:c.654A>C
NM_000255.3:c.655A>T		NC_000006.11:g.49425502T>A	NM_000255.3:c.655A>T	XM_005249143.1:c.655A>T	NM_000255.2:c.655A>T
NM_000255.3:c.656delA		NC_000006.11:g.49425501delT	NM_000255.3:c.656delA	XM_005249143.1:c.656delA	NM_000255.2:c.656delA
NM_000255.3:c.662delT		NC_000006.11:g.49425495delA	NM_000255.3:c.662delT	XM_005249143.1:c.662delT	NM_000255.2:c.662delT
NM_000255.3:c.670G>T		NC_000006.11:g.49425487C>A	NM_000255.3:c.670G>T	XM_005249143.1:c.670G>T	NM_000255.2:c.670G>T
NM_000255.3:c.671_678dupAATTTATG		NC_000006.11:g.49425479_49425486dup	NM_000255.3:c.671_678dup	XM_005249143.1:c.671_678dup	NM_000255.2:c.671_678dup
NM_000255.3:c.682C>T		NC_000006.11:g.49425475G>A	NM_000255.3:c.682C>T	XM_005249143.1:c.682C>T	NM_000255.2:c.682C>T
NM_000255.3:c.683G>A		NC_000006.11:g.49425474C>T	NM_000255.3:c.683G>A	XM_005249143.1:c.683G>A	NM_000255.2:c.683G>A
NM_000255.3:c.689C>T		NC_000006.11:g.49425468G>A	NM_000255.3:c.689C>T	XM_005249143.1:c.689C>T	NM_000255.2:c.689C>T
NM_000255.3:c.689_690delCA		NC_000006.11:g.49425467_49425468delTG	NM_000255.3:c.689_690delCA	XM_005249143.1:c.689_690delCA	NM_000255.2:c.689_690delCA
NM_000255.3:c.691T>A		NC_000006.11:g.49425466A>T	NM_000255.3:c.691T>A	XM_005249143.1:c.691T>A	NM_000255.2:c.691T>A
NM_000255.3:c.694dupA		NC_000006.11:g.49425463dup	NM_000255.3:c.694dup	XM_005249143.1:c.694dup	NM_000255.2:c.694dup
NM_000255.3:c.729_730insTT		NC_000006.11:g.49425427_49425428insAA	NM_000255.3:c.729_730insTT	XM_005249143.1:c.729_730insTT	NM_000255.2:c.729_730insTT
NM_000255.3:c.753_753+5delGGTATA		NC_000006.11:g.49425399_49425404delTATACC	NM_000255.3:c.753_753+5delGGTATA	XM_005249143.1:c.753_753+5delGGTATA	NM_000255.2:c.753_753+5delGGTATA
NM_000255.3:c.753+2T>A		NC_000006.11:g.49425402A>T	NM_000255.3:c.753+2T>A	XM_005249143.1:c.753+2T>A	NM_000255.2:c.753+2T>A
NM_000255.3:c.753+1G>A		NC_000006.11:g.49425403C>T	NM_000255.3:c.753+1G>A	XM_005249143.1:c.753+1G>A	NM_000255.2:c.753+1G>A
NM_000255.3:c.759G>A		NC_000006.11:g.49423945C>T	NM_000255.3:c.759G>A	XM_005249143.1:c.759G>A	NM_000255.2:c.759G>A
NM_000255.3:c.767T>A		NC_000006.11:g.49423937A>T	NM_000255.3:c.767T>A	XM_005249143.1:c.767T>A	NM_000255.2:c.767T>A
NM_000255.3:c.785G>A		NC_000006.11:g.49423919C>T	NM_000255.3:c.785G>A	XM_005249143.1:c.785G>A	NM_000255.2:c.785G>A
NM_000255.3:c.788G>T		NC_000006.11:g.49423916C>A	NM_000255.3:c.788G>T	XM_005249143.1:c.788G>T	NM_000255.2:c.788G>T
NM_000255.3:c.793C>T		NC_000006.11:g.49423911G>A	NM_000255.3:c.793C>T	XM_005249143.1:c.793C>T	NM_000255.2:c.793C>T
NM_000255.3:c.809_812dupGGGC		NC_000006.11:g.49423892_49423895dup	NM_000255.3:c.809_812dup	XM_005249143.1:c.809_812dup	NM_000255.2:c.809_812dup
NM_000255.3:c.842T>C		NC_000006.11:g.49423862A>G	NM_000255.3:c.842T>C	XM_005249143.1:c.842T>C	NM_000255.2:c.842T>C
NM_000255.3:c.850G>T		NC_000006.11:g.49423854C>A	NM_000255.3:c.850G>T	XM_005249143.1:c.850G>T	NM_000255.2:c.850G>T
NM_000255.3:c.862T>C		NC_000006.11:g.49423842A>G	NM_000255.3:c.862T>C	XM_005249143.1:c.862T>C	NM_000255.2:c.862T>C
NM_000255.3:c.872G>A		NC_000006.11:g.49423832C>T	NM_000255.3:c.872G>A	XM_005249143.1:c.872G>A	NM_000255.2:c.872G>A
NM_000255.3:c.878A>C		NC_000006.11:g.49423826T>G	NM_000255.3:c.878A>C	XM_005249143.1:c.878A>C	NM_000255.2:c.878A>C
NM_000255.3:c.914T>C		NC_000006.11:g.49421467A>G	NM_000255.3:c.914T>C	XM_005249143.1:c.914T>C	NM_000255.2:c.914T>C
NM_000255.3:c.917C>T		NC_000006.11:g.49421464G>A	NM_000255.3:c.917C>T	XM_005249143.1:c.917C>T	NM_000255.2:c.917C>T
NM_000255.3:c.935G>T		NC_000006.11:g.49421446C>A	NM_000255.3:c.935G>T	XM_005249143.1:c.935G>T	NM_000255.2:c.935G>T
NM_000255.3:c.947A>G		NC_000006.11:g.49421434T>C	NM_000255.3:c.947A>G	XM_005249143.1:c.947A>G	NM_000255.2:c.947A>G
NM_000255.3:c.970G>A		NC_000006.11:g.49421411C>T	NM_000255.3:c.970G>A	XM_005249143.1:c.970G>A	NM_000255.2:c.970G>A
NM_000255.3:c.972delT		NC_000006.11:g.49421409delA	NM_000255.3:c.972delT	XM_005249143.1:c.972delT	NM_000255.2:c.972delT
NM_000255.3:c.982C>T		NC_000006.11:g.49421399G>A	NM_000255.3:c.982C>T	XM_005249143.1:c.982C>T	NM_000255.2:c.982C>T
NM_000255.3:c.983T>C		NC_000006.11:g.49421398A>G	NM_000255.3:c.983T>C	XM_005249143.1:c.983T>C	NM_000255.2:c.983T>C
NM_000255.3:c.1022_1023dupA		NC_000006.11:g.49421358_49421359dup	NM_000255.3:c.1022_1023dup	XM_005249143.1:c.1022_1023dup	NM_000255.2:c.1022_1023dup
NM_000255.3:c.1022dupA		NC_000006.11:g.49421359dup	NM_000255.3:c.1022dup	XM_005249143.1:c.1022dup	NM_000255.2:c.1022dup
NM_000255.3:c.1025C>A		NC_000006.11:g.49421356G>T	NM_000255.3:c.1025C>A	XM_005249143.1:c.1025C>A	NM_000255.2:c.1025C>A
NM_000255.3:c.1029delA		NC_000006.11:g.49421352delT	NM_000255.3:c.1029delA	XM_005249143.1:c.1029delA	NM_000255.2:c.1029delA
NM_000255.3:c.1038_1040delTCT		NC_000006.11:g.49421341_49421343delAGA	NM_000255.3:c.1038_1040delTCT	XM_005249143.1:c.1038_1040delTCT	NM_000255.2:c.1038_1040delTCT
NM_000255.3:c.1040T>G		NC_000006.11:g.49421341A>C	NM_000255.3:c.1040T>G	XM_005249143.1:c.1040T>G	NM_000255.2:c.1040T>G
NM_000255.3:c.1048C>T		NC_000006.11:g.49421333G>A	NM_000255.3:c.1048C>T	XM_005249143.1:c.1048C>T	NM_000255.2:c.1048C>T
NM_000255.3:c.1054C>T		NC_000006.11:g.49421327G>A	NM_000255.3:c.1054C>T	XM_005249143.1:c.1054C>T	NM_000255.2:c.1054C>T
NM_000255.3:c.1062delTinsCATCCAGA		NC_000006.11:g.49421319delinsTCTGGATG	NM_000255.3:c.1062delinsCATCCAGA	XM_005249143.1:c.1062delinsCATCCAGA	NM_000255.2:c.1062delinsCATCCAGA
NM_000255.3:c.1068G>A		NC_000006.11:g.49421313C>T	NM_000255.3:c.1068G>A	XM_005249143.1:c.1068G>A	NM_000255.2:c.1068G>A
NM_000255.3:c.1073T>C		NC_000006.11:g.49421308A>G	NM_000255.3:c.1073T>C	XM_005249143.1:c.1073T>C	NM_000255.2:c.1073T>C
NM_000255.3:c.1083+2T>A		NC_000006.11:g.49421296A>T	NM_000255.3:c.1083+2T>A	XM_005249143.1:c.1083+2T>A	NM_000255.2:c.1083+2T>A
NM_000255.3:c.1097A>G		NC_000006.11:g.49419414T>C	NM_000255.3:c.1097A>G	XM_005249143.1:c.1097A>G	NM_000255.2:c.1097A>G
NM_000255.3:c.1105C>T		NC_000006.11:g.49419406G>A	NM_000255.3:c.1105C>T	XM_005249143.1:c.1105C>T	NM_000255.2:c.1105C>T
NM_000255.3:c.1106G>A		NC_000006.11:g.49419405C>T	NM_000255.3:c.1106G>A	XM_005249143.1:c.1106G>A	NM_000255.2:c.1106G>A
NM_000255.3:c.1108A>C		NC_000006.11:g.49419403T>G	NM_000255.3:c.1108A>C	XM_005249143.1:c.1108A>C	NM_000255.2:c.1108A>C
NM_000255.3:c.1130C>A		NC_000006.11:g.49419381G>T	NM_000255.3:c.1130C>A	XM_005249143.1:c.1130C>A	NM_000255.2:c.1130C>A
NM_000255.3:c.1148A>C		NC_000006.11:g.49419363T>G	NM_000255.3:c.1148A>C	XM_005249143.1:c.1148A>C	NM_000255.2:c.1148A>C
NM_000255.3:c.1149G>T		NC_000006.11:g.49419362C>A	NM_000255.3:c.1149G>T	XM_005249143.1:c.1149G>T	NM_000255.2:c.1149G>T
NM_000255.3:c.1156C>A		NC_000006.11:g.49419355G>T	NM_000255.3:c.1156C>A	XM_005249143.1:c.1156C>A	NM_000255.2:c.1156C>A
NM_000255.3:c.1157A>G		NC_000006.11:g.49419354T>C	NM_000255.3:c.1157A>G	XM_005249143.1:c.1157A>G	NM_000255.2:c.1157A>G
NM_000255.3:c.1160C>T		NC_000006.11:g.49419351G>A	NM_000255.3:c.1160C>T	XM_005249143.1:c.1160C>T	NM_000255.2:c.1160C>T
NM_000255.3:c.1162A>C		NC_000006.11:g.49419349T>G	NM_000255.3:c.1162A>C	XM_005249143.1:c.1162A>C	NM_000255.2:c.1162A>C
NM_000255.3:c.1166_1168delCTT		NC_000006.11:g.49419343_49419345delAAG	NM_000255.3:c.1166_1168delCTT	XM_005249143.1:c.1166_1168delCTT	NM_000255.2:c.1166_1168delCTT
NM_000255.3:c.1182G>A		NC_000006.11:g.49419329C>T	NM_000255.3:c.1182G>A	XM_005249143.1:c.1182G>A	NM_000255.2:c.1182G>A
NM_000255.3:c.1196_1197delTG		NC_000006.11:g.49419314_49419315delCA	NM_000255.3:c.1196_1197delTG	XM_005249143.1:c.1196_1197delTG	NM_000255.2:c.1196_1197delTG
NM_000255.3:c.1207C>T		NC_000006.11:g.49419304G>A	NM_000255.3:c.1207C>T	XM_005249143.1:c.1207C>T	NM_000255.2:c.1207C>T
NM_000255.3:c.1233_1235delCAT		NC_000006.11:g.49419276_49419278delATG	NM_000255.3:c.1233_1235delCAT	XM_005249143.1:c.1233_1235delCAT	NM_000255.2:c.1233_1235delCAT
NM_000255.3:c.1237C>T		NC_000006.11:g.49419274G>A	NM_000255.3:c.1237C>T	XM_005249143.1:c.1237C>T	NM_000255.2:c.1237C>T
NM_000255.3:c.1276G>A		NC_000006.11:g.49419235C>T	NM_000255.3:c.1276G>A	XM_005249143.1:c.1276G>A	NM_000255.2:c.1276G>A
NM_000255.3:c.1276G>T		NC_000006.11:g.49419235C>A	NM_000255.3:c.1276G>T	XM_005249143.1:c.1276G>T	NM_000255.2:c.1276G>T
NM_000255.3:c.1280G>A		NC_000006.11:g.49419231C>T	NM_000255.3:c.1280G>A	XM_005249143.1:c.1280G>A	NM_000255.2:c.1280G>A
NM_000255.3:c.1287C>G		NC_000006.11:g.49419224G>C	NM_000255.3:c.1287C>G	XM_005249143.1:c.1287C>G	NM_000255.2:c.1287C>G
NM_000255.3:c.1301_1302delTC		NC_000006.11:g.49419209_49419210delGA	NM_000255.3:c.1301_1302delTC	XM_005249143.1:c.1301_1302delTC	NM_000255.2:c.1301_1302delTC
NM_000255.3:c.1328dupT		NC_000006.11:g.49419183dup	NM_000255.3:c.1328dup	XM_005249143.1:c.1328dup	NM_000255.2:c.1328dup
NM_000255.3:c.1332+1delG		NC_000006.11:g.49419178delC	NM_000255.3:c.1332+1delG	XM_005249143.1:c.1332+1delG	NM_000255.2:c.1332+1delG
NM_000255.3:c.1361G>A		NC_000006.11:g.49416612C>T	NM_000255.3:c.1361G>A	XM_005249143.1:c.1361G>A	NM_000255.2:c.1361G>A
NM_000255.3:c.1399C>T		NC_000006.11:g.49416574G>A	NM_000255.3:c.1399C>T	XM_005249143.1:c.1399C>T	NM_000255.2:c.1399C>T
NM_000255.3:c.1420C>T		NC_000006.11:g.49416553G>A	NM_000255.3:c.1420C>T	XM_005249143.1:c.1420C>T	NM_000255.2:c.1420C>T
NM_000255.3:c.1426C>T		NC_000006.11:g.49416547G>A	NM_000255.3:c.1426C>T	XM_005249143.1:c.1426C>T	NM_000255.2:c.1426C>T
NM_000255.3:c.1481T>A		NC_000006.11:g.49415462A>T	NM_000255.3:c.1481T>A	XM_005249143.1:c.1481T>A	NM_000255.2:c.1481T>A
NM_000255.3:c.1482_1501del20		NC_000006.11:g.49415442_49415461del20	NM_000255.3:c.1482_1501del20	XM_005249143.1:c.1482_1501del20	NM_000255.2:c.1482_1501del20
NM_000255.3:c.1531C>T		NC_000006.11:g.49415412G>A	NM_000255.3:c.1531C>T	XM_005249143.1:c.1531C>T	NM_000255.2:c.1531C>T
NM_000255.3:c.1541delA		NC_000006.11:g.49415402delT	NM_000255.3:c.1541delA	XM_005249143.1:c.1541delA	NM_000255.2:c.1541delA
NM_000255.3:c.1553T>C		NC_000006.11:g.49415390A>G	NM_000255.3:c.1553T>C	XM_005249143.1:c.1553T>C	NM_000255.2:c.1553T>C
NM_000255.3:c.1560+3A>G		NC_000006.11:g.49415380T>C	NM_000255.3:c.1560+3A>G	XM_005249143.1:c.1560+3A>G	NM_000255.2:c.1560+3A>G
NM_000255.3:c.1560+1G>T		NC_000006.11:g.49415382C>A	NM_000255.3:c.1560+1G>T	XM_005249143.1:c.1560+1G>T	NM_000255.2:c.1560+1G>T
NM_000255.3:c.1560G>C		NC_000006.11:g.49415383C>G	NM_000255.3:c.1560G>C	XM_005249143.1:c.1560G>C	NM_000255.2:c.1560G>C
NM_000255.3:c.1560+1G>A		NC_000006.11:g.49415382C>T	NM_000255.3:c.1560+1G>A	XM_005249143.1:c.1560+1G>A	NM_000255.2:c.1560+1G>A
NM_000255.3:c.1571G>A		NC_000006.11:g.49412457C>T	XR_108659.1:n.*4390C>T	XR_108659.2:n.*4390C>T	NM_000255.3:c.1571G>A	XM_005249143.1:c.1571G>A	NM_000255.2:c.1571G>A
NM_000255.3:c.1588_1595delGCTGAACG		NC_000006.11:g.49412433_49412440delCGTTCAGC	XR_108659.1:n.*4366_*4373delCGTTCAGC	XR_108659.2:n.*4366_*4373delCGTTCAGC	NM_000255.3:c.1588_1595delGCTGAACG	XM_005249143.1:c.1588_1595delGCTGAACG	NM_000255.2:c.1588_1595delGCTGAACG
NM_000255.3:c.1620T>A		NC_000006.11:g.49412408A>T	XR_108659.1:n.*4341A>T	XR_108659.2:n.*4341A>T	NM_000255.3:c.1620T>A	XM_005249143.1:c.1620T>A	NM_000255.2:c.1620T>A
NM_000255.3:c.1630_1631delGGinsTA		NC_000006.11:g.49412397_49412398delinsTA	XR_108659.1:n.*4330_*4331delinsTA	XR_108659.2:n.*4330_*4331delinsTA	NM_000255.3:c.1630_1631delinsTA	XM_005249143.1:c.1630_1631delinsTA	NM_000255.2:c.1630_1631delinsTA
NM_000255.3:c.1658delT		NC_000006.11:g.49412370delA	XR_108659.1:n.*4303delA	XR_108659.2:n.*4303delA	NM_000255.3:c.1658delT	XM_005249143.1:c.1658delT	NM_000255.2:c.1658delT
NM_000255.3:c.1677-2A>C		NC_000006.11:g.49409686T>G	XR_108659.1:n.*1619T>G	XR_108659.2:n.*1619T>G	NM_000255.3:c.1677-2A>C	XM_005249143.1:c.1677-2A>C	NM_000255.2:c.1677-2A>C
NM_000255.3:c.1677-1G>C		NC_000006.11:g.49409685C>G	XR_108659.1:n.*1618C>G	XR_108659.2:n.*1618C>G	NM_000255.3:c.1677-1G>C	XM_005249143.1:c.1677-1G>C	NM_000255.2:c.1677-1G>C
NM_000255.3:c.1677-1G>A		NC_000006.11:g.49409685C>T	XR_108659.1:n.*1618C>T	XR_108659.2:n.*1618C>T	NM_000255.3:c.1677-1G>A	XM_005249143.1:c.1677-1G>A	NM_000255.2:c.1677-1G>A
NM_000255.3:c.1679G>A		NC_000006.11:g.49409682C>T	XR_108659.1:n.*1615C>T	XR_108659.2:n.*1615C>T	NM_000255.3:c.1679G>A	XM_005249143.1:c.1679G>A	NM_000255.2:c.1679G>A
NM_000255.3:c.1697C>G		NC_000006.11:g.49409664G>C	XR_108659.1:n.*1597G>C	XR_108659.2:n.*1597G>C	NM_000255.3:c.1697C>G	XM_005249143.1:c.1697C>G	NM_000255.2:c.1697C>G
NM_000255.3:c.1718T>C		NC_000006.11:g.49409643A>G	XR_108659.1:n.*1576A>G	XR_108659.2:n.*1576A>G	NM_000255.3:c.1718T>C	XM_005249143.1:c.1718T>C	NM_000255.2:c.1718T>C
NM_000255.3:c.1741C>T		NC_000006.11:g.49409620G>A	XR_108659.1:n.*1553G>A	XR_108659.2:n.*1553G>A	NM_000255.3:c.1741C>T	XM_005249143.1:c.1741C>T	NM_000255.2:c.1741C>T
NM_000255.3:c.1760A>G		NC_000006.11:g.49409601T>C	XR_108659.1:n.*1534T>C	XR_108659.2:n.*1534T>C	NM_000255.3:c.1760A>G	XM_005249143.1:c.1760A>G	NM_000255.2:c.1760A>G
NM_000255.3:c.1765C>T		NC_000006.11:g.49409596G>A	XR_108659.1:n.*1529G>A	XR_108659.2:n.*1529G>A	NM_000255.3:c.1765C>T	XM_005249143.1:c.1765C>T	NM_000255.2:c.1765C>T
NM_000255.3:c.1782_1786delTAAAG		NC_000006.11:g.49409575_49409579delCTTTA	XR_108659.1:n.*1508_*1512delCTTTA	XR_108659.2:n.*1508_*1512delCTTTA	NM_000255.3:c.1782_1786delTAAAG	XM_005249143.1:c.1782_1786delTAAAG	NM_000255.2:c.1782_1786delTAAAG
NM_000255.3:c.1808G>C		NC_000006.11:g.49409553C>G	XR_108659.1:n.*1486C>G	XR_108659.2:n.*1486C>G	NM_000255.3:c.1808G>C	XM_005249143.1:c.1808G>C	NM_000255.2:c.1808G>C
NM_000255.3:c.1843C>A		NC_000006.11:g.49408032G>T	XR_108659.1:n.777G>T	XR_108659.2:n.858G>T	NM_000255.3:c.1843C>A	XM_005249143.1:c.1843C>A	NM_000255.2:c.1843C>A
NM_000255.3:c.1844C>T		NC_000006.11:g.49408031G>A	XR_108659.1:n.776G>A	XR_108659.2:n.857G>A	NM_000255.3:c.1844C>T	XM_005249143.1:c.1844C>T	NM_000255.2:c.1844C>T
NM_000255.3:c.1844C>G		NC_000006.11:g.49408031G>C	XR_108659.1:n.776G>C	XR_108659.2:n.857G>C	NM_000255.3:c.1844C>G	XM_005249143.1:c.1844C>G	NM_000255.2:c.1844C>G
NM_000255.3:c.1846C>T		NC_000006.11:g.49408029G>A	XR_108659.1:n.774G>A	XR_108659.2:n.855G>A	NM_000255.3:c.1846C>T	XM_005249143.1:c.1846C>T	NM_000255.2:c.1846C>T
NM_000255.3:c.1850T>G		NC_000006.11:g.49408025A>C	XR_108659.1:n.770A>C	XR_108659.2:n.851A>C	NM_000255.3:c.1850T>G	XM_005249143.1:c.1850T>G	NM_000255.2:c.1850T>G
NM_000255.3:c.1863A>T		NC_000006.11:g.49408012T>A	XR_108659.1:n.757T>A	XR_108659.2:n.838T>A	NM_000255.3:c.1863A>T	XM_005249143.1:c.1863A>T	NM_000255.2:c.1863A>T
NM_000255.3:c.1867G>A		NC_000006.11:g.49408008C>T	XR_108659.1:n.753C>T	XR_108659.2:n.834C>T	NM_000255.3:c.1867G>A	XM_005249143.1:c.1867G>A	NM_000255.2:c.1867G>A
NM_000255.3:c.1867G>C		NC_000006.11:g.49408008C>G	XR_108659.1:n.753C>G	XR_108659.2:n.834C>G	NM_000255.3:c.1867G>C	XM_005249143.1:c.1867G>C	NM_000255.2:c.1867G>C
NM_000255.3:c.1871A>G		NC_000006.11:g.49408004T>C	XR_108659.1:n.749T>C	XR_108659.2:n.830T>C	NM_000255.3:c.1871A>G	XM_005249143.1:c.1871A>G	NM_000255.2:c.1871A>G
NM_000255.3:c.1874A>T		NC_000006.11:g.49408001T>A	XR_108659.1:n.746T>A	XR_108659.2:n.827T>A	NM_000255.3:c.1874A>T	XM_005249143.1:c.1874A>T	NM_000255.2:c.1874A>T
NM_000255.3:c.1876G>T		NC_000006.11:g.49407999C>A	XR_108659.1:n.744C>A	XR_108659.2:n.825C>A	NM_000255.3:c.1876G>T	XM_005249143.1:c.1876G>T	NM_000255.2:c.1876G>T
NM_000255.3:c.1877_1889del13		NC_000006.11:g.49407986_49407998del13	XR_108659.1:n.731_743del13	XR_108659.2:n.812_824del13	NM_000255.3:c.1877_1889del13	XM_005249143.1:c.1877_1889del13	NM_000255.2:c.1877_1889del13
NM_000255.3:c.1880A>G		NC_000006.11:g.49407995T>C	XR_108659.1:n.740T>C	XR_108659.2:n.821T>C	NM_000255.3:c.1880A>G	XM_005249143.1:c.1880A>G	NM_000255.2:c.1880A>G
NM_000255.3:c.1885dupA		NC_000006.11:g.49407990dup	XR_108659.1:n.735dup	XR_108659.2:n.816dup	NM_000255.3:c.1885dup	XM_005249143.1:c.1885dup	NM_000255.2:c.1885dup
NM_000255.3:c.1885A>G		NC_000006.11:g.49407990T>C	XR_108659.1:n.735T>C	XR_108659.2:n.816T>C	NM_000255.3:c.1885A>G	XM_005249143.1:c.1885A>G	NM_000255.2:c.1885A>G
NM_000255.3:c.1889G>A		NC_000006.11:g.49407986C>T	XR_108659.1:n.731C>T	XR_108659.2:n.812C>T	NM_000255.3:c.1889G>A	XM_005249143.1:c.1889G>A	NM_000255.2:c.1889G>A
NM_000255.3:c.1891delG		NC_000006.11:g.49407984delC	XR_108659.1:n.729delC	XR_108659.2:n.810delC	NM_000255.3:c.1891delG	XM_005249143.1:c.1891delG	NM_000255.2:c.1891delG
NM_000255.3:c.1898T>G		NC_000006.11:g.49407977A>C	XR_108659.1:n.722A>C	XR_108659.2:n.803A>C	NM_000255.3:c.1898T>G	XM_005249143.1:c.1898T>G	NM_000255.2:c.1898T>G
NM_000255.3:c.1909G>A		NC_000006.11:g.49407966C>T	XR_108659.1:n.711C>T	XR_108659.2:n.792C>T	NM_000255.3:c.1909G>A	XM_005249143.1:c.1909G>A	NM_000255.2:c.1909G>A
NM_000255.3:c.1910G>A		NC_000006.11:g.49407965C>T	XR_108659.1:n.710C>T	XR_108659.2:n.791C>T	NM_000255.3:c.1910G>A	XM_005249143.1:c.1910G>A	NM_000255.2:c.1910G>A
NM_000255.3:c.1912T>A		NC_000006.11:g.49407963A>T	XR_108659.1:n.708A>T	XR_108659.2:n.789A>T	NM_000255.3:c.1912T>A	XM_005249143.1:c.1912T>A	NM_000255.2:c.1912T>A
NM_000255.3:c.1918G>T		NC_000006.11:g.49407957C>A	XR_108659.1:n.702C>A	XR_108659.2:n.783C>A	NM_000255.3:c.1918G>T	XM_005249143.1:c.1918G>T	NM_000255.2:c.1918G>T
NM_000255.3:c.1924G>C		NC_000006.11:g.49407951C>G	XR_108659.1:n.696C>G	XR_108659.2:n.777C>G	NM_000255.3:c.1924G>C	XM_005249143.1:c.1924G>C	NM_000255.2:c.1924G>C
NM_000255.3:c.1939A>T		NC_000006.11:g.49407936T>A	XR_108659.1:n.681T>A	XR_108659.2:n.762T>A	NM_000255.3:c.1939A>T	XM_005249143.1:c.1939A>T	NM_000255.2:c.1939A>T
NM_000255.3:c.1943G>A		NC_000006.11:g.49407932C>T	XR_108659.1:n.677C>T	XR_108659.2:n.758C>T	NM_000255.3:c.1943G>A	XM_005249143.1:c.1943G>A	NM_000255.2:c.1943G>A
NM_000255.3:c.1946delC		NC_000006.11:g.49407929delG	XR_108659.1:n.674delG	XR_108659.2:n.755delG	NM_000255.3:c.1946delC	XM_005249143.1:c.1946delC	NM_000255.2:c.1946delC
NM_000255.3:c.1956+1G>A		NC_000006.11:g.49407918C>T	XR_108659.1:n.663C>T	XR_108659.2:n.744C>T	NM_000255.3:c.1956+1G>A	XM_005249143.1:c.1956+1G>A	NM_000255.2:c.1956+1G>A
NM_000255.3:c.1957-2A>G		NC_000006.11:g.49403338T>C	XR_108659.1:n.660+4T>C	XR_108659.2:n.741+4T>C	NM_000255.3:c.1957-2A>G	XM_005249143.1:c.1957-2A>G	NM_000255.2:c.1957-2A>G
NM_000255.3:c.1957_2124del		NC_000006.11:g.49403169_49403336del	XR_108659.1:n.500-5_660+2del	XR_108659.2:n.581-5_741+2del	NM_000255.3:c.1957_2124del	XM_005249143.1:c.1957_2124del	NM_000255.2:c.1957_2124del
NM_000255.3:c.1957-898A>G		NC_000006.11:g.49404234T>C	XR_108659.1:n.660+900T>C	XR_108659.2:n.741+900T>C	NM_000255.3:c.1957-898A>G	XM_005249143.1:c.1957-898A>G	NM_000255.2:c.1957-898A>G
NM_000255.3:c.1962delT		NC_000006.11:g.49403331delA	XR_108659.1:n.657delA	XR_108659.2:n.738delA	NM_000255.3:c.1962delT	XM_005249143.1:c.1962delT	NM_000255.2:c.1962delT
NM_000255.3:c.1962_1963delTC		NC_000006.11:g.49403330_49403331delGA	XR_108659.1:n.656_657delGA	XR_108659.2:n.737_738delGA	NM_000255.3:c.1962_1963delTC	XM_005249143.1:c.1962_1963delTC	NM_000255.2:c.1962_1963delTC
NM_000255.3:c.2006T>A		NC_000006.11:g.49403287A>T	XR_108659.1:n.613A>T	XR_108659.2:n.694A>T	NM_000255.3:c.2006T>A	XM_005249143.1:c.2006T>A	NM_000255.2:c.2006T>A
NM_000255.3:c.2009delG		NC_000006.11:g.49403284delC	XR_108659.1:n.610delC	XR_108659.2:n.691delC	NM_000255.3:c.2009delG	XM_005249143.1:c.2009delG	NM_000255.2:c.2009delG
NM_000255.3:c.2020C>T		NC_000006.11:g.49403273G>A	XR_108659.1:n.599G>A	XR_108659.2:n.680G>A	NM_000255.3:c.2020C>T	XM_005249143.1:c.2020C>T	NM_000255.2:c.2020C>T
NM_000255.3:c.2033A>G		NC_000006.11:g.49403260T>C	XR_108659.1:n.586T>C	XR_108659.2:n.667T>C	NM_000255.3:c.2033A>G	XM_005249143.1:c.2033A>G	NM_000255.2:c.2033A>G
NM_000255.3:c.2053_2055dupCTC		NC_000006.11:g.49403238_49403240dup	XR_108659.1:n.564_566dup	XR_108659.2:n.645_647dup	NM_000255.3:c.2053_2055dup	XM_005249143.1:c.2053_2055dup	NM_000255.2:c.2053_2055dup
NM_000255.3:c.2054T>G		NC_000006.11:g.49403239A>C	XR_108659.1:n.565A>C	XR_108659.2:n.646A>C	NM_000255.3:c.2054T>G	XM_005249143.1:c.2054T>G	NM_000255.2:c.2054T>G
NM_000255.3:c.2062G>T		NC_000006.11:g.49403231C>A	XR_108659.1:n.557C>A	XR_108659.2:n.638C>A	NM_000255.3:c.2062G>T	XM_005249143.1:c.2062G>T	NM_000255.2:c.2062G>T
NM_000255.3:c.2080C>T		NC_000006.11:g.49403213G>A	XR_108659.1:n.539G>A	XR_108659.2:n.620G>A	NM_000255.3:c.2080C>T	XM_005249143.1:c.2080C>T	NM_000255.2:c.2080C>T
NM_000255.3:c.2081G>T		NC_000006.11:g.49403212C>A	XR_108659.1:n.538C>A	XR_108659.2:n.619C>A	NM_000255.3:c.2081G>T	XM_005249143.1:c.2081G>T	NM_000255.2:c.2081G>T
NM_000255.3:c.2089_2101del13		NC_000006.11:g.49403192_49403204del13	XR_108659.1:n.518_530del13	XR_108659.2:n.599_611del13	NM_000255.3:c.2089_2101del13	XM_005249143.1:c.2089_2101del13	NM_000255.2:c.2089_2101del13
NM_000255.3:c.2098_2099delAT		NC_000006.11:g.49403194_49403195delAT	XR_108659.1:n.520_521delAT	XR_108659.2:n.601_602delAT	NM_000255.3:c.2098_2099delAT	XM_005249143.1:c.2098_2099delAT	NM_000255.2:c.2098_2099delAT
NM_000255.3:c.2099T>A		NC_000006.11:g.49403194A>T	XR_108659.1:n.520A>T	XR_108659.2:n.601A>T	NM_000255.3:c.2099T>A	XM_005249143.1:c.2099T>A	NM_000255.2:c.2099T>A
NM_000255.3:c.2107G>C		NC_000006.11:g.49403186C>G	XR_108659.1:n.512C>G	XR_108659.2:n.593C>G	NM_000255.3:c.2107G>C	XM_005249143.1:c.2107G>C	NM_000255.2:c.2107G>C
NM_000255.3:c.2115dupA		NC_000006.11:g.49403178dup	XR_108659.1:n.504dup	XR_108659.2:n.585dup	NM_000255.3:c.2115dup	XM_005249143.1:c.2115dup	NM_000255.2:c.2115dup
NM_000255.3:c.2124+1G>A		NC_000006.11:g.49403168C>T	XR_108659.1:n.500-6C>T	XR_108659.2:n.581-6C>T	NM_000255.3:c.2124+1G>A	XM_005249143.1:c.2124+1G>A	NM_000255.2:c.2124+1G>A
NM_000255.3:c.2125-1G>A		NC_000006.11:g.49399570C>T	XR_108659.1:n.495C>T	XR_108659.2:n.576C>T	NM_000255.3:c.2125-1G>A	XM_005249143.1:c.2125-1G>A	NM_000255.2:c.2125-1G>A
NM_000255.3:c.2130T>G		NC_000006.11:g.49399564A>C	XR_108659.1:n.489A>C	XR_108659.2:n.570A>C	NM_000255.3:c.2130T>G	XM_005249143.1:c.2130T>G	NM_000255.2:c.2130T>G
NM_000255.3:c.2150G>T		NC_000006.11:g.49399544C>A	XR_108659.1:n.469C>A	XR_108659.2:n.550C>A	NM_000255.3:c.2150G>T	XM_005249143.1:c.2150G>T	NM_000255.2:c.2150G>T
NM_000255.3:c.2156C>T		NC_000006.11:g.49399538G>A	XR_108659.1:n.463G>A	XR_108659.2:n.544G>A	NM_000255.3:c.2156C>T	XM_005249143.1:c.2156C>T	NM_000255.2:c.2156C>T
NM_000255.3:c.2159_2160delAT		NC_000006.11:g.49399534_49399535delAT	XR_108659.1:n.459_460delAT	XR_108659.2:n.540_541delAT	NM_000255.3:c.2159_2160delAT	XM_005249143.1:c.2159_2160delAT	NM_000255.2:c.2159_2160delAT
NM_000255.3:c.2179C>T		NC_000006.11:g.49399515G>A	XR_108659.1:n.440G>A	XR_108659.2:n.521G>A	NM_000255.3:c.2179C>T	XM_005249143.1:c.2179C>T	NM_000255.2:c.2179C>T
NM_000255.3:c.2194_2197delGCCGinsTGA		NC_000006.11:g.49399497_49399500delinsTCA	XR_108659.1:n.422_425delinsTCA	XR_108659.2:n.503_506delinsTCA	NM_000255.3:c.2194_2197delinsTGA	XM_005249143.1:c.2194_2197delinsTGA	NM_000255.2:c.2194_2197delinsTGA
NM_000255.3:c.2216T>C		NC_000006.11:g.49399478A>G	XR_108659.1:n.403A>G	XR_108659.2:n.484A>G	NM_000255.3:c.2216T>C	XM_005249143.1:c.2216T>C	NM_000255.2:c.2216T>C
