Input Variant	Errors	Chromosomal Variant	Coding Variant(s)
NM_000203.3:c.1A>C		NC_000004.11:g.980873A>C	NM_134425.1:c.576+4043T>G	NM_134425.2:c.576+4043T>G	NM_022042.2:c.*1748T>G	NM_213613.2:c.*1748T>G	NM_022042.3:c.*1748T>G	NM_213613.3:c.*1748T>G	NM_000203.3:c.1A>C	XM_005272276.1:c.1A>C
NM_000203.3:c.1-2C>G		NC_000004.11:g.980871C>G	NM_134425.1:c.576+4045G>C	NM_134425.2:c.576+4045G>C	NM_022042.2:c.*1750G>C	NM_213613.2:c.*1750G>C	NM_022042.3:c.*1750G>C	NM_213613.3:c.*1750G>C	NM_000203.3:c.-2C>G	XM_005272276.1:c.-2C>G
NM_000203.3:c.2T>C		NC_000004.11:g.980874T>C	NM_134425.1:c.576+4042A>G	NM_134425.2:c.576+4042A>G	NM_022042.2:c.*1747A>G	NM_213613.2:c.*1747A>G	NM_022042.3:c.*1747A>G	NM_213613.3:c.*1747A>G	NM_000203.3:c.2T>C	XM_005272276.1:c.2T>C
NM_000203.3:c.46_57del12		NC_000004.11:g.980918_980929del12	NM_134425.1:c.576+3987_576+3998del12	NM_134425.2:c.576+3987_576+3998del12	NM_022042.2:c.*1692_*1703del12	NM_213613.2:c.*1692_*1703del12	NM_022042.3:c.*1692_*1703del12	NM_213613.3:c.*1692_*1703del12	NM_000203.3:c.46_57del12	XM_005272276.1:c.46_57del12
NM_000203.3:c.65delC		NC_000004.11:g.980937delC	NM_134425.1:c.576+3979delG	NM_134425.2:c.576+3979delG	NM_022042.2:c.*1684delG	NM_213613.2:c.*1684delG	NM_022042.3:c.*1684delG	NM_213613.3:c.*1684delG	NM_000203.3:c.65delC	XM_005272276.1:c.65delC
NM_000203.3:c.98A>C		NC_000004.11:g.980970A>C	NM_134425.1:c.576+3946T>G	NM_134425.2:c.576+3946T>G	NM_022042.2:c.*1651T>G	NM_213613.2:c.*1651T>G	NM_022042.3:c.*1651T>G	NM_213613.3:c.*1651T>G	NM_000203.3:c.98A>C	XM_005272276.1:c.98A>C
NM_000203.3:c.123G>A		NC_000004.11:g.980995G>A	NM_134425.1:c.576+3921C>T	NM_134425.2:c.576+3921C>T	NM_022042.2:c.*1626C>T	NM_213613.2:c.*1626C>T	NM_022042.3:c.*1626C>T	NM_213613.3:c.*1626C>T	NM_000203.3:c.123G>A	XM_005272276.1:c.123G>A
NM_000203.3:c.144_146delGAG		NC_000004.11:g.981016_981018delGAG	NM_134425.1:c.576+3898_576+3900delCTC	NM_134425.2:c.576+3898_576+3900delCTC	NM_022042.2:c.*1603_*1605delCTC	NM_213613.2:c.*1603_*1605delCTC	NM_022042.3:c.*1603_*1605delCTC	NM_213613.3:c.*1603_*1605delCTC	NM_000203.3:c.144_146delGAG	XM_005272276.1:c.144_146delGAG
NM_000203.3:c.152G>A		NC_000004.11:g.981024G>A	NM_134425.1:c.576+3892C>T	NM_134425.2:c.576+3892C>T	NM_022042.2:c.*1597C>T	NM_213613.2:c.*1597C>T	NM_022042.3:c.*1597C>T	NM_213613.3:c.*1597C>T	NM_000203.3:c.152G>A	XM_005272276.1:c.152G>A
NM_000203.3:c.156C>A		NC_000004.11:g.981028C>A	NM_134425.1:c.576+3888G>T	NM_134425.2:c.576+3888G>T	NM_022042.2:c.*1593G>T	NM_213613.2:c.*1593G>T	NM_022042.3:c.*1593G>T	NM_213613.3:c.*1593G>T	NM_000203.3:c.156C>A	XM_005272276.1:c.156C>A
NM_000203.3:c.159C>A		NC_000004.11:g.981597C>A	NM_134425.1:c.576+3319G>T	NM_134425.2:c.576+3319G>T	NM_022042.2:c.*1024G>T	NM_213613.2:c.*1024G>T	NM_022042.3:c.*1024G>T	NM_213613.3:c.*1024G>T	NM_000203.3:c.159C>A	XM_005272276.1:c.158+567C>A
NM_000203.3:c.164dupC		NC_000004.11:g.981602dupC	NM_134425.1:c.576+3314dupG	NM_134425.2:c.576+3314dupG	NM_022042.2:c.*1019dupG	NM_213613.2:c.*1019dupG	NM_022042.3:c.*1019dupG	NM_213613.3:c.*1019dupG	NM_000203.3:c.164dupC	XM_005272276.1:c.158+572dupC
NM_000203.3:c.178C>T		NC_000004.11:g.981616C>T	NM_134425.1:c.576+3300G>A	NM_134425.2:c.576+3300G>A	NM_022042.2:c.*1005G>A	NM_213613.2:c.*1005G>A	NM_022042.3:c.*1005G>A	NM_213613.3:c.*1005G>A	NM_000203.3:c.178C>T	XM_005272276.1:c.158+586C>T
NM_000203.3:c.208C>T		NC_000004.11:g.981646C>T	NM_134425.1:c.576+3270G>A	NM_134425.2:c.576+3270G>A	NM_022042.2:c.*975G>A	NM_213613.2:c.*975G>A	NM_022042.3:c.*975G>A	NM_213613.3:c.*975G>A	NM_000203.3:c.208C>T	XM_005272276.1:c.158+616C>T
NM_000203.3:c.223G>C		NC_000004.11:g.981661G>C	NM_134425.1:c.576+3255C>G	NM_134425.2:c.576+3255C>G	NM_022042.2:c.*960C>G	NM_213613.2:c.*960C>G	NM_022042.3:c.*960C>G	NM_213613.3:c.*960C>G	NM_000203.3:c.223G>C	XM_005272276.1:c.158+631G>C
NM_000203.3:c.223G>A		NC_000004.11:g.981661G>A	NM_134425.1:c.576+3255C>T	NM_134425.2:c.576+3255C>T	NM_022042.2:c.*960C>T	NM_213613.2:c.*960C>T	NM_022042.3:c.*960C>T	NM_213613.3:c.*960C>T	NM_000203.3:c.223G>A	XM_005272276.1:c.158+631G>A
NM_000203.3:c.227A>G		NC_000004.11:g.981665A>G	NM_134425.1:c.576+3251T>C	NM_134425.2:c.576+3251T>C	NM_022042.2:c.*956T>C	NM_213613.2:c.*956T>C	NM_022042.3:c.*956T>C	NM_213613.3:c.*956T>C	NM_000203.3:c.227A>G	XM_005272276.1:c.158+635A>G
NM_000203.3:c.236C>T		NC_000004.11:g.981674C>T	NM_134425.1:c.576+3242G>A	NM_134425.2:c.576+3242G>A	NM_022042.2:c.*947G>A	NM_213613.2:c.*947G>A	NM_022042.3:c.*947G>A	NM_213613.3:c.*947G>A	NM_000203.3:c.236C>T	XM_005272276.1:c.158+644C>T
NM_000203.3:c.245A>C		NC_000004.11:g.981683A>C	NM_134425.1:c.576+3233T>G	NM_134425.2:c.576+3233T>G	NM_022042.2:c.*938T>G	NM_213613.2:c.*938T>G	NM_022042.3:c.*938T>G	NM_213613.3:c.*938T>G	NM_000203.3:c.245A>C	XM_005272276.1:c.158+653A>C
NM_000203.3:c.250G>C		NC_000004.11:g.981688G>C	NM_134425.1:c.576+3228C>G	NM_134425.2:c.576+3228C>G	NM_022042.2:c.*933C>G	NM_213613.2:c.*933C>G	NM_022042.3:c.*933C>G	NM_213613.3:c.*933C>G	NM_000203.3:c.250G>C	XM_005272276.1:c.158+658G>C
NM_000203.3:c.265C>T		NC_000004.11:g.981703C>T	NM_134425.1:c.576+3213G>A	NM_134425.2:c.576+3213G>A	NM_022042.2:c.*918G>A	NM_213613.2:c.*918G>A	NM_022042.3:c.*918G>A	NM_213613.3:c.*918G>A	NM_000203.3:c.265C>T	XM_005272276.1:c.158+673C>T
NM_000203.3:c.266G>A		NC_000004.11:g.981704G>A	NM_134425.1:c.576+3212C>T	NM_134425.2:c.576+3212C>T	NM_022042.2:c.*917C>T	NM_213613.2:c.*917C>T	NM_022042.3:c.*917C>T	NM_213613.3:c.*917C>T	NM_000203.3:c.266G>A	XM_005272276.1:c.158+674G>A
NM_000203.3:c.299+4G>A		NC_000004.11:g.981741G>A	NM_134425.1:c.576+3175C>T	NM_134425.2:c.576+3175C>T	NM_022042.2:c.*880C>T	NM_213613.2:c.*880C>T	NM_022042.3:c.*880C>T	NM_213613.3:c.*880C>T	NM_000203.3:c.299+4G>A	XM_005272276.1:c.158+711G>A
NM_000203.3:c.300-1G>C		NC_000004.11:g.994399G>C	NM_000203.3:c.300-1G>C	XM_005272276.1:c.159-1G>C
NM_000203.3:c.300-3C>G		NC_000004.11:g.994397C>G	NM_000203.3:c.300-3C>G	XM_005272276.1:c.159-3C>G
NM_000203.3:c.314G>A		NC_000004.11:g.994414G>A	NM_000203.3:c.314G>A	XM_005272276.1:c.173G>A
NM_000203.3:c.349delT		NC_000004.11:g.994449delT	NM_000203.3:c.349delT	XM_005272276.1:c.208delT
NM_000203.3:c.380_382del3		NC_000004.11:g.994480_994482del3	NM_000203.3:c.380_382del3	XM_005272276.1:c.239_241del3
NM_000203.3:c.385+1G>A		NC_000004.11:g.994486G>A	NM_000203.3:c.385+1G>A	XM_005272276.1:c.244+1G>A
NM_000203.3:c.386-2A>G		NC_000004.11:g.994668A>G	NM_000203.3:c.386-2A>G	XM_005272276.1:c.245-2A>G
NM_000203.3:c.398_403del6		NC_000004.11:g.994682_994687del6	NM_000203.3:c.398_403del6	XM_005272276.1:c.257_262del6
NM_000203.3:c.399G>C		NC_000004.11:g.994683G>C	NM_000203.3:c.399G>C	XM_005272276.1:c.258G>C
NM_000203.3:c.479C>A		NC_000004.11:g.994763C>A	NM_000203.3:c.479C>A	XM_005272276.1:c.338C>A
NM_000203.3:c.493+1G>A		NC_000004.11:g.994778G>A	NM_000203.3:c.493+1G>A	XM_005272276.1:c.352+1G>A
NM_000203.3:c.494-1G>A		NC_000004.11:g.995255G>A	NM_000203.3:c.494-1G>A	XM_005272276.1:c.353-1G>A
NM_000203.3:c.501C>A		NC_000004.11:g.995263C>A	NM_000203.3:c.501C>A	XM_005272276.1:c.360C>A
NM_000203.3:c.503G>T		NC_000004.11:g.995265G>T	NM_000203.3:c.503G>T	XM_005272276.1:c.362G>T
NM_000203.3:c.530T>C		NC_000004.11:g.995292T>C	NM_000203.3:c.530T>C	XM_005272276.1:c.389T>C
NM_000203.3:c.532G>A		NC_000004.11:g.995294G>A	NM_000203.3:c.532G>A	XM_005272276.1:c.391G>A
NM_000203.3:c.536C>G		NC_000004.11:g.995298C>G	NM_000203.3:c.536C>G	XM_005272276.1:c.395C>G
NM_000203.3:c.540_544delGAATG		NC_000004.11:g.995302_995306delGAATG	NM_000203.3:c.540_544delGAATG	XM_005272276.1:c.399_403delGAATG
NM_000203.3:c.544G>A		NC_000004.11:g.995306G>A	NM_000203.3:c.544G>A	XM_005272276.1:c.403G>A
NM_000203.3:c.546G>C		NC_000004.11:g.995308G>C	NM_000203.3:c.546G>C	XM_005272276.1:c.405G>C
NM_000203.3:c.548C>G		NC_000004.11:g.995310C>G	NM_000203.3:c.548C>G	XM_005272276.1:c.407C>G
NM_000203.3:c.574delT		NC_000004.11:g.995336delT	NM_000203.3:c.574delT	XM_005272276.1:c.433delT
NM_000203.3:c.589G>A		NC_000004.11:g.995351G>A	NM_000203.3:c.589G>A	XM_005272276.1:c.448G>A
NM_000203.3:c.590-7G>A		NC_000004.11:g.995460G>A	NM_000203.3:c.590-7G>A	XM_005272276.1:c.449-7G>A
NM_000203.3:c.590G>A		NC_000004.11:g.995467G>A	NM_000203.3:c.590G>A	XM_005272276.1:c.449G>A
NM_000203.3:c.603C>G		NC_000004.11:g.995480C>G	NM_000203.3:c.603C>G	XM_005272276.1:c.462C>G
NM_000203.3:c.606C>A		NC_000004.11:g.995483C>A	NM_000203.3:c.606C>A	XM_005272276.1:c.465C>A
NM_000203.3:c.607G>A		NC_000004.11:g.995484G>A	NM_000203.3:c.607G>A	XM_005272276.1:c.466G>A
NM_000203.3:c.614G>A		NC_000004.11:g.995491G>A	NM_000203.3:c.614G>A	XM_005272276.1:c.473G>A
NM_000203.3:c.623G>T		NC_000004.11:g.995500G>T	NM_000203.3:c.623G>T	XM_005272276.1:c.482G>T
NM_000203.3:c.623G>A		NC_000004.11:g.995500G>A	NM_000203.3:c.623G>A	XM_005272276.1:c.482G>A
NM_000203.3:c.652delC		NC_000004.11:g.995529delC	NM_000203.3:c.652delC	XM_005272276.1:c.511delC
NM_000203.3:c.653T>C		NC_000004.11:g.995530T>C	NM_000203.3:c.653T>C	XM_005272276.1:c.512T>C
NM_000203.3:c.656G>A		NC_000004.11:g.995533G>A	NM_000203.3:c.656G>A	XM_005272276.1:c.515G>A
NM_000203.3:c.656dupG		NC_000004.11:g.995533dupG	NM_000203.3:c.656dupG	XM_005272276.1:c.515dupG
NM_000203.3:c.659delG		NC_000004.11:g.995536delG	NM_000203.3:c.659delG	XM_005272276.1:c.518delG
NM_000203.3:c.665_667dupGCG		NC_000004.11:g.995542_995544dupGCG	NM_000203.3:c.665_667dupGCG	XM_005272276.1:c.524_526dupGCG
NM_000203.3:c.710T>G		NC_000004.11:g.995587T>G	NM_000203.3:c.710T>G	XM_005272276.1:c.569T>G
NM_000203.3:c.713T>A		NC_000004.11:g.995590T>A	NM_000203.3:c.713T>A	XM_005272276.1:c.572T>A
NM_000203.3:c.713T>G		NC_000004.11:g.995590T>G	NM_000203.3:c.713T>G	XM_005272276.1:c.572T>G
NM_000203.3:c.718C>G		NC_000004.11:g.995595C>G	NM_000203.3:c.718C>G	XM_005272276.1:c.577C>G
NM_000203.3:c.719A>G		NC_000004.11:g.995596A>G	NM_000203.3:c.719A>G	XM_005272276.1:c.578A>G
NM_000203.3:c.779C>T		NC_000004.11:g.995656C>T	NM_000203.3:c.779C>T	XM_005272276.1:c.638C>T
NM_000203.3:c.792+1G>T		NC_000004.11:g.995670G>T	NM_000203.3:c.792+1G>T	XM_005272276.1:c.652G>T
NM_000203.3:c.792+1G>C		NC_000004.11:g.995670G>C	NM_000203.3:c.792+1G>C	XM_005272276.1:c.652G>C
NM_000203.3:c.793G>C		NC_000004.11:g.995770G>C	NM_000203.3:c.793G>C	XM_005272276.1:c.752G>C
NM_000203.3:c.809T>G		NC_000004.11:g.995786T>G	NM_000203.3:c.809T>G	XM_005272276.1:c.768T>G
NM_000203.3:c.826_828delGAG		NC_000004.11:g.995803_995805delGAG	NM_000203.3:c.826_828delGAG	XM_005272276.1:c.785_787delGAG
NM_000203.3:c.826G>A		NC_000004.11:g.995803G>A	NM_000203.3:c.826G>A	XM_005272276.1:c.785G>A
NM_000203.3:c.878_889dup12		NC_000004.11:g.995855_995866dup12	NM_000203.3:c.878_889dup12	XM_005272276.1:c.837_848dup12
NM_000203.3:c.882dupC		NC_000004.11:g.995859dupC	NM_000203.3:c.882dupC	XM_005272276.1:c.841dupC
NM_000203.3:c.917G>T		NC_000004.11:g.995894G>T	NM_000203.3:c.917G>T	XM_005272276.1:c.876G>T
NM_000203.3:c.943G>T		NC_000004.11:g.995920G>T	NM_000203.3:c.943G>T	XM_005272276.1:c.902G>T
NM_000203.3:c.956C>T		NC_000004.11:g.995933C>T	NM_000203.3:c.956C>T	XM_005272276.1:c.915C>T
NM_000203.3:c.956_972+9delinsTA		NC_000004.11:g.995933_995958delinsTA	NM_000203.3:c.956_972+9delinsTA	XM_005272276.1:c.915_940delinsTA
NM_000203.3:c.972+2T>C		NC_000004.11:g.995951T>C	NM_000203.3:c.972+2T>C	XM_005272276.1:c.933T>C
NM_000203.3:c.973-4G>A		NC_000004.11:g.996053G>A	NM_000203.3:c.973-4G>A	XM_005272276.1:c.1035G>A
NM_000203.3:c.979G>C		NC_000004.11:g.996063G>C	NM_000203.3:c.979G>C	XM_005272276.1:c.1045G>C
NM_000203.3:c.1039A>C		NC_000004.11:g.996123A>C	NM_000203.3:c.1039A>C	XM_005272276.1:c.1105A>C
NM_000203.3:c.1044C>G		NC_000004.11:g.996128C>G	NM_000203.3:c.1044C>G	XM_005272276.1:c.1110C>G
NM_000203.3:c.1045_1047del3		NC_000004.11:g.996129_996131del3	NM_000203.3:c.1045_1047del3	XM_005272276.1:c.1111_1113del3
NM_000203.3:c.1045G>T		NC_000004.11:g.996129G>T	NM_000203.3:c.1045G>T	XM_005272276.1:c.1111G>T
NM_000203.3:c.1045G>A		NC_000004.11:g.996129G>A	NM_000203.3:c.1045G>A	XM_005272276.1:c.1111G>A
NM_000203.3:c.1049A>T		NC_000004.11:g.996133A>T	NM_000203.3:c.1049A>T	XM_005272276.1:c.1115A>T
NM_000203.3:c.1081G>A		NC_000004.11:g.996165G>A	NM_000203.3:c.1081G>A	XM_005272276.1:c.1147G>A
NM_000203.3:c.1087C>T		NC_000004.11:g.996171C>T	NM_000203.3:c.1087C>T	XM_005272276.1:c.1153C>T
NM_000203.3:c.1088G>A		NC_000004.11:g.996172G>A	NM_000203.3:c.1088G>A	XM_005272276.1:c.1154G>A
NM_000203.3:c.1091C>T		NC_000004.11:g.996175C>T	NM_000203.3:c.1091C>T	XM_005272276.1:c.1157C>T
NM_000203.3:c.1096A>C		NC_000004.11:g.996180A>C	NM_000203.3:c.1096A>C	XM_005272276.1:c.1162A>C
NM_000203.3:c.1121C>A		NC_000004.11:g.996205C>A	NM_000203.3:c.1121C>A	XM_005272276.1:c.1187C>A
NM_000203.3:c.1139A>G		NC_000004.11:g.996223A>G	NM_000203.3:c.1139A>G	XM_005272276.1:c.1205A>G
NM_000203.3:c.1146dupG		NC_000004.11:g.996230dupG	NM_000203.3:c.1146dupG	XM_005272276.1:c.1212dupG
NM_000203.3:c.1154C>G		NC_000004.11:g.996238C>G	NM_000203.3:c.1154C>G	XM_005272276.1:c.1220C>G
NM_000203.3:c.1162dupA		NC_000004.11:g.996246dupA	NM_000203.3:c.1162dupA	XM_005272276.1:c.1228dupA
NM_000203.3:c.1163C>G		NC_000004.11:g.996247C>G	NM_000203.3:c.1163C>G	XM_005272276.1:c.1229C>G
NM_000203.3:c.1166_1171dup		NC_000004.11:g.996250_996255dup	NM_000203.3:c.1166_1171dup	XM_005272276.1:c.1232_1237dup
NM_000203.3:c.1181_1189dup		NC_000004.11:g.996265_996273dup	NM_000203.3:c.1181_1189dup	XM_005272276.1:c.1247_1255dup
NM_000203.3:c.1187T>C		NC_000004.11:g.996271T>C	NM_000203.3:c.1187T>C	XM_005272276.1:c.1253T>C
NM_000203.3:c.1189+4A>G		NC_000004.11:g.996277A>G	NM_000203.3:c.1189+4A>G	XM_005272276.1:c.1255+4A>G
NM_000203.3:c.1189+5G>A		NC_000004.11:g.996278G>A	NM_000203.3:c.1189+5G>A	XM_005272276.1:c.1255+5G>A
NM_000203.3:c.1190-1G>A		NC_000004.11:g.996519G>A	NM_000203.3:c.1190-1G>A	XM_005272276.1:c.1256-1G>A
NM_000203.3:c.1190-1delG		NC_000004.11:g.996519delG	NM_000203.3:c.1190-1delG	XM_005272276.1:c.1256-1delG
NM_000203.3:c.1198C>T		NC_000004.11:g.996528C>T	NM_000203.3:c.1198C>T	XM_005272276.1:c.1264C>T
NM_000203.3:c.1205G>A		NC_000004.11:g.996535G>A	NM_000203.3:c.1205G>A	XM_005272276.1:c.1271G>A
NM_000203.3:c.1210G>T		NC_000004.11:g.996540G>T	NM_000203.3:c.1210G>T	XM_005272276.1:c.1276G>T
NM_000203.3:c.1225dupG		NC_000004.11:g.996555dupG	NM_000203.3:c.1225dupG	XM_005272276.1:c.1291dupG
NM_000203.3:c.1244_1271del		NC_000004.11:g.996574_996601del	NM_000203.3:c.1244_1271del	XM_005272276.1:c.1310_1337del
NM_000203.3:c.1262T>C		NC_000004.11:g.996592T>C	NM_000203.3:c.1262T>C	XM_005272276.1:c.1328T>C
NM_000203.3:c.1269C>G		NC_000004.11:g.996599C>G	NM_000203.3:c.1269C>G	XM_005272276.1:c.1335C>G
NM_000203.3:c.1306G>C		NC_000004.11:g.996636G>C	NM_000203.3:c.1306G>C	XM_005272276.1:c.1372G>C
NM_000203.3:c.1333_1335del3		NC_000004.11:g.996663_996665del3	NM_000203.3:c.1333_1335del3	XM_005272276.1:c.1399_1401del3
NM_000203.3:c.1398delC		NC_000004.11:g.996728delC	NM_000203.3:c.1398delC	XM_005272276.1:c.1464delC
NM_000203.3:c.1402+1G>T		NC_000004.11:g.996733G>T	NM_000203.3:c.1402+1G>T	XM_005272276.1:c.1468+1G>T
NM_000203.3:c.1402+2T>G		NC_000004.11:g.996734T>G	NM_000203.3:c.1402+2T>G	XM_005272276.1:c.1468+2T>G
NM_000203.3:c.1466G>C		NC_000004.11:g.996887G>C	NM_000203.3:c.1466G>C	XM_005272276.1:c.1532G>C
NM_000203.3:c.1469T>C		NC_000004.11:g.996890T>C	NM_000203.3:c.1469T>C	XM_005272276.1:c.1535T>C
NM_000203.3:c.1475G>C		NC_000004.11:g.996896G>C	NM_000203.3:c.1475G>C	XM_005272276.1:c.1541G>C
NM_000203.3:c.1487C>G		NC_000004.11:g.996908C>G	NM_000203.3:c.1487C>G	XM_005272276.1:c.1553C>G
NM_000203.3:c.1487C>T		NC_000004.11:g.996908C>T	NM_000203.3:c.1487C>T	XM_005272276.1:c.1553C>T
NM_000203.3:c.1593delG		NC_000004.11:g.997201delG	NM_000203.3:c.1593delG	XM_005272276.1:c.1659delG
NM_000203.3:c.1598C>G		NC_000004.11:g.997206C>G	NM_000203.3:c.1598C>G	XM_005272276.1:c.1664C>G
NM_000203.3:c.1598C>T		NC_000004.11:g.997206C>T	NM_000203.3:c.1598C>T	XM_005272276.1:c.1664C>T
NM_000203.3:c.1603C>T		NC_000004.11:g.997211C>T	NM_000203.3:c.1603C>T	XM_005272276.1:c.1669C>T
NM_000203.3:c.1614delG		NC_000004.11:g.997222delG	NM_000203.3:c.1614delG	XM_005272276.1:c.1680delG
NM_000203.3:c.1650+5G>C		NC_000004.11:g.997263G>C	NM_000203.3:c.1650+5G>C	XM_005272276.1:c.1716+5G>C
NM_000203.3:c.1650+5G>A		NC_000004.11:g.997263G>A	NM_000203.3:c.1650+5G>A	XM_005272276.1:c.1716+5G>A
NM_000203.3:c.1651-7C>T		NC_000004.11:g.997330C>T	NM_000203.3:c.1651-7C>T	XM_005272276.1:c.1717-7C>T
NM_000203.3:c.1651-1G>T		NC_000004.11:g.997336G>T	NM_000203.3:c.1651-1G>T	XM_005272276.1:c.1717-1G>T
NM_000203.3:c.1681C>T		NC_000004.11:g.997367C>T	NM_000203.3:c.1681C>T	XM_005272276.1:c.1747C>T
NM_000203.3:c.1727+1G>A		NC_000004.11:g.997414G>A	NM_000203.3:c.1727+1G>A	XM_005272276.1:c.1793+1G>A
NM_000203.3:c.1727+6T>A		NC_000004.11:g.997419T>A	NM_000203.3:c.1727+6T>A	XM_005272276.1:c.1793+6T>A
NM_000203.3:c.1727+5G>A		NC_000004.11:g.997418G>A	NM_000203.3:c.1727+5G>A	XM_005272276.1:c.1793+5G>A
NM_000203.3:c.1727+5G>C		NC_000004.11:g.997418G>C	NM_000203.3:c.1727+5G>C	XM_005272276.1:c.1793+5G>C
NM_000203.3:c.1727+4C>T		NC_000004.11:g.997417C>T	NM_000203.3:c.1727+4C>T	XM_005272276.1:c.1793+4C>T
NM_000203.3:c.1727+2T>G		NC_000004.11:g.997415T>G	NM_000203.3:c.1727+2T>G	XM_005272276.1:c.1793+2T>G
NM_000203.3:c.1727+2T>A		NC_000004.11:g.997415T>A	NM_000203.3:c.1727+2T>A	XM_005272276.1:c.1793+2T>A
NM_000203.3:c.1733T>A		NC_000004.11:g.997805T>A	NM_000203.3:c.1733T>A	XM_005272276.1:c.1799T>A
NM_000203.3:c.1743C>G		NC_000004.11:g.997815C>G	NM_000203.3:c.1743C>G	XM_005272276.1:c.1809C>G
NM_000203.3:c.1804T>A		NC_000004.11:g.997876T>A	NM_000203.3:c.1804T>A	XM_005272276.1:c.1870T>A
NM_000203.3:c.1805delTinsGAACA		NC_000004.11:g.997877delinsGAACA	NM_000203.3:c.1805delinsGAACA	XM_005272276.1:c.1871delinsGAACA
NM_000203.3:c.1855C>G		NC_000004.11:g.998074C>G	NM_000203.3:c.1855C>G	XM_005272276.1:c.1921C>G
NM_000203.3:c.1855C>T		NC_000004.11:g.998074C>T	NM_000203.3:c.1855C>T	XM_005272276.1:c.1921C>T
NM_000203.3:c.1858G>T		NC_000004.11:g.998077G>T	NM_000203.3:c.1858G>T	XM_005272276.1:c.1924G>T
NM_000203.3:c.1861C>T		NC_000004.11:g.998080C>T	NM_000203.3:c.1861C>T	XM_005272276.1:c.1927C>T
NM_000203.3:c.1877G>A		NC_000004.11:g.998096G>A	NM_000203.3:c.1877G>A	XM_005272276.1:c.1943G>A
NM_000203.3:c.1882C>T		NC_000004.11:g.998101C>T	NM_000203.3:c.1882C>T	XM_005272276.1:c.1948C>T
NM_000203.3:c.1883G>C		NC_000004.11:g.998102G>C	NM_000203.3:c.1883G>C	XM_005272276.1:c.1949G>C
NM_000203.3:c.1893delC		NC_000004.11:g.998112delC	NM_000203.3:c.1893delC	XM_005272276.1:c.1959delC
NM_000203.3:c.1898C>T		NC_000004.11:g.998117C>T	NM_000203.3:c.1898C>T	XM_005272276.1:c.1964C>T
NM_000203.3:c.1960T>C		NC_000004.11:g.998179T>C	NM_000203.3:c.1960T>C	XM_005272276.1:c.2026T>C
