"nucl","prot","category"
"c.3G>A","p.M1I","Missense/nonsense"
"c.2T>C","p.M1T","Missense/nonsense"
"c.15G>A","p.W5*","Missense/nonsense"
"c.124G>A","p.V42I","Missense/nonsense"
"c.382C>T","p.Q128*","Missense/nonsense"
"c.397A>T","p.I133F","Missense/nonsense"
"c.414G>A","p.W138*","Missense/nonsense"
"c.416C>T","p.S139F","Missense/nonsense"
"c.422C>T","p.S141F","Missense/nonsense"
"c.451A>G","p.R151G","Missense/nonsense"
"c.470G>A","p.G157D","Missense/nonsense"
"c.473T>C","p.L158P","Missense/nonsense"
"c.506G>A","p.G169D","Missense/nonsense"
"c.518A>G","p.Y173C","Missense/nonsense"
"c.530A>G","p.N177S","Missense/nonsense"
"c.544T>C","p.W182R","Missense/nonsense"
"c.560A>G","p.K187R","Missense/nonsense"
"c.589G>A","p.G197R","Missense/nonsense"
"c.599C>T","p.P200L","Missense/nonsense"
"c.613G>A","p.D205N","Missense/nonsense"
"c.647C>G","p.T216R","Missense/nonsense"
"c.665A>G","p.Q222R","Missense/nonsense"
"c.734G>A","p.W245*","Missense/nonsense"
"c.809C>T","p.S270F","Missense/nonsense"
"c.839A>G","p.K280R","Missense/nonsense"
"c.850C>T","p.Q284*","Missense/nonsense"
"c.861G>A","p.M287I","Missense/nonsense"
"c.864C>A","p.N288K","Missense/nonsense"
"c.870C>G","p.Y290*","Missense/nonsense"
"c.893G>A","p.S298N","Missense/nonsense"
"c.913G>T","p.D305Y","Missense/nonsense"
"c.922G>A","p.G308R","Missense/nonsense"
"c.926G>A","p.G309D","Missense/nonsense"
"c.969C>G","p.N323K","Missense/nonsense"
"c.1001C>A","p.T334N","Missense/nonsense"
"c.1009G>A","p.G337R","Missense/nonsense"
"c.1013T>G","p.L338R","Missense/nonsense"
"c.1013T>C","p.L338P","Missense/nonsense"
"c.1015G>A","p.G339R","Missense/nonsense"
"c.1036G>A","p.D346N","Missense/nonsense"
"c.61+5G>A","","Splicing"
"c.61+5G>T","","Splicing"
"c.140+1G>T","","Splicing"
"c.225+1G>A","","Splicing"
"c.225+3A>T","","Splicing"
"c.329G>T","","Splicing"
"c.462-10C>G","","Splicing"
"c.681G>A","","Splicing"
"c.681+1G>A","","Splicing"
"c.682-1G>T","","Splicing"
"c.970+2T>C","","Splicing"
"c.971-12G>A","","Splicing"
"c.18_21delGACT","","Small deletions"
"c.40delC","","Small deletions"
"c.260_261delTT","","Small deletions"
"c.314_317delACTC","","Small deletions"
"c.320_323delATCA","","Small deletions"
"c.423delC","","Small deletions"
"c.519_520delCA","","Small deletions"
"c.561+1delG","","Small deletions"
"c.569_577delTTCTCCTCA","","Small deletions"
"c.614_616delACG","","Small deletions"
"c.659_665delTCGTGCA","","Small deletions"
"c.699_700delGT","","Small deletions"
"c.741delC","","Small deletions"
"c.809_811delCCT","","Small deletions"
"c.992delG","","Small deletions"
"c.1027_1038del12","","Small deletions"
"c.1036_1047del12","","Small deletions"
"c.516dupC","","Small insertion"
"c.646dupA","","Small insertion"
"c.696_697dupCG","","Small insertion"
"c.696dupC","","Small insertion"
"c.829dupA","","Small insertion"
"c.926dupG","","Small insertion"
"c.751_754delACCAinsCG","","Small indels"
"c.1028_1035delTCGTCTTCinsA","","Small indels"
"c.1032delCinsTG","","Small indels"
