nucl,HWE.null.vs.hypomorphic,HWE.truncating.vs.missense,HWE.translatable,HWE.domain,NMD,hgmd.prot
c.100T>A,,missense,translatable,,,p.Y34N
c.1018G>A,,missense,translatable,,,p.E340K
c.1087G>A,,missense,translatable,,,p.E363K
c.1138T>C,,,,,,p.*380R
c.113A>C,,missense,translatable,,,p.Q38P
c.221T>C,,missense,translatable,,,p.L74P
c.248G>T,null,missense,translatable,,,p.G83V
c.292G>A,,missense,translatable,,,p.D98N
c.367C>G,,missense,translatable,,,p.R123G
c.404C>T,,missense,translatable,,,p.S135L
c.413C>T,,missense,translatable,,,p.T138M
c.425T>A,,missense,translatable,,,p.M142K
c.428C>T,,missense,translatable,,,p.S143L
c.438G>C,,missense,translatable,,,p.E146D
c.443G>A,,missense,translatable,,,p.R148Q
c.472G>A,,missense,translatable,,,
c.493T>C,,missense,translatable,,,p.Y165H
c.502G>T,,missense,translatable,,,p.V168L
c.505C>A,,missense,translatable,,,p.Q169K
c.507G>C,null,missense,translatable,,,p.Q169H
c.509T>A,,missense,translatable,,,p.I170N
c.512T>G,,missense,translatable,,,p.F171C
c.524G>A,null,missense,translatable,,,p.G175D
c.533T>G,,missense,translatable,,,p.M178R
c.539G>T,,missense,translatable,,,p.C180F
c.563A>G,null,missense,translatable,,,p.Q188R
c.574A>G,,missense,translatable,,,p.S192G
c.584T>C,,missense,translatable,,,p.L195P
c.611G>C,,missense,translatable,,,p.R204P
c.626A>G,,missense,translatable,,,p.Y209C
c.697G>C,,missense,translatable,,,p.V233L
c.730C>T,,missense,translatable,,,p.P244S
c.770C>T,,missense,translatable,,,p.P257L
c.813G>C,,missense,translatable,,,p.E271D
c.82G>T,,missense,translatable,,,p.D28Y
c.854A>G,,missense,translatable,,,p.K285R
c.855G>T,null,missense,translatable,,,p.K285N
c.883C>A,,missense,translatable,,,p.P295T
c.889T>C,,missense,translatable,,,p.S297P
c.95T>A,,missense,translatable,,,p.I32N
c.98G>C,,missense,translatable,,,p.R33P
c.997C>G,,missense,translatable,,,p.R333G
c.998G>A,hypomorphic,missense,translatable,,,p.R333Q
c.1_1059del,null,,nontranslatable,,,
c.1_1726del,null,,nontranslatable,,,
c.238C>T,null,truncating,nontranslatable,,non-NMD,p.R80*
c.252+1G>A,,truncating,nontranslatable,,,
c.253-2A>G,null,truncating,nontranslatable,,,
c.25C>T,null,truncating,nontranslatable,,NMD,p.Q9*
c.286_299del14,null,truncating,nontranslatable,,NMD,p.(Asp96Serfs*5)
c.328+2T>C,null,truncating,nontranslatable,,,
c.378-1G>C,null,truncating,nontranslatable,,,
c.400delT,null,truncating,nontranslatable,,NMD,p.(Trp134Glyfs*4)
c.462G>A,null,truncating,nontranslatable,,non-NMD,p.W154*
c.610C>T,null,truncating,nontranslatable,,NMD,p.R204*
c.920C>A,null,truncating,nontranslatable,,NMD,p.S307*
c.328+33G>A,,,,,,
c.820+13A>G,null,,,,,
c.821-7A>G,,,,,,
,,,,,,
c.220_221delCT,,truncating,,,,p.Leu74ValfsTer17
c.329-2A>C,,truncating,,,,
c.358_370delAAGTCTGCTCGAG,,truncating,,,,p.Lys120GlufsTer14
c.445dupG,,truncating,,,,p.Ala149GlyfsTer4
c.521_522delAA,,truncating,,,,p.Lys174ArgfsTer8
c.576_589delCAGTTTCCTGCCAG,,truncating,,,,p.Ser192ArgfsTer6
c.622dupG,,truncating,,,,p.Ala208GlyfsTer3
c.821-1G>A,,truncating,,,,
c.904+1G>A,,truncating,,,,
c.904+2T>G,,truncating,,,,
c.1052delC,,truncating,,,,p.Pro351LeufsTer8
,,,,,,
c.1098C>A,,truncating,,,,p.(Tyr366*)
