Input	Errors and warnings	AccNo	Genesymbol	Variant	Reference Sequence Start Descr.	Coding DNA Descr.	Protein Descr.	GeneSymbol Coding DNA Descr.	GeneSymbol Protein Descr.	Genomic Reference	Coding Reference	Protein Reference	Affected Transcripts	Affected Proteins	Restriction Sites Created	Restriction Sites Deleted
NM_001163817.1:c.1A>G	(GenRecord): Mutation in start codon of gene DHCR7 transcript 001.	NM_001163817.1	DHCR7_v001	c.1A>G	n.251A>G	c.1A>G	p.?	DHCR7_v001:c.1A>G	DHCR7_v001:p.?		NM_001163817.1	NP_001157289.1	NM_001163817.1(DHCR7_v001):c.1A>G	NM_001163817.1(DHCR7_i001):p.?	AlwNI,BmrI,BsrI,BtsIMutI,LpnPI,TspRI		
NM_001163817.1:c.1_321del	(variantchecker): Variant hits one or more splice sites in selected transcript.|(GenRecord): Mutation in start codon of gene DHCR7 transcript 001.	NM_001163817.1	DHCR7_v001	c.1_321del	n.251_571del	c.1_321del	p.?	DHCR7_v001:c.1_321del	DHCR7_v001:p.?		NM_001163817.1	NP_001157289.1	NM_001163817.1(DHCR7_v001):c.1_321del	NM_001163817.1(DHCR7_i001):p.?	BmrI	AccI,AciI (2),AluI (2),ApeKI (2),BbvI (2),BccI,BceAI,BfaI,BpuEI,BsaHI,BsaJI,BsaWI,BseYI,BslI (2),BstEII,BstNI (2),BtsI,Cac8I,CspCI (2),CviAII (2),FatI (2),Fnu4HI (3),HgaI (2),HhaI,HinP1I,HinfI (2),HpaII,HphI (3),Hpy188I,Hpy188III,HpyAV (2),HpyCH4V,MboII,MlyI (2),MspA1I,MspI,NlaIII (2),NmeAIII,NspI,PflFI,PleI (2),PspGI (2),PvuII,ScrFI (2),SfaNI,SmlI,StyD4I (2),TseI (2),Tsp45I (4),Tth111I,XbaI	
NM_001163817.1:c.89G>C		NM_001163817.1	DHCR7_v001	c.89G>C	n.339G>C	c.89G>C	p.(Gly30Ala)	DHCR7_v001:c.89G>C	DHCR7_v001:p.(Gly30Ala)		NM_001163817.1	NP_001157289.1	NM_001163817.1(DHCR7_v001):c.89G>C	NM_001163817.1(DHCR7_i001):p.(Gly30Ala)	ApaI,BaeGI,BanII,Bsp1286I,PspOMI	BceAI	
NM_001163817.1:c.91C>T		NM_001163817.1	DHCR7_v001	c.91C>T	n.341C>T	c.91C>T	p.(Arg31Cys)	DHCR7_v001:c.91C>T	DHCR7_v001:p.(Arg31Cys)		NM_001163817.1	NP_001157289.1	NM_001163817.1(DHCR7_v001):c.91C>T	NM_001163817.1(DHCR7_i001):p.(Arg31Cys)		BceAI,BslI,HaeIII,NlaIV,Sau96I	
NM_001163817.1:c.98_194del	(variantchecker): Variant hits one or more splice sites in selected transcript.	NM_001163817.1	DHCR7_v001	c.98_194del	n.348_444del	c.98_194del	p.(Trp33Serfs*4)	DHCR7_v001:c.98_194del	DHCR7_v001:p.(Trp33Serfs*4)		NM_001163817.1	NP_001157289.1	NM_001163817.1(DHCR7_v001):c.98_194del	NM_001163817.1(DHCR7_i001):p.(Trp33Serfs*4)		AccI,AluI,ApeKI,BbvI,BsaJI,BslI,BstNI,Cac8I,CviAII,CviQI,FatI,Fnu4HI,HgaI,Hpy166II (2),HpyAV,MboII,MspA1I,NlaIII,PspGI,PvuII,RsaI,ScrFI,StyD4I,TseI,Tsp45I	
NM_001163817.1:c.149C>T		NM_001163817.1	DHCR7_v001	c.149C>T	n.399C>T	c.149C>T	p.(Ala50Val)	DHCR7_v001:c.149C>T	DHCR7_v001:p.(Ala50Val)		NM_001163817.1	NP_001157289.1	NM_001163817.1(DHCR7_v001):c.149C>T	NM_001163817.1(DHCR7_i001):p.(Ala50Val)	BsmFI		
NM_001163817.1:c.149C>A		NM_001163817.1	DHCR7_v001	c.149C>A	n.399C>A	c.149C>A	p.(Ala50Asp)	DHCR7_v001:c.149C>A	DHCR7_v001:p.(Ala50Asp)		NM_001163817.1	NP_001157289.1	NM_001163817.1(DHCR7_v001):c.149C>A	NM_001163817.1(DHCR7_i001):p.(Ala50Asp)	TaqI		
NM_001163817.1:c.151C>T		NM_001163817.1	DHCR7_v001	c.151C>T	n.401C>T	c.151C>T	p.(Pro51Ser)	DHCR7_v001:c.151C>T	DHCR7_v001:p.(Pro51Ser)		NM_001163817.1	NP_001157289.1	NM_001163817.1(DHCR7_v001):c.151C>T	NM_001163817.1(DHCR7_i001):p.(Pro51Ser)	MnlI		
NM_001163817.1:c.203T>C		NM_001163817.1	DHCR7_v001	c.203T>C	n.453T>C	c.203T>C	p.(Leu68Pro)	DHCR7_v001:c.203T>C	DHCR7_v001:p.(Leu68Pro)		NM_001163817.1	NP_001157289.1	NM_001163817.1(DHCR7_v001):c.203T>C	NM_001163817.1(DHCR7_i001):p.(Leu68Pro)			
NM_001163817.1:c.208G>T		NM_001163817.1	DHCR7_v001	c.208G>T	n.458G>T	c.208G>T	p.(Gly70Cys)	DHCR7_v001:c.208G>T	DHCR7_v001:p.(Gly70Cys)		NM_001163817.1	NP_001157289.1	NM_001163817.1(DHCR7_v001):c.208G>T	NM_001163817.1(DHCR7_i001):p.(Gly70Cys)		HaeIII,Sau96I	
NM_001163817.1:c.278C>T		NM_001163817.1	DHCR7_v001	c.278C>T	n.528C>T	c.278C>T	p.(Thr93Met)	DHCR7_v001:c.278C>T	DHCR7_v001:p.(Thr93Met)		NM_001163817.1	NP_001157289.1	NM_001163817.1(DHCR7_v001):c.278C>T	NM_001163817.1(DHCR7_i001):p.(Thr93Met)			
NM_001163817.1:c.292C>T		NM_001163817.1	DHCR7_v001	c.292C>T	n.542C>T	c.292C>T	p.(Gln98*)	DHCR7_v001:c.292C>T	DHCR7_v001:p.(Gln98*)		NM_001163817.1	NP_001157289.1	NM_001163817.1(DHCR7_v001):c.292C>T	NM_001163817.1(DHCR7_i001):p.(Gln98*)	BfaI	BseYI,LpnPI	
NM_001163817.1:c.296T>C		NM_001163817.1	DHCR7_v001	c.296T>C	n.546T>C	c.296T>C	p.(Leu99Pro)	DHCR7_v001:c.296T>C	DHCR7_v001:p.(Leu99Pro)		NM_001163817.1	NP_001157289.1	NM_001163817.1(DHCR7_v001):c.296T>C	NM_001163817.1(DHCR7_i001):p.(Leu99Pro)		AluI	
NM_001163817.1:c.321G>C		NM_001163817.1	DHCR7_v001	c.321G>C	n.571G>C	c.321G>C	p.(Gln107His)	DHCR7_v001:c.321G>C	DHCR7_v001:p.(Gln107His)		NM_001163817.1	NP_001157289.1	NM_001163817.1(DHCR7_v001):c.321G>C	NM_001163817.1(DHCR7_i001):p.(Gln107His)	BsaAI,PmlI	BstNI,LpnPI,PspGI,ScrFI,StyD4I	
NM_001163817.1:c.326T>C		NM_001163817.1	DHCR7_v001	c.326T>C	n.576T>C	c.326T>C	p.(Leu109Pro)	DHCR7_v001:c.326T>C	DHCR7_v001:p.(Leu109Pro)		NM_001163817.1	NP_001157289.1	NM_001163817.1(DHCR7_v001):c.326T>C	NM_001163817.1(DHCR7_i001):p.(Leu109Pro)	BanI,MnlI,NlaIV		
NM_001163817.1:c.355delC		NM_001163817.1	DHCR7_v001	c.355delC	n.605del	c.355del	p.(His119Ilefs*8)	DHCR7_v001:c.355del	DHCR7_v001:p.(His119Ilefs*8)		NM_001163817.1	NP_001157289.1	NM_001163817.1(DHCR7_v001):c.355del	NM_001163817.1(DHCR7_i001):p.(His119Ilefs*8)	HpyCH4V		
NM_001163817.1:c.356_368del13		NM_001163817.1	DHCR7_v001	c.356_368del13	n.606_618del	c.356_368del	p.(His119Profs*4)	DHCR7_v001:c.356_368del	DHCR7_v001:p.(His119Profs*4)		NM_001163817.1	NP_001157289.1	NM_001163817.1(DHCR7_v001):c.356_368del	NM_001163817.1(DHCR7_i001):p.(His119Profs*4)			
NM_001163817.1:c.356A>T		NM_001163817.1	DHCR7_v001	c.356A>T	n.606A>T	c.356A>T	p.(His119Leu)	DHCR7_v001:c.356A>T	DHCR7_v001:p.(His119Leu)		NM_001163817.1	NP_001157289.1	NM_001163817.1(DHCR7_v001):c.356A>T	NM_001163817.1(DHCR7_i001):p.(His119Leu)	AflII,MseI,SmlI		
NM_001163817.1:c.384_412+4del	(variantchecker): Intronic position given for a non-genomic reference sequence.	
NM_001163817.1:c.390_412+3del	(variantchecker): Intronic position given for a non-genomic reference sequence.	
NM_001163817.1:c.411A>G		NM_001163817.1	DHCR7_v001	c.411A>G	n.661A>G	c.411A>G	p.(=)	DHCR7_v001:c.411A>G	DHCR7_v001:p.(=)		NM_001163817.1	NP_001157289.1	NM_001163817.1(DHCR7_v001):c.411A>G	NM_001163817.1(DHCR7_i001):p.(=)	AciI,FauI	HpyCH4V,PstI,SbfI,SfcI	
NM_001163817.1:c.433A>C		NM_001163817.1	DHCR7_v001	c.433A>C	n.683A>C	c.433A>C	p.(Ile145Leu)	DHCR7_v001:c.433A>C	DHCR7_v001:p.(Ile145Leu)		NM_001163817.1	NP_001157289.1	NM_001163817.1(DHCR7_v001):c.433A>C	NM_001163817.1(DHCR7_i001):p.(Ile145Leu)	AluI	BfuCI,DpnI,DpnII,Hpy188I,MboI,Sau3AI	
NM_001163817.1:c.438C>G	(variantchecker): C not found at position 688, found T instead.	
NM_001163817.1:c.438T>G		NM_001163817.1	DHCR7_v001	c.438T>G	n.688T>G	c.438T>G	p.(Asn146Lys)	DHCR7_v001:c.438T>G	DHCR7_v001:p.(Asn146Lys)		NM_001163817.1	NP_001157289.1	NM_001163817.1(DHCR7_v001):c.438T>G	NM_001163817.1(DHCR7_i001):p.(Asn146Lys)	EcoO109I,Sau96I		
NM_001163817.1:c.440G>A		NM_001163817.1	DHCR7_v001	c.440G>A	n.690G>A	c.440G>A	p.(Gly147Asp)	DHCR7_v001:c.440G>A	DHCR7_v001:p.(Gly147Asp)		NM_001163817.1	NP_001157289.1	NM_001163817.1(DHCR7_v001):c.440G>A	NM_001163817.1(DHCR7_i001):p.(Gly147Asp)	BfuAI,BspMI	HaeIII	
NM_001163817.1:c.443T>G		NM_001163817.1	DHCR7_v001	c.443T>G	n.693T>G	c.443T>G	p.(Leu148Arg)	DHCR7_v001:c.443T>G	DHCR7_v001:p.(Leu148Arg)		NM_001163817.1	NP_001157289.1	NM_001163817.1(DHCR7_v001):c.443T>G	NM_001163817.1(DHCR7_i001):p.(Leu148Arg)	BsrFI,EaeI,HpaII,MspI,NaeI,NgoMIV	HpyCH4V	
NM_001163817.1:c.452G>A		NM_001163817.1	DHCR7_v001	c.452G>A	n.702G>A	c.452G>A	p.(Trp151*)	DHCR7_v001:c.452G>A	DHCR7_v001:p.(Trp151*)		NM_001163817.1	NP_001157289.1	NM_001163817.1(DHCR7_v001):c.452G>A	NM_001163817.1(DHCR7_i001):p.(Trp151*)	AluI,BfaI	BstNI,NlaIV,PspGI,ScrFI,StyD4I	
NM_001163817.1:c.453G>A		NM_001163817.1	DHCR7_v001	c.453G>A	n.703G>A	c.453G>A	p.(Trp151*)	DHCR7_v001:c.453G>A	DHCR7_v001:p.(Trp151*)		NM_001163817.1	NP_001157289.1	NM_001163817.1(DHCR7_v001):c.453G>A	NM_001163817.1(DHCR7_i001):p.(Trp151*)	HinfI,MlyI,PleI	BstNI,MwoI,NlaIV,PspGI,ScrFI,StyD4I	
NM_001163817.1:c.461C>T		NM_001163817.1	DHCR7_v001	c.461C>T	n.711C>T	c.461C>T	p.(Thr154Met)	DHCR7_v001:c.461C>T	DHCR7_v001:p.(Thr154Met)		NM_001163817.1	NP_001157289.1	NM_001163817.1(DHCR7_v001):c.461C>T	NM_001163817.1(DHCR7_i001):p.(Thr154Met)	CviAII,FatI,NlaIII		
NM_001163817.1:c.461C>G		NM_001163817.1	DHCR7_v001	c.461C>G	n.711C>G	c.461C>G	p.(Thr154Arg)	DHCR7_v001:c.461C>G	DHCR7_v001:p.(Thr154Arg)		NM_001163817.1	NP_001157289.1	NM_001163817.1(DHCR7_v001):c.461C>G	NM_001163817.1(DHCR7_i001):p.(Thr154Arg)	BanI,BspCNI,Bsu36I,DdeI		
NM_001163817.1:c.470T>C		NM_001163817.1	DHCR7_v001	c.470T>C	n.720T>C	c.470T>C	p.(Leu157Pro)	DHCR7_v001:c.470T>C	DHCR7_v001:p.(Leu157Pro)		NM_001163817.1	NP_001157289.1	NM_001163817.1(DHCR7_v001):c.470T>C	NM_001163817.1(DHCR7_i001):p.(Leu157Pro)	BsaJI		
NM_001163817.1:c.502T>A		NM_001163817.1	DHCR7_v001	c.502T>A	n.752T>A	c.502T>A	p.(Phe168Ile)	DHCR7_v001:c.502T>A	DHCR7_v001:p.(Phe168Ile)		NM_001163817.1	NP_001157289.1	NM_001163817.1(DHCR7_v001):c.502T>A	NM_001163817.1(DHCR7_i001):p.(Phe168Ile)	AlwI,BfuCI,BstYI,DpnI,DpnII,MboI,Sau3AI		
NM_001163817.1:c.506C>T		NM_001163817.1	DHCR7_v001	c.506C>T	n.756C>T	c.506C>T	p.(Ser169Leu)	DHCR7_v001:c.506C>T	DHCR7_v001:p.(Ser169Leu)		NM_001163817.1	NP_001157289.1	NM_001163817.1(DHCR7_v001):c.506C>T	NM_001163817.1(DHCR7_i001):p.(Ser169Leu)			
NM_001163817.1:c.521T>C		NM_001163817.1	DHCR7_v001	c.521T>C	n.771T>C	c.521T>C	p.(Phe174Ser)	DHCR7_v001:c.521T>C	DHCR7_v001:p.(Phe174Ser)		NM_001163817.1	NP_001157289.1	NM_001163817.1(DHCR7_v001):c.521T>C	NM_001163817.1(DHCR7_i001):p.(Phe174Ser)	BslI,Hpy188I	MboII,TaqI	
NM_001163817.1:c.523G>C		NM_001163817.1	DHCR7_v001	c.523G>C	n.773G>C	c.523G>C	p.(Asp175His)	DHCR7_v001:c.523G>C	DHCR7_v001:p.(Asp175His)		NM_001163817.1	NP_001157289.1	NM_001163817.1(DHCR7_v001):c.523G>C	NM_001163817.1(DHCR7_i001):p.(Asp175His)		TaqI	
NM_001163817.1:c.529T>C		NM_001163817.1	DHCR7_v001	c.529T>C	n.779T>C	c.529T>C	p.(Trp177Arg)	DHCR7_v001:c.529T>C	DHCR7_v001:p.(Trp177Arg)		NM_001163817.1	NP_001157289.1	NM_001163817.1(DHCR7_v001):c.529T>C	NM_001163817.1(DHCR7_i001):p.(Trp177Arg)	BsaWI,HpaII,MspI	BsrI	
NM_001163817.1:c.532A>T		NM_001163817.1	DHCR7_v001	c.532A>T	n.782A>T	c.532A>T	p.(Ile178Phe)	DHCR7_v001:c.532A>T	DHCR7_v001:p.(Ile178Phe)		NM_001163817.1	NP_001157289.1	NM_001163817.1(DHCR7_v001):c.532A>T	NM_001163817.1(DHCR7_i001):p.(Ile178Phe)		AlwI,BamHI,BfuCI,BstYI,DpnI,DpnII,MboI,Sau3AI	
NM_001163817.1:c.533T>A		NM_001163817.1	DHCR7_v001	c.533T>A	n.783T>A	c.533T>A	p.(Ile178Asn)	DHCR7_v001:c.533T>A	DHCR7_v001:p.(Ile178Asn)		NM_001163817.1	NP_001157289.1	NM_001163817.1(DHCR7_v001):c.533T>A	NM_001163817.1(DHCR7_i001):p.(Ile178Asn)		AlwI,BamHI,BfuCI,BstYI,DpnI,DpnII,MboI,Sau3AI	
NM_001163817.1:c.536C>T		NM_001163817.1	DHCR7_v001	c.536C>T	n.786C>T	c.536C>T	p.(Pro179Leu)	DHCR7_v001:c.536C>T	DHCR7_v001:p.(Pro179Leu)		NM_001163817.1	NP_001157289.1	NM_001163817.1(DHCR7_v001):c.536C>T	NM_001163817.1(DHCR7_i001):p.(Pro179Leu)		AleI,BstXI,BtsI,BtsIMutI,MslI,TspRI	
NM_001163817.1:c.545G>T		NM_001163817.1	DHCR7_v001	c.545G>T	n.795G>T	c.545G>T	p.(Trp182Leu)	DHCR7_v001:c.545G>T	DHCR7_v001:p.(Trp182Leu)		NM_001163817.1	NP_001157289.1	NM_001163817.1(DHCR7_v001):c.545G>T	NM_001163817.1(DHCR7_i001):p.(Trp182Leu)	CspCI (2)	AleI,BstXI,MslI	
NM_001163817.1:c.546G>C		NM_001163817.1	DHCR7_v001	c.546G>C	n.796G>C	c.546G>C	p.(Trp182Cys)	DHCR7_v001:c.546G>C	DHCR7_v001:p.(Trp182Cys)		NM_001163817.1	NP_001157289.1	NM_001163817.1(DHCR7_v001):c.546G>C	NM_001163817.1(DHCR7_i001):p.(Trp182Cys)	ApeKI,BbvI,Fnu4HI,TseI	BstXI	
NM_001163817.1:c.548G>A		NM_001163817.1	DHCR7_v001	c.548G>A	n.798G>A	c.548G>A	p.(Cys183Tyr)	DHCR7_v001:c.548G>A	DHCR7_v001:p.(Cys183Tyr)		NM_001163817.1	NP_001157289.1	NM_001163817.1(DHCR7_v001):c.548G>A	NM_001163817.1(DHCR7_i001):p.(Cys183Tyr)	CviQI,RsaI	HhaI,HinP1I	
NM_001163817.1:c.575C>T		NM_001163817.1	DHCR7_v001	c.575C>T	n.825C>T	c.575C>T	p.(Ser192Phe)	DHCR7_v001:c.575C>T	DHCR7_v001:p.(Ser192Phe)		NM_001163817.1	NP_001157289.1	NM_001163817.1(DHCR7_v001):c.575C>T	NM_001163817.1(DHCR7_i001):p.(Ser192Phe)	BbsI,HphI,MboII	BcoDI,BsmAI,BsmBI,XcmI	
NM_001163817.1:c.592A>G		NM_001163817.1	DHCR7_v001	c.592A>G	n.842A>G	c.592A>G	p.(Lys198Glu)	DHCR7_v001:c.592A>G	DHCR7_v001:p.(Lys198Glu)		NM_001163817.1	NP_001157289.1	NM_001163817.1(DHCR7_v001):c.592A>G	NM_001163817.1(DHCR7_i001):p.(Lys198Glu)	MnlI,TaqI		
NM_001163817.1:c.655T>G		NM_001163817.1	DHCR7_v001	c.655T>G	n.905T>G	c.655T>G	p.(Tyr219Asp)	DHCR7_v001:c.655T>G	DHCR7_v001:p.(Tyr219Asp)		NM_001163817.1	NP_001157289.1	NM_001163817.1(DHCR7_v001):c.655T>G	NM_001163817.1(DHCR7_i001):p.(Tyr219Asp)			
NM_001163817.1:c.670G>A		NM_001163817.1	DHCR7_v001	c.670G>A	n.920G>A	c.670G>A	p.(Glu224Lys)	DHCR7_v001:c.670G>A	DHCR7_v001:p.(Glu224Lys)		NM_001163817.1	NP_001157289.1	NM_001163817.1(DHCR7_v001):c.670G>A	NM_001163817.1(DHCR7_i001):p.(Glu224Lys)		TaqI	
NM_001163817.1:c.679C>T		NM_001163817.1	DHCR7_v001	c.679C>T	n.929C>T	c.679C>T	p.(Pro227Ser)	DHCR7_v001:c.679C>T	DHCR7_v001:p.(Pro227Ser)		NM_001163817.1	NP_001157289.1	NM_001163817.1(DHCR7_v001):c.679C>T	NM_001163817.1(DHCR7_i001):p.(Pro227Ser)		BsaJI,BslI,MnlI	
NM_001163817.1:c.682_683insC	(variantchecker): Insertion of C at position 932_933 was given, however, the HGVS notation prescribes that it should be a duplication of C at position 932_932.	NM_001163817.1	DHCR7_v001	c.682_683insC	n.932dup	c.682dup	p.(Arg228Profs*7)	DHCR7_v001:c.682dup	DHCR7_v001:p.(Arg228Profs*7)		NM_001163817.1	NP_001157289.1	NM_001163817.1(DHCR7_v001):c.682dup	NM_001163817.1(DHCR7_i001):p.(Arg228Profs*7)	BsaWI,BspEI,HpaII,LpnPI,MspI	BsaJI,BslI,Hpy188I	
NM_001163817.1:c.682C>T		NM_001163817.1	DHCR7_v001	c.682C>T	n.932C>T	c.682C>T	p.(Arg228Trp)	DHCR7_v001:c.682C>T	DHCR7_v001:p.(Arg228Trp)		NM_001163817.1	NP_001157289.1	NM_001163817.1(DHCR7_v001):c.682C>T	NM_001163817.1(DHCR7_i001):p.(Arg228Trp)	StyI	Hpy188I,MnlI	
NM_001163817.1:c.720_735del16		NM_001163817.1	DHCR7_v001	c.720_735del16	n.970_985del	c.720_735del	p.(Asn240Lysfs*22)	DHCR7_v001:c.720_735del	DHCR7_v001:p.(Asn240Lysfs*22)		NM_001163817.1	NP_001157289.1	NM_001163817.1(DHCR7_v001):c.720_735del	NM_001163817.1(DHCR7_i001):p.(Asn240Lysfs*22)		AlwI,AvaI,BanI,BfuCI,BsaHI,BsaJI,BsoBI,DpnI,DpnII,HaeII,HhaI,HinP1I,HpaII,Hpy99I,KasI,MboI,MspI,NarI,NciI,PluTI,Sau3AI,SfoI,SmaI,TspMI,XmaI	
NM_001163817.1:c.724C>T		NM_001163817.1	DHCR7_v001	c.724C>T	n.974C>T	c.724C>T	p.(Arg242Cys)	DHCR7_v001:c.724C>T	DHCR7_v001:p.(Arg242Cys)		NM_001163817.1	NP_001157289.1	NM_001163817.1(DHCR7_v001):c.724C>T	NM_001163817.1(DHCR7_i001):p.(Arg242Cys)	BaeGI,Bsp1286I	BsaHI,HaeII,HhaI,HinP1I,KasI,NarI,PluTI,SfoI	
NM_001163817.1:c.725G>A		NM_001163817.1	DHCR7_v001	c.725G>A	n.975G>A	c.725G>A	p.(Arg242His)	DHCR7_v001:c.725G>A	DHCR7_v001:p.(Arg242His)		NM_001163817.1	NP_001157289.1	NM_001163817.1(DHCR7_v001):c.725G>A	NM_001163817.1(DHCR7_i001):p.(Arg242His)	BaeGI,Bsp1286I	BsaHI,HaeII,HhaI,HinP1I,KasI,NarI,PluTI,SfoI	
NM_001163817.1:c.728C>G		NM_001163817.1	DHCR7_v001	c.728C>G	n.978C>G	c.728C>G	p.(Pro243Arg)	DHCR7_v001:c.728C>G	DHCR7_v001:p.(Pro243Arg)		NM_001163817.1	NP_001157289.1	NM_001163817.1(DHCR7_v001):c.728C>G	NM_001163817.1(DHCR7_i001):p.(Pro243Arg)	AciI,BstUI,BtgI,FauI,Fnu4HI,MspA1I,SacII	AvaI,BsoBI,HpaII,LpnPI,MspI,NciI,SmaI,TspMI,XmaI	
NM_001163817.1:c.730G>A		NM_001163817.1	DHCR7_v001	c.730G>A	n.980G>A	c.730G>A	p.(Gly244Arg)	DHCR7_v001:c.730G>A	DHCR7_v001:p.(Gly244Arg)		NM_001163817.1	NP_001157289.1	NM_001163817.1(DHCR7_v001):c.730G>A	NM_001163817.1(DHCR7_i001):p.(Gly244Arg)		AvaI,BsoBI,HpaII,MspI,NciI,SmaI,TspMI,XmaI	
NM_001163817.1:c.740C>T		NM_001163817.1	DHCR7_v001	c.740C>T	n.990C>T	c.740C>T	p.(Ala247Val)	DHCR7_v001:c.740C>T	DHCR7_v001:p.(Ala247Val)		NM_001163817.1	NP_001157289.1	NM_001163817.1(DHCR7_v001):c.740C>T	NM_001163817.1(DHCR7_i001):p.(Ala247Val)	Hpy188III	BstNI,PspGI	
NM_001163817.1:c.744G>C		NM_001163817.1	DHCR7_v001	c.744G>C	n.994G>C	c.744G>C	p.(Trp248Cys)	DHCR7_v001:c.744G>C	DHCR7_v001:p.(Trp248Cys)		NM_001163817.1	NP_001157289.1	NM_001163817.1(DHCR7_v001):c.744G>C	NM_001163817.1(DHCR7_i001):p.(Trp248Cys)	BsgI,Cac8I,HpyCH4V	AvaII,BstNI,PspGI,Sau96I	
NM_001163817.1:c.744G>T		NM_001163817.1	DHCR7_v001	c.744G>T	n.994G>T	c.744G>T	p.(Trp248Cys)	DHCR7_v001:c.744G>T	DHCR7_v001:p.(Trp248Cys)		NM_001163817.1	NP_001157289.1	NM_001163817.1(DHCR7_v001):c.744G>T	NM_001163817.1(DHCR7_i001):p.(Trp248Cys)	CviQI,RsaI	AvaII,BstNI,PspGI,Sau96I	
NM_001163817.1:c.752T>A		NM_001163817.1	DHCR7_v001	c.752T>A	n.1002T>A	c.752T>A	p.(Ile251Asn)	DHCR7_v001:c.752T>A	DHCR7_v001:p.(Ile251Asn)		NM_001163817.1	NP_001157289.1	NM_001163817.1(DHCR7_v001):c.752T>A	NM_001163817.1(DHCR7_i001):p.(Ile251Asn)			
NM_001163817.1:c.760T>G		NM_001163817.1	DHCR7_v001	c.760T>G	n.1010T>G	c.760T>G	p.(Ser254Ala)	DHCR7_v001:c.760T>G	DHCR7_v001:p.(Ser254Ala)		NM_001163817.1	NP_001157289.1	NM_001163817.1(DHCR7_v001):c.760T>G	NM_001163817.1(DHCR7_i001):p.(Ser254Ala)	HaeIII		
NM_001163817.1:c.765C>A		NM_001163817.1	DHCR7_v001	c.765C>A	n.1015C>A	c.765C>A	p.(Phe255Leu)	DHCR7_v001:c.765C>A	DHCR7_v001:p.(Phe255Leu)		NM_001163817.1	NP_001157289.1	NM_001163817.1(DHCR7_v001):c.765C>A	NM_001163817.1(DHCR7_i001):p.(Phe255Leu)	Bpu10I,DdeI	HpyAV	
NM_001163817.1:c.808A>G		NM_001163817.1	DHCR7_v001	c.808A>G	n.1058A>G	c.808A>G	p.(Met270Val)	DHCR7_v001:c.808A>G	DHCR7_v001:p.(Met270Val)		NM_001163817.1	NP_001157289.1	NM_001163817.1(DHCR7_v001):c.808A>G	NM_001163817.1(DHCR7_i001):p.(Met270Val)	BceAI	NcoI,StyI	
NM_001163817.1:c.818T>G		NM_001163817.1	DHCR7_v001	c.818T>G	n.1068T>G	c.818T>G	p.(Val273Gly)	DHCR7_v001:c.818T>G	DHCR7_v001:p.(Val273Gly)		NM_001163817.1	NP_001157289.1	NM_001163817.1(DHCR7_v001):c.818T>G	NM_001163817.1(DHCR7_i001):p.(Val273Gly)		HincII,Hpy166II	
NM_001163817.1:c.822C>A		NM_001163817.1	DHCR7_v001	c.822C>A	n.1072C>A	c.822C>A	p.(Asn274Lys)	DHCR7_v001:c.822C>A	DHCR7_v001:p.(Asn274Lys)		NM_001163817.1	NP_001157289.1	NM_001163817.1(DHCR7_v001):c.822C>A	NM_001163817.1(DHCR7_i001):p.(Asn274Lys)		HincII,Hpy166II	
NM_001163817.1:c.841G>A		NM_001163817.1	DHCR7_v001	c.841G>A	n.1091G>A	c.841G>A	p.(Val281Met)	DHCR7_v001:c.841G>A	DHCR7_v001:p.(Val281Met)		NM_001163817.1	NP_001157289.1	NM_001163817.1(DHCR7_v001):c.841G>A	NM_001163817.1(DHCR7_i001):p.(Val281Met)	CviAII,FatI,NlaIII	BsaAI	
NM_001163817.1:c.852C>A		NM_001163817.1	DHCR7_v001	c.852C>A	n.1102C>A	c.852C>A	p.(Phe284Leu)	DHCR7_v001:c.852C>A	DHCR7_v001:p.(Phe284Leu)		NM_001163817.1	NP_001157289.1	NM_001163817.1(DHCR7_v001):c.852C>A	NM_001163817.1(DHCR7_i001):p.(Phe284Leu)		MboII	
NM_001163817.1:c.854_856delTCT		NM_001163817.1	DHCR7_v001	c.854_856delTCT	n.1104_1106del	c.854_856del	p.(Phe285del)	DHCR7_v001:c.854_856del	DHCR7_v001:p.(Phe285del)		NM_001163817.1	NP_001157289.1	NM_001163817.1(DHCR7_v001):c.854_856del	NM_001163817.1(DHCR7_i001):p.(Phe285del)		MboII	
NM_001163817.1:c.861C>A		NM_001163817.1	DHCR7_v001	c.861C>A	n.1111C>A	c.861C>A	p.(Asn287Lys)	DHCR7_v001:c.861C>A	DHCR7_v001:p.(Asn287Lys)		NM_001163817.1	NP_001157289.1	NM_001163817.1(DHCR7_v001):c.861C>A	NM_001163817.1(DHCR7_i001):p.(Asn287Lys)			
NM_001163817.1:c.866C>T		NM_001163817.1	DHCR7_v001	c.866C>T	n.1116C>T	c.866C>T	p.(Thr289Ile)	DHCR7_v001:c.866C>T	DHCR7_v001:p.(Thr289Ile)		NM_001163817.1	NP_001157289.1	NM_001163817.1(DHCR7_v001):c.866C>T	NM_001163817.1(DHCR7_i001):p.(Thr289Ile)		BstNI,PspGI,ScrFI,SexAI,StyD4I	
NM_001163817.1:c.890T>C		NM_001163817.1	DHCR7_v001	c.890T>C	n.1140T>C	c.890T>C	p.(Ile297Thr)	DHCR7_v001:c.890T>C	DHCR7_v001:p.(Ile297Thr)		NM_001163817.1	NP_001157289.1	NM_001163817.1(DHCR7_v001):c.890T>C	NM_001163817.1(DHCR7_i001):p.(Ile297Thr)	BfuAI,BspMI		
NM_001163817.1:c.902A>G		NM_001163817.1	DHCR7_v001	c.902A>G	n.1152A>G	c.902A>G	p.(His301Arg)	DHCR7_v001:c.902A>G	DHCR7_v001:p.(His301Arg)		NM_001163817.1	NP_001157289.1	NM_001163817.1(DHCR7_v001):c.902A>G	NM_001163817.1(DHCR7_i001):p.(His301Arg)	AciI,MwoI		
NM_001163817.1:c.906C>G		NM_001163817.1	DHCR7_v001	c.906C>G	n.1156C>G	c.906C>G	p.(Phe302Leu)	DHCR7_v001:c.906C>G	DHCR7_v001:p.(Phe302Leu)		NM_001163817.1	NP_001157289.1	NM_001163817.1(DHCR7_v001):c.906C>G	NM_001163817.1(DHCR7_i001):p.(Phe302Leu)			
NM_001163817.1:c.907G>A		NM_001163817.1	DHCR7_v001	c.907G>A	n.1157G>A	c.907G>A	p.(Gly303Arg)	DHCR7_v001:c.907G>A	DHCR7_v001:p.(Gly303Arg)		NM_001163817.1	NP_001157289.1	NM_001163817.1(DHCR7_v001):c.907G>A	NM_001163817.1(DHCR7_i001):p.(Gly303Arg)	AcuI		
NM_001163817.1:c.925G>A		NM_001163817.1	DHCR7_v001	c.925G>A	n.1175G>A	c.925G>A	p.(Gly309Ser)	DHCR7_v001:c.925G>A	DHCR7_v001:p.(Gly309Ser)		NM_001163817.1	NP_001157289.1	NM_001163817.1(DHCR7_v001):c.925G>A	NM_001163817.1(DHCR7_i001):p.(Gly309Ser)	BpmI,BsaXI (2)	BseYI,BslI	
NM_001163817.1:c.950T>G		NM_001163817.1	DHCR7_v001	c.950T>G	n.1200T>G	c.950T>G	p.(Leu317Arg)	DHCR7_v001:c.950T>G	DHCR7_v001:p.(Leu317Arg)		NM_001163817.1	NP_001157289.1	NM_001163817.1(DHCR7_v001):c.950T>G	NM_001163817.1(DHCR7_i001):p.(Leu317Arg)			
NM_001163817.1:c.952T>A		NM_001163817.1	DHCR7_v001	c.952T>A	n.1202T>A	c.952T>A	p.(Tyr318Asn)	DHCR7_v001:c.952T>A	DHCR7_v001:p.(Tyr318Asn)		NM_001163817.1	NP_001157289.1	NM_001163817.1(DHCR7_v001):c.952T>A	NM_001163817.1(DHCR7_i001):p.(Tyr318Asn)	MseI		
NM_001163817.1:c.964-1G>T	(variantchecker): Intronic position given for a non-genomic reference sequence.	
NM_001163817.1:c.964-1G>C	(variantchecker): Intronic position given for a non-genomic reference sequence.	
NM_001163817.1:c.964G>C		NM_001163817.1	DHCR7_v001	c.964G>C	n.1214G>C	c.964G>C	p.(Gly322Arg)	DHCR7_v001:c.964G>C	DHCR7_v001:p.(Gly322Arg)		NM_001163817.1	NP_001157289.1	NM_001163817.1(DHCR7_v001):c.964G>C	NM_001163817.1(DHCR7_i001):p.(Gly322Arg)	HgaI	LpnPI	
NM_001163817.1:c.970T>C		NM_001163817.1	DHCR7_v001	c.970T>C	n.1220T>C	c.970T>C	p.(Tyr324His)	DHCR7_v001:c.970T>C	DHCR7_v001:p.(Tyr324His)		NM_001163817.1	NP_001157289.1	NM_001163817.1(DHCR7_v001):c.970T>C	NM_001163817.1(DHCR7_i001):p.(Tyr324His)	BsgI,BstAPI,MwoI		
NM_001163817.1:c.976G>T		NM_001163817.1	DHCR7_v001	c.976G>T	n.1226G>T	c.976G>T	p.(Val326Leu)	DHCR7_v001:c.976G>T	DHCR7_v001:p.(Val326Leu)		NM_001163817.1	NP_001157289.1	NM_001163817.1(DHCR7_v001):c.976G>T	NM_001163817.1(DHCR7_i001):p.(Val326Leu)			
NM_001163817.1:c.986C>T		NM_001163817.1	DHCR7_v001	c.986C>T	n.1236C>T	c.986C>T	p.(Pro329Leu)	DHCR7_v001:c.986C>T	DHCR7_v001:p.(Pro329Leu)		NM_001163817.1	NP_001157289.1	NM_001163817.1(DHCR7_v001):c.986C>T	NM_001163817.1(DHCR7_i001):p.(Pro329Leu)	BssSI,MnlI		
NM_001163817.1:c.1022T>C		NM_001163817.1	DHCR7_v001	c.1022T>C	n.1272T>C	c.1022T>C	p.(Leu341Pro)	DHCR7_v001:c.1022T>C	DHCR7_v001:p.(Leu341Pro)		NM_001163817.1	NP_001157289.1	NM_001163817.1(DHCR7_v001):c.1022T>C	NM_001163817.1(DHCR7_i001):p.(Leu341Pro)	BsmFI,MspA1I		
NM_001163817.1:c.1039G>A		NM_001163817.1	DHCR7_v001	c.1039G>A	n.1289G>A	c.1039G>A	p.(Gly347Ser)	DHCR7_v001:c.1039G>A	DHCR7_v001:p.(Gly347Ser)		NM_001163817.1	NP_001157289.1	NM_001163817.1(DHCR7_v001):c.1039G>A	NM_001163817.1(DHCR7_i001):p.(Gly347Ser)	AluI,HphI	BglI	
NM_001163817.1:c.1054C>T		NM_001163817.1	DHCR7_v001	c.1054C>T	n.1304C>T	c.1054C>T	p.(Arg352Trp)	DHCR7_v001:c.1054C>T	DHCR7_v001:p.(Arg352Trp)		NM_001163817.1	NP_001157289.1	NM_001163817.1(DHCR7_v001):c.1054C>T	NM_001163817.1(DHCR7_i001):p.(Arg352Trp)		HpaII,MspI,NciI	
NM_001163817.1:c.1055G>A		NM_001163817.1	DHCR7_v001	c.1055G>A	n.1305G>A	c.1055G>A	p.(Arg352Gln)	DHCR7_v001:c.1055G>A	DHCR7_v001:p.(Arg352Gln)		NM_001163817.1	NP_001157289.1	NM_001163817.1(DHCR7_v001):c.1055G>A	NM_001163817.1(DHCR7_i001):p.(Arg352Gln)		HpaII,MspI,NciI	
NM_001163817.1:c.1068_1070delCCA		NM_001163817.1	DHCR7_v001	c.1068_1070delCCA	n.1318_1320del	c.1068_1070del	p.(His356del)	DHCR7_v001:c.1068_1070del	DHCR7_v001:p.(His356del)		NM_001163817.1	NP_001157289.1	NM_001163817.1(DHCR7_v001):c.1068_1070del	NM_001163817.1(DHCR7_i001):p.(His356del)			
NM_001163817.1:c.1079T>C		NM_001163817.1	DHCR7_v001	c.1079T>C	n.1329T>C	c.1079T>C	p.(Leu360Pro)	DHCR7_v001:c.1079T>C	DHCR7_v001:p.(Leu360Pro)		NM_001163817.1	NP_001157289.1	NM_001163817.1(DHCR7_v001):c.1079T>C	NM_001163817.1(DHCR7_i001):p.(Leu360Pro)	NlaIV		
NM_001163817.1:c.1097G>T		NM_001163817.1	DHCR7_v001	c.1097G>T	n.1347G>T	c.1097G>T	p.(Gly366Val)	DHCR7_v001:c.1097G>T	DHCR7_v001:p.(Gly366Val)		NM_001163817.1	NP_001157289.1	NM_001163817.1(DHCR7_v001):c.1097G>T	NM_001163817.1(DHCR7_i001):p.(Gly366Val)	AleI,MslI	BccI,HaeII	
NM_001163817.1:c.1139G>A		NM_001163817.1	DHCR7_v001	c.1139G>A	n.1389G>A	c.1139G>A	p.(Cys380Tyr)	DHCR7_v001:c.1139G>A	DHCR7_v001:p.(Cys380Tyr)		NM_001163817.1	NP_001157289.1	NM_001163817.1(DHCR7_v001):c.1139G>A	NM_001163817.1(DHCR7_i001):p.(Cys380Tyr)	CviQI,RsaI,ScaI	BsiHKAI,Bsp1286I	
NM_001163817.1:c.1139G>C		NM_001163817.1	DHCR7_v001	c.1139G>C	n.1389G>C	c.1139G>C	p.(Cys380Ser)	DHCR7_v001:c.1139G>C	DHCR7_v001:p.(Cys380Ser)		NM_001163817.1	NP_001157289.1	NM_001163817.1(DHCR7_v001):c.1139G>C	NM_001163817.1(DHCR7_i001):p.(Cys380Ser)	HinfI,MlyI,MnlI,PleI	BsiHKAI,Bsp1286I	
NM_001163817.1:c.1190C>T		NM_001163817.1	DHCR7_v001	c.1190C>T	n.1440C>T	c.1190C>T	p.(Ser397Leu)	DHCR7_v001:c.1190C>T	DHCR7_v001:p.(Ser397Leu)		NM_001163817.1	NP_001157289.1	NM_001163817.1(DHCR7_v001):c.1190C>T	NM_001163817.1(DHCR7_i001):p.(Ser397Leu)			
NM_001163817.1:c.1210C>A		NM_001163817.1	DHCR7_v001	c.1210C>A	n.1460C>A	c.1210C>A	p.(Arg404Ser)	DHCR7_v001:c.1210C>A	DHCR7_v001:p.(Arg404Ser)		NM_001163817.1	NP_001157289.1	NM_001163817.1(DHCR7_v001):c.1210C>A	NM_001163817.1(DHCR7_i001):p.(Arg404Ser)	EaeI,LpnPI,MscI	AciI,FauI,Sau96I	
NM_001163817.1:c.1210C>T		NM_001163817.1	DHCR7_v001	c.1210C>T	n.1460C>T	c.1210C>T	p.(Arg404Cys)	DHCR7_v001:c.1210C>T	DHCR7_v001:p.(Arg404Cys)		NM_001163817.1	NP_001157289.1	NM_001163817.1(DHCR7_v001):c.1210C>T	NM_001163817.1(DHCR7_i001):p.(Arg404Cys)	LpnPI	AciI,FauI,Sau96I	
NM_001163817.1:c.1219A>T		NM_001163817.1	DHCR7_v001	c.1219A>T	n.1469A>T	c.1219A>T	p.(Asn407Tyr)	DHCR7_v001:c.1219A>T	DHCR7_v001:p.(Asn407Tyr)		NM_001163817.1	NP_001157289.1	NM_001163817.1(DHCR7_v001):c.1219A>T	NM_001163817.1(DHCR7_i001):p.(Asn407Tyr)			
NM_001163817.1:c.1222T>C		NM_001163817.1	DHCR7_v001	c.1222T>C	n.1472T>C	c.1222T>C	p.(Tyr408His)	DHCR7_v001:c.1222T>C	DHCR7_v001:p.(Tyr408His)		NM_001163817.1	NP_001157289.1	NM_001163817.1(DHCR7_v001):c.1222T>C	NM_001163817.1(DHCR7_i001):p.(Tyr408His)	BmgBI		
NM_001163817.1:c.1228G>A		NM_001163817.1	DHCR7_v001	c.1228G>A	n.1478G>A	c.1228G>A	p.(Gly410Ser)	DHCR7_v001:c.1228G>A	DHCR7_v001:p.(Gly410Ser)		NM_001163817.1	NP_001157289.1	NM_001163817.1(DHCR7_v001):c.1228G>A	NM_001163817.1(DHCR7_i001):p.(Gly410Ser)		Hpy99I	
NM_001163817.1:c.1277A>C		NM_001163817.1	DHCR7_v001	c.1277A>C	n.1527A>C	c.1277A>C	p.(His426Pro)	DHCR7_v001:c.1277A>C	DHCR7_v001:p.(His426Pro)		NM_001163817.1	NP_001157289.1	NM_001163817.1(DHCR7_v001):c.1277A>C	NM_001163817.1(DHCR7_i001):p.(His426Pro)	NlaIV,Sau96I	BfuAI,BspMI,EaeI	
NM_001163817.1:c.1295A>G		NM_001163817.1	DHCR7_v001	c.1295A>G	n.1545A>G	c.1295A>G	p.(Tyr432Cys)	DHCR7_v001:c.1295A>G	DHCR7_v001:p.(Tyr432Cys)		NM_001163817.1	NP_001157289.1	NM_001163817.1(DHCR7_v001):c.1295A>G	NM_001163817.1(DHCR7_i001):p.(Tyr432Cys)	HpyCH4V,SfaNI		
NM_001163817.1:c.1327C>T		NM_001163817.1	DHCR7_v001	c.1327C>T	n.1577C>T	c.1327C>T	p.(Arg443Cys)	DHCR7_v001:c.1327C>T	DHCR7_v001:p.(Arg443Cys)		NM_001163817.1	NP_001157289.1	NM_001163817.1(DHCR7_v001):c.1327C>T	NM_001163817.1(DHCR7_i001):p.(Arg443Cys)	BtsI,BtsIMutI,TspRI		
NM_001163817.1:c.1328G>A		NM_001163817.1	DHCR7_v001	c.1328G>A	n.1578G>A	c.1328G>A	p.(Arg443His)	DHCR7_v001:c.1328G>A	DHCR7_v001:p.(Arg443His)		NM_001163817.1	NP_001157289.1	NM_001163817.1(DHCR7_v001):c.1328G>A	NM_001163817.1(DHCR7_i001):p.(Arg443His)	BtsI,BtsIMutI,TspRI		
NM_001163817.1:c.1331G>A		NM_001163817.1	DHCR7_v001	c.1331G>A	n.1581G>A	c.1331G>A	p.(Cys444Tyr)	DHCR7_v001:c.1331G>A	DHCR7_v001:p.(Cys444Tyr)		NM_001163817.1	NP_001157289.1	NM_001163817.1(DHCR7_v001):c.1331G>A	NM_001163817.1(DHCR7_i001):p.(Cys444Tyr)			
NM_001163817.1:c.1337G>A		NM_001163817.1	DHCR7_v001	c.1337G>A	n.1587G>A	c.1337G>A	p.(Arg446Gln)	DHCR7_v001:c.1337G>A	DHCR7_v001:p.(Arg446Gln)		NM_001163817.1	NP_001157289.1	NM_001163817.1(DHCR7_v001):c.1337G>A	NM_001163817.1(DHCR7_i001):p.(Arg446Gln)	BpmI,BstNI,PspGI	BsmFI,HpaII,MspI,NciI	
NM_001163817.1:c.1342G>A		NM_001163817.1	DHCR7_v001	c.1342G>A	n.1592G>A	c.1342G>A	p.(Glu448Lys)	DHCR7_v001:c.1342G>A	DHCR7_v001:p.(Glu448Lys)		NM_001163817.1	NP_001157289.1	NM_001163817.1(DHCR7_v001):c.1342G>A	NM_001163817.1(DHCR7_i001):p.(Glu448Lys)		BsiHKAI,Bsp1286I	
NM_001163817.1:c.1349G>T		NM_001163817.1	DHCR7_v001	c.1349G>T	n.1599G>T	c.1349G>T	p.(Arg450Leu)	DHCR7_v001:c.1349G>T	DHCR7_v001:p.(Arg450Leu)		NM_001163817.1	NP_001157289.1	NM_001163817.1(DHCR7_v001):c.1349G>T	NM_001163817.1(DHCR7_i001):p.(Arg450Leu)		BbvI	
NM_001163817.1:c.1351T>C		NM_001163817.1	DHCR7_v001	c.1351T>C	n.1601T>C	c.1351T>C	p.(Cys451Arg)	DHCR7_v001:c.1351T>C	DHCR7_v001:p.(Cys451Arg)		NM_001163817.1	NP_001157289.1	NM_001163817.1(DHCR7_v001):c.1351T>C	NM_001163817.1(DHCR7_i001):p.(Cys451Arg)	BstUI	BbvI	
NM_001163817.1:c.1384T>C		NM_001163817.1	DHCR7_v001	c.1384T>C	n.1634T>C	c.1384T>C	p.(Tyr462His)	DHCR7_v001:c.1384T>C	DHCR7_v001:p.(Tyr462His)		NM_001163817.1	NP_001157289.1	NM_001163817.1(DHCR7_v001):c.1384T>C	NM_001163817.1(DHCR7_i001):p.(Tyr462His)		AfeI	
NM_001163817.1:c.1396G>A		NM_001163817.1	DHCR7_v001	c.1396G>A	n.1646G>A	c.1396G>A	p.(Val466Met)	DHCR7_v001:c.1396G>A	DHCR7_v001:p.(Val466Met)		NM_001163817.1	NP_001157289.1	NM_001163817.1(DHCR7_v001):c.1396G>A	NM_001163817.1(DHCR7_i001):p.(Val466Met)	BsrDI	BtsI,BtsIMutI,TspRI	
NM_001163817.1:c.1397T>C		NM_001163817.1	DHCR7_v001	c.1397T>C	n.1647T>C	c.1397T>C	p.(Val466Ala)	DHCR7_v001:c.1397T>C	DHCR7_v001:p.(Val466Ala)		NM_001163817.1	NP_001157289.1	NM_001163817.1(DHCR7_v001):c.1397T>C	NM_001163817.1(DHCR7_i001):p.(Val466Ala)		BtsI,BtsIMutI,TspRI	
NM_001163817.1:c.1406G>C		NM_001163817.1	DHCR7_v001	c.1406G>C	n.1656G>C	c.1406G>C	p.(Arg469Pro)	DHCR7_v001:c.1406G>C	DHCR7_v001:p.(Arg469Pro)		NM_001163817.1	NP_001157289.1	NM_001163817.1(DHCR7_v001):c.1406G>C	NM_001163817.1(DHCR7_i001):p.(Arg469Pro)		Cac8I	
NM_001163817.1:c.1409T>A		NM_001163817.1	DHCR7_v001	c.1409T>A	n.1659T>A	c.1409T>A	p.(Leu470Gln)	DHCR7_v001:c.1409T>A	DHCR7_v001:p.(Leu470Gln)		NM_001163817.1	NP_001157289.1	NM_001163817.1(DHCR7_v001):c.1409T>A	NM_001163817.1(DHCR7_i001):p.(Leu470Gln)	AluI,BstXI,CviKI_1,MspA1I,PvuII		
NM_001163817.1:c.1424T>C		NM_001163817.1	DHCR7_v001	c.1424T>C	n.1674T>C	c.1424T>C	p.(Phe475Ser)	DHCR7_v001:c.1424T>C	DHCR7_v001:p.(Phe475Ser)		NM_001163817.1	NP_001157289.1	NM_001163817.1(DHCR7_v001):c.1424T>C	NM_001163817.1(DHCR7_i001):p.(Phe475Ser)	Bsu36I	MboII	
NM_001163817.1:c.1426T>C		NM_001163817.1	DHCR7_v001	c.1426T>C	n.1676T>C	c.1426T>C	p.(*476Glnext*51)	DHCR7_v001:c.1426T>C	DHCR7_v001:p.(*476Glnext*51)		NM_001163817.1	NP_001157289.1	NM_001163817.1(DHCR7_v001):c.1426T>C	NM_001163817.1(DHCR7_i001):p.(*476Glnext*51)		DdeI	
