,nucl,HWE.null.vs.hypomorphic,HWE.truncating.vs.missense,HWE.translatable,HWE.domain,
p.(Gln338*),c.1012C>T,null,truncating,nontranslatable,,*
p.(Pro381Leufs*10),c.1142delC,null,truncating,nontranslatable,,*
p.(Tyr385*),c.1155C>A,null,truncating,nontranslatable,,*
,c.121-1G>A,null,truncating,nontranslatable,,*
,c.121-1G>C,null,truncating,nontranslatable,,*
,c.1243-1G>A,null,truncating,nontranslatable,,*
,c.1364+1G>A,null,truncating,nontranslatable,,*
p.(Trp10*),c.29G>A,null,truncating,nontranslatable,,*
,c.405_422+1del19,null,truncating,nontranslatable,,*
,c.422+2dupT,null,truncating,nontranslatable,,*
p.(Trp141*),c.423_566del,null,truncating,nontranslatable,,*
,c.634-1G>T,null,truncating,nontranslatable,,*
,c.758+1G>C,null,truncating,nontranslatable,,*
p.(Pro296Phefs*13),c.888del27,null,truncating,nontranslatable,,*
,c.898+1G>A,null,truncating,nontranslatable,,*
p.E126*,c.376G>T,null,truncating,nontranslatable,,
p.(Glu202Lysfs*117),c.604delG,null,truncating,nontranslatable,,
,c.567-1G>T,null,truncating,nontranslatable,,
p.(Gly340Asp),c.1019G>A,null,missense,translatable,1,
p.(Ser341Arg),c.1023C>G,null,missense,translatable,1,
p.(Leu36_Leu37del),c.106_111delCTGCTC,,,translatable,1,
p.(Arg361Gly),c.1081A>G,,missense,translatable,1,
p.(Leu366Pro),c.1097T>C,null,missense,translatable,1,
p.(Arg386Cys),c.1156C>T,null,missense,translatable,2,
p.(Arg386His),c.1157G>A,,missense,translatable,2,
p.(Met391Val),c.1171A>G,hypomorphic,missense,translatable,2,
p.(Trp403_Thr404delinsCysSer),c.1209_1210delGAinsTT,,,translatable,2,
p.(Asn407His),c.1219A>C,,missense,translatable,2,
p.(Phe452Ile),c.1354T>A,,missense,translatable,2,
p.(Phe452Leu),c.1354T>C,,missense,translatable,2,
p.(Gly47Arg),c.139G>A,null,missense,translatable,1,
p.(Met494Val),c.1480A>G,null,missense,translatable,3,
p.(Asn495Lys),c.1485C>G,,missense,translatable,3,
p.(Pro52_Glu55del),c.154_165del12,,,translatable,1,
p.(*523Gluext*92),c.1567T>G,,,,,
p.(Arg61Trp),c.181C>T,,missense,translatable,1,
p.(Pro81Leu),c.242C>T,,missense,translatable,1,
p.(Ser82Leu),c.245C>T,,missense,translatable,1,
p.(Arg90Trp),c.268C>T,,missense,translatable,1,
p.(Arg94Gly),c.280C>G,,missense,translatable,1,
p.(Arg94Cys),c.280C>T,,missense,translatable,1,
p.(Ile113Phe),c.337A>T,null,missense,translatable,1,
p.(Gly116Ser),c.346G>A,null,missense,translatable,1,
p.(Pro125Leu),c.374C>T,null,missense,translatable,1,
p.(Gly139Ser),c.415G>A,,missense,translatable,1,
p.(His150Tyr),c.448C>T,,missense,translatable,1,
p.(Pro151Thr),c.451C>A,null,missense,translatable,1,
p.(Gly155Arg),c.463G>A,hypomorphic,missense,translatable,1,
p.(Asn164Thr),c.491A>C,null,missense,translatable,1,
p.(Gly168Arg),c.502G>A,null,missense,translatable,1,
p.(Ala203Val),c.608C>T,,missense,translatable,1,
p.(Asn204Lys),c.612C>G,,missense,translatable,1,
p.(Gly247Asp),c.740G>A,,missense,translatable,1,
p.(Arg251Gln),c.752G>A,,missense,translatable,1,
p.(Tyr254Cys),c.761A>G,null,missense,translatable,1,
p.(Arg259Gln),c.776G>A,,missense,translatable,1,
p.(Phe285del),c.850_852delTTC,null,missense,translatable,1,
p.(Phe284Val),c.850T>G,hypomorphic,missense,translatable,1,
p.(Phe285del),c.853_855delTTC,null,missense,translatable,1,
p.(Ser287Leu),c.860C>T,hypomorphic,missense,translatable,1,
p.(Gly290Ser),c.868G>A,,missense,translatable,1,
p.(Ala291Thr),c.871G>A,null,missense,translatable,1,
p.(Ser295Phe),c.884C>T,,missense,translatable,1,
p.(Gly301Cys),c.901G>T,null,missense,translatable,1,
p.(Thr312Ser),c.935C>G,hypomorphic,missense,translatable,1,
p.(Met318Arg),c.953T>G,null,missense,translatable,1,
p.M1I,c.3G>A,,,translatable,1,
p.G42E,c.125G>A,,missense,translatable,1,
p.V48G,c.143T>G,,missense,translatable,1,
p.D60N,c.178G>A,,missense,translatable,1,
p.S74F,c.221C>T,hypomorphic,missense,translatable,1,
p.L86P,c.257T>C,,missense,translatable,1,
p.F156C,c.467T>G,,missense,translatable,1,
p.F156S,c.467T>C,,missense,translatable,1,
p.D233N,c.697G>A,,missense,translatable,1,
p.T235K,c.704C>A,,missense,translatable,1,
p.R253Q,c.758G>A,,missense,translatable,1,
p.E260K,c.778G>A,,missense,translatable,1,
p.N289D,c.865A>G,hypomorphic,missense,translatable,1,
p.A291D,c.872C>A,,missense,translatable,1,
p.C308R,c.922T>C,,missense,translatable,1,
p.G309R,c.925G>A,,missense,translatable,1,
p.W325C,c.975G>T,,missense,translatable,1,
p.L345P,c.1034T>C,,missense,translatable,1,
p.L352P,c.1055T>C,,missense,translatable,1,
p.R376Q,c.1127G>A,null,missense,translatable,1,
p.T394P,c.1180A>C,,missense,translatable,2,
p.L395V,c.1183C>G,,missense,translatable,2,
p.N495Y,c.1483A>T,,missense,translatable,3,
p.M1V,c.1A>G,null,,translatable,1,
p.G23R,c.67G>C,,missense,translatable,1,
p.Y73C,c.218A>G,,missense,translatable,1,
p.T88I,c.263C>T,,missense,translatable,1,
p.A107T,c.319G>A,null,missense,translatable,1,
p.H142R,c.425A>G,,missense,translatable,1,
p.P163H,c.488C>A,,missense,translatable,1,
p.N177S,c.530A>G,,missense,translatable,1,
p.S242C,c.725C>G,,missense,translatable,3,
p.G290R,c.868G>C,null,missense,translatable,1,
p.T312A,c.934A>G,,missense,translatable,1,
p.D388N,c.1162G>A,,missense,translatable,2,
p.A392V,c.1175C>T,null,missense,translatable,2,
p.Q422K,c.1264C>A,,missense,translatable,2,
p.P484S,c.1450C>T,,missense,translatable,3,
p.(Gln334*),c.1000C>T,,truncating,,,
p.(Gln374*),c.1120C>T,,truncating,,,
p.(Lys399Argfs*42),c.1195delA,null,truncating,,,
p.(Gln414*),c.1240C>T,,truncating,,,
p.(Val427Serfs*14),c.1275delA,,truncating,,,
p.(Phe167Leufs*32),c.498delC,,truncating,,,
p.(Gln211*),c.631C>T,,truncating,,,
p.(Arg251*),c.751C>T,,truncating,,,
p.W520*,c.1560G>A,,truncating,,,
,c.758+4A>T,,,,,
"exac.extra, frameshift, p.Leu440AspfsTer62",c.1318_1319delCT,,truncating,,,
"exac.extra, splice acceptor, c.899-1G>C",c.899-1G>C,,truncating,,,
"exac.extra, stop gained, p.Tyr254Ter",c.762T>G,,truncating,,,
"exac.extra, frameshift, p.Lys218GlufsTer45",c.651_652insG,,truncating,,,
"exac.extra, splice donor, c.566_566+9delGGTAAT...",c.566_566+9delGGTAATGGAG,,,,,
"exac.extra, frameshift, p.Asn164ThrfsTer35",c.489delC,,truncating,,,
"exac.extra, splice donor, c.422+2_422+8delTAAG...",c.422+2_422+8delTAAGTCT,,,,,
"exac.extra, frameshift, p.Pro110ArgfsTer17",c.328_334delCCGCAGG,,truncating,,,
"exac.extra, stop gained, p.Gln111Ter",c.331C>T,,truncating,,,
"exac.extra, stop gained, p.Trp11Ter",c.32G>A,,truncating,,,
p.(Met41Leu),c.121A>T,,missense,,,
,c.389delG,,truncating,,,
p.(Trp141Arg),c.421T>A,,missense,,,
,c.763delT,,truncating,,,
