"nucl","prot","category"
"c.3G>A","p.M1I","Missense/nonsense"
"c.1A>G","p.M1V","Missense/nonsense"
"c.29G>A","p.W10*","Missense/nonsense"
"c.47T>A","p.V16E","Missense/nonsense"
"c.67G>C","p.G23R","Missense/nonsense"
"c.107T>G","p.L36R","Missense/nonsense"
"c.118G>A","p.D40N","Missense/nonsense"
"c.121A>T","p.M41L","Missense/nonsense"
"c.122T>A","p.M41K","Missense/nonsense"
"c.125G>A","p.G42E","Missense/nonsense"
"c.139G>A","p.G47R","Missense/nonsense"
"c.143T>G","p.V48G","Missense/nonsense"
"c.151G>A","p.E51K","Missense/nonsense"
"c.178G>A","p.D60N","Missense/nonsense"
"c.181C>T","p.R61W","Missense/nonsense"
"c.196G>C","p.G66R","Missense/nonsense"
"c.205T>G","p.F69V","Missense/nonsense"
"c.218A>G","p.Y73C","Missense/nonsense"
"c.221C>T","p.S74F","Missense/nonsense"
"c.224C>G","p.A75G","Missense/nonsense"
"c.230C>G","p.P77R","Missense/nonsense"
"c.236G>A","p.C79Y","Missense/nonsense"
"c.242C>T","p.P81L","Missense/nonsense"
"c.245C>T","p.S82L","Missense/nonsense"
"c.244T>C","p.S82P","Missense/nonsense"
"c.251C>A","p.A84E","Missense/nonsense"
"c.257T>C","p.L86P","Missense/nonsense"
"c.263C>T","p.T88I","Missense/nonsense"
"c.268C>T","p.R90W","Missense/nonsense"
"c.272T>C","p.L91P","Missense/nonsense"
"c.280C>T","p.R94C","Missense/nonsense"
"c.280C>G","p.R94G","Missense/nonsense"
"c.286G>T","p.G96C","Missense/nonsense"
"c.319G>A","p.A107T","Missense/nonsense"
"c.332A>G","p.Q111R","Missense/nonsense"
"c.337A>T","p.I113F","Missense/nonsense"
"c.346G>A","p.G116S","Missense/nonsense"
"c.347G>T","p.G116V","Missense/nonsense"
"c.363G>C","p.E121D","Missense/nonsense"
"c.374C>T","p.P125L","Missense/nonsense"
"c.376G>T","p.E126*","Missense/nonsense"
"c.415G>A","p.G139S","Missense/nonsense"
"c.421T>A","p.W141R","Missense/nonsense"
"c.423G>T","p.W141C","Missense/nonsense"
"c.422G>A","p.W141*","Missense/nonsense"
"c.425A>G","p.H142R","Missense/nonsense"
"c.433C>T","p.H145Y","Missense/nonsense"
"c.448C>T","p.H150Y","Missense/nonsense"
"c.452C>T","p.P151L","Missense/nonsense"
"c.451C>A","p.P151T","Missense/nonsense"
"c.463G>A","p.G155R","Missense/nonsense"
"c.467T>G","p.F156C","Missense/nonsense"
"c.466T>C","p.F156L","Missense/nonsense"
"c.467T>C","p.F156S","Missense/nonsense"
"c.477G>A","p.W159*","Missense/nonsense"
"c.485C>T","p.S162F","Missense/nonsense"
"c.488C>A","p.P163H","Missense/nonsense"
"c.491A>C","p.N164T","Missense/nonsense"
"c.497A>G","p.H166R","Missense/nonsense"
"c.499T>G","p.F167V","Missense/nonsense"
"c.502G>A","p.G168R","Missense/nonsense"
"c.530A>G","p.N177S","Missense/nonsense"
"c.536C>A","p.P179H","Missense/nonsense"
"c.536C>T","p.P179L","Missense/nonsense"
"c.602G>A","p.G201E","Missense/nonsense"
"c.608C>T","p.A203V","Missense/nonsense"
"c.612C>G","p.N204K","Missense/nonsense"
"c.627C>G","p.Y209*","Missense/nonsense"
"c.631C>T","p.Q211*","Missense/nonsense"
"c.641T>C","p.L214P","Missense/nonsense"
"c.647T>C","p.F216S","Missense/nonsense"
"c.697G>A","p.D233N","Missense/nonsense"
"c.704C>A","p.T235K","Missense/nonsense"
"c.706C>G","p.H236D","Missense/nonsense"
"c.715G>T","p.V239F","Missense/nonsense"
"c.719A>G","p.Y240C","Missense/nonsense"
"c.725C>G","p.S242C","Missense/nonsense"
"c.740G>A","p.G247D","Missense/nonsense"
"c.752G>A","p.R251Q","Missense/nonsense"
"c.751C>T","p.R251*","Missense/nonsense"
"c.758G>A","p.R253Q","Missense/nonsense"
"c.757C>T","p.R253W","Missense/nonsense"
"c.761A>G","p.Y254C","Missense/nonsense"
"c.776G>A","p.R259Q","Missense/nonsense"
"c.778G>A","p.E260K","Missense/nonsense"
"c.791G>C","p.S264T","Missense/nonsense"
"c.850T>G","p.F284V","Missense/nonsense"
"c.860C>T","p.S287L","Missense/nonsense"
"c.865A>G","p.N289D","Missense/nonsense"
"c.866A>G","p.N289S","Missense/nonsense"
"c.868G>C","p.G290R","Missense/nonsense"
"c.868G>A","p.G290S","Missense/nonsense"
"c.872C>A","p.A291D","Missense/nonsense"
"c.871G>A","p.A291T","Missense/nonsense"
"c.884C>T","p.S295F","Missense/nonsense"
"c.901G>T","p.G301C","Missense/nonsense"
"c.920T>C","p.L307P","Missense/nonsense"
"c.922T>C","p.C308R","Missense/nonsense"
"c.925G>A","p.G309R","Missense/nonsense"
"c.934A>G","p.T312A","Missense/nonsense"
"c.935C>G","p.T312S","Missense/nonsense"
"c.938C>T","p.T313M","Missense/nonsense"
"c.953T>G","p.M318R","Missense/nonsense"
"c.975G>T","p.W325C","Missense/nonsense"
"c.974G>A","p.W325*","Missense/nonsense"
"c.1000C>T","p.Q334*","Missense/nonsense"
"c.1012C>T","p.Q338*","Missense/nonsense"
"c.1019G>A","p.G340D","Missense/nonsense"
"c.1023C>G","p.S341R","Missense/nonsense"
"c.1032C>G","p.D344E","Missense/nonsense"
"c.1034T>C","p.L345P","Missense/nonsense"
"c.1055T>C","p.L352P","Missense/nonsense"
"c.1081A>G","p.R361G","Missense/nonsense"
"c.1097T>C","p.L366P","Missense/nonsense"
"c.1120C>T","p.Q374*","Missense/nonsense"
"c.1127G>A","p.R376Q","Missense/nonsense"
"c.1138A>G","p.R380G","Missense/nonsense"
"c.1140G>T","p.R380S","Missense/nonsense"
"c.1155C>A","p.Y385*","Missense/nonsense"
"c.1156C>T","p.R386C","Missense/nonsense"
"c.1157G>A","p.R386H","Missense/nonsense"
"c.1162G>A","p.D388N","Missense/nonsense"
"c.1171A>G","p.M391V","Missense/nonsense"
"c.1175C>T","p.A392V","Missense/nonsense"
"c.1180A>C","p.T394P","Missense/nonsense"
"c.1183C>G","p.L395V","Missense/nonsense"
"c.1192C>G","p.H398D","Missense/nonsense"
"c.1219A>C","p.N407H","Missense/nonsense"
"c.1226G>C","p.W409S","Missense/nonsense"
"c.1240C>T","p.Q414*","Missense/nonsense"
"c.1244G>T","p.G415V","Missense/nonsense"
"c.1247T>C","p.I416T","Missense/nonsense"
"c.1259C>G","p.P420R","Missense/nonsense"
"c.1264C>A","p.Q422K","Missense/nonsense"
"c.1264C>T","p.Q422*","Missense/nonsense"
"c.1354T>A","p.F452I","Missense/nonsense"
"c.1354T>C","p.F452L","Missense/nonsense"
"c.1450C>T","p.P484S","Missense/nonsense"
"c.1474G>A","p.A492T","Missense/nonsense"
"c.1480A>G","p.M494V","Missense/nonsense"
"c.1485C>G","p.N495K","Missense/nonsense"
"c.1483A>T","p.N495Y","Missense/nonsense"
"c.1498G>A","p.G500S","Missense/nonsense"
"c.1520G>T","p.C507F","Missense/nonsense"
"c.1560G>A","p.W520*","Missense/nonsense"
"c.1567T>G","p.*523E","Missense/nonsense"
"c.120+1G>A","","Splicing"
"c.120+1G>C","","Splicing"
"c.121-1G>A","","Splicing"
"c.121-1G>C","","Splicing"
"c.423-1G>A","","Splicing"
"c.567-1G>T","","Splicing"
"c.634-1G>T","","Splicing"
"c.758+1G>C","","Splicing"
"c.758+4A>T","","Splicing"
"c.898+1G>A","","Splicing"
"c.898+1G>C","","Splicing"
"c.1243-1G>A","","Splicing"
"c.1364+1G>A","","Splicing"
"c.106_111delCTGCTC","","Small deletions"
"c.154_165del12","","Small deletions"
"c.405_422+1del19","","Small deletions"
"c.498delC","","Small deletions"
"c.604delG","","Small deletions"
"c.853_855delTTC","","Small deletions"
"c.1070delC","","Small deletions"
"c.1114delC","","Small deletions"
"c.1142delC","","Small deletions"
"c.1168delC","","Small deletions"
"c.1275delA","","Small deletions"
"c.422+2dupT","","Small insertions"
"c.1355dupT","","Small insertions"
"c.1209_1210delGAinsTT","","Small indels"
"c.1429_1455del27","","Gross deletions"
