nucl,biological.pathogenicity,biological.pathogenicity.basis.of.decision.by.hand
c.148_859-11del,TRUE,
c.546+2_546+5delTGGG,TRUE,
c.546+5G>T,TRUE,
c.546G>T,FALSE,
c.546G>C,FALSE,
c.546G>A,FALSE,
c.1552-3C>G,TRUE,Netgene
c.1626C>G,TRUE,
c.1726G>A,FALSE,
c.1842G>A,FALSE,
c.2040G>A,FALSE,
c.2065G>A,TRUE,
c.2331+4A>G,FALSE,
c.2481+102_2646+31del,TRUE,cikkekbol- severe
c.2646+2_2646+3delTG,FALSE,
