PAH,,,,
,,,,
exon 1: 1-59,,60,,1-60
exon 2: 60-167,,108,,61-168
exon 3: 168- 351,,184,,169-352
exon 4: 352- 440,,89,,353-441
exon 5: 441- 508,,68,,442-509
exon 6: 509- 705,,197,,510-706
exon 7: 706 – 841,,136,,707-842
exon 8: 842 – 911,,70,,843-912
exon 9: 912 –968,,57,,913-969
exon 10: 969– 1064,,96,,970-1065
exon 11: 1065 -  1198,,134,,1066-1199
exon 12: 1196 – 1311,,116,,1200-1315
exon 13: 1312 – 1355,,44,,1316-1359
,,,,
,,,,
§Domain 1:,,,,
•Regulatory: Nt: 1-426,,,,
•                      aa: 1-142,,,,
§Domain 2:,,,,
•Catalytic: Nt: 427-1230,,,,
•                  aa: 143-410,,,,
§Domain 3:,,,,
•Tetramerisation: Nt: 1231-1356,,,,
•                              aa: 411-452,,,,
