"nucl","prot","category"
"c.1A>G","p.M1V","Missense/nonsense"
"c.26G>A","p.C9Y","Missense/nonsense"
"c.43G>C","p.G15R","Missense/nonsense"
"c.53C>G","p.T18S","Missense/nonsense"
"c.58C>T","p.P20S","Missense/nonsense"
"c.95T>G","p.L32R","Missense/nonsense"
"c.104T>A","p.L35*","Missense/nonsense"
"c.111G>T","p.Q37H","Missense/nonsense"
"c.131T>C","p.V44A","Missense/nonsense"
"c.140C>A","p.S47*","Missense/nonsense"
"c.193G>T","p.D65Y","Missense/nonsense"
"c.205C>T","p.P69S","Missense/nonsense"
"c.227A>G","p.Y76C","Missense/nonsense"
"c.278A>C","p.E93A","Missense/nonsense"
"c.303C>G","p.N101K","Missense/nonsense"
"c.308G>T","p.C103F","Missense/nonsense"
"c.317A>G","p.Y106C","Missense/nonsense"
"c.323C>T","p.A108V","Missense/nonsense"
"c.337C>G","p.P113A","Missense/nonsense"
"c.338C>T","p.P113L","Missense/nonsense"
"c.349G>C","p.G117R","Missense/nonsense"
"c.357C>A","p.F119L","Missense/nonsense"
"c.359T>C","p.I120T","Missense/nonsense"
"c.368G>A","p.R123Q","Missense/nonsense"
"c.385G>A","p.V129M","Missense/nonsense"
"c.391C>G","p.P131A","Missense/nonsense"
"c.395T>C","p.I132T","Missense/nonsense"
"c.415G>A","p.E139K","Missense/nonsense"
"c.421C>T","p.R141C","Missense/nonsense"
"c.422G>A","p.R141H","Missense/nonsense"
"c.452A>G","p.E151G","Missense/nonsense"
"c.458T>C","p.I153T","Missense/nonsense"
"c.470T>C","p.F157S","Missense/nonsense"
"c.484C>T","p.R162W","Missense/nonsense"
"c.523G>C","p.G175R","Missense/nonsense"
"c.527G>T","p.G176V","Missense/nonsense"
"c.531G>C","p.Q177H","Missense/nonsense"
"c.548T>C","p.F183S","Missense/nonsense"
"c.563A>G","p.D188G","Missense/nonsense"
"c.584A>G","p.H195R","Missense/nonsense"
"c.590A>C","p.E197A","Missense/nonsense"
"c.620T>C","p.F207S","Missense/nonsense"
"c.623G>C","p.G208A","Missense/nonsense"
"c.626A>G","p.D209G","Missense/nonsense"
"c.640G>A","p.G214S","Missense/nonsense"
"c.647A>T","p.N216I","Missense/nonsense"
"c.653A>T","p.H218L","Missense/nonsense"
"c.677C>G","p.T226S","Missense/nonsense"
"c.686A>C","p.Y229S","Missense/nonsense"
"c.691G>A","p.V231M","Missense/nonsense"
"c.697G>A","p.A233T","Missense/nonsense"
"c.710C>G","p.T237R","Missense/nonsense"
"c.710C>T","p.T237M","Missense/nonsense"
"c.715A>T","p.R239W","Missense/nonsense"
"c.722G>C","p.C241S","Missense/nonsense"
"c.66+1G>T","","Splicing"
"c.255G>A","","Splicing"
"c.255+1G>A","","Splicing"
"c.255+2T>C","","Splicing"
"c.256-1G>C","","Splicing"
"c.640-15479C>T","","Splicing"
"c.640-9T>G","","Splicing"
"c.24delC","","Small deletions"
"c.324delG","","Small deletions"
"c.392delC","","Small deletions"
