nucl,biological.pathogenicity,biological.pathogenicity.basis.of.decision.by.hand
c.1A>G,TRUE,
c.53C>G,TRUE,
c.131T>C,TRUE,mut.taster
c.255G>A,TRUE,mut.taster
c.308G>T,TRUE,
c.590A>C,TRUE,
c.640-9T>G,FALSE,NETGENE
