nucl,biological.pathogenicity,biological.pathogenicity.basis.of.decision.by.hand
c.344T>C,FALSE,muttaster
c.378+1_378+2delGTinsTG,TRUE,copied over from old file
c.451+3A>T,TRUE,copied over from old file
c.873+5G>A,TRUE,copied over from old file
c.1021C>T,TRUE,
c.574A>G,FALSE,SIFT and polyphen says that it is benign
