nucl,,HWE.null.vs.hypomorphic,HWE.truncating.vs.missense,HWE.translatable,HWE.domain
c.1000C>T,p.(Arg334Trp),hypomorphic,missense,translatable,2
c.1001G>A,p.(Arg334Gln),,missense,translatable,2
c.1001G>T,p.(Arg334Leu),hypomorphic,missense,translatable,2
c.1007T>A,p.(Ile336Lys),,missense,translatable,2
c.1013C>T,p.(Thr338Ile),hypomorphic,missense,translatable,2
c.1040G>A,p.(Arg347His),hypomorphic,missense,translatable,2
c.1040G>C,p.(Arg347Pro),hypomorphic,missense,translatable,2
c.1043T>A,p.(Met348Lys),,missense,translatable,2
c.1046C>T,,,missense,translatable,2
c.1052C>G,T351S,,missense,translatable,2
c.1055G>A,p.(Arg352Gln),hypomorphic,missense,translatable,2
c.106G>A,p.(Asp36Asn),null,missense,translatable,1
c.1094T>C,p.(Leu365Pro),null,missense,translatable,2
c.1125A>C,p.(Leu375Phe),hypomorphic,missense,translatable,2
c.1148T>C,p.(Leu383Ser),,missense,translatable,2
c.1181T>G,p.(Met394Arg),null,missense,translatable,2
c.1196C>A,p.(Ala399Asp),null,missense,translatable,2
c.1210_1392del,p.(Gly404_Lys464del),null,,translatable,2
c.125C>T,p.(Ser42Phe),null,missense,translatable,1
c.1327G>T,p.(Asp443Tyr),hypomorphic,missense,translatable,3
c.1352G>T,p.(Gly451Val),null,missense,translatable,3
c.1358T>C,p.(Leu453Ser),,missense,translatable,3
c.1364C>A,p.(Ala455Glu),hypomorphic,missense,translatable,3
c.1367T>C,V456A,,missense,translatable,3
c.1394C>A,p.(Thr465Asn),null,missense,translatable,3
c.1438G>T,p.(Gly480Cys),,missense,translatable,3
c.1475C>T,p.(Ser492Phe),null,missense,translatable,3
c.14C>T,p.(Pro5Leu),hypomorphic,missense,translatable,1
c.1516A>G,,,missense,translatable,3
c.1519_1521delATC,p.(Ile507del),,missense,translatable,3
c.1521_1523delCTT,p.(Phe508del),null,missense,translatable,3
c.1558G>T,p.(Val520Phe),null,missense,translatable,3
c.1585G>A,p.(Asp529Asn),null,missense,translatable,3
c.1646G>A,p.(Ser549Asn),null,missense,translatable,3
c.1647T>G,p.(Ser549Arg),null,missense,translatable,3
c.1652G>A,p.(Gly551Asp),null,missense,translatable,3
c.166G>A,p.(Glu56Lys),hypomorphic,missense,translatable,1
c.1673T>C,p.(Leu558Ser),null,missense,translatable,3
c.1679G>C,p.(Arg560Thr),null,missense,translatable,3
c.167A>G,p.(Glu56Gly),hypomorphic,missense,translatable,1
c.1680A>T,p.(Arg560Ser),null,missense,translatable,3
c.1682C>A,p.(Ala561Glu),null,missense,translatable,3
c.1684G>A,p.(Val562Ile),hypomorphic,missense,translatable,3
c.169T>G,p.(Trp57Gly),hypomorphic,missense,translatable,1
c.1704G>T,p.(Leu568Phe),,missense,translatable,3
c.1705T>G,p.(Tyr569Asp),null,missense,translatable,3
c.1712T>C,p.(Leu571Ser),null,missense,translatable,3
c.1721C>A,p.(Pro574His),hypomorphic,missense,translatable,3
c.1724T>A,p.(Phe575Tyr),hypomorphic,missense,translatable,3
c.1736A>G,p.(Asp579Gly),hypomorphic,missense,translatable,3
c.1763A>T,p.(Glu588Val),null,missense,translatable,3
c.178G>A,p.(Glu60Lys),null,missense,translatable,1
c.1826A>G,p.(His609Arg),null,missense,translatable,4
c.1841A>G,p.(Asp614Gly),hypomorphic,missense,translatable,4
c.1865G>A,,,missense,translatable,4
c.1882G>C,p.(Gly628Arg),,missense,translatable,3
c.1A>G,p.?,null,,,
c.200C>T,p.(Pro67Leu),null,missense,translatable,1
c.224G>T,p.(Arg75Leu),hypomorphic,missense,translatable,1
c.2417A>G,p.(Asp806Gly),,missense,translatable,4
c.254G>A,p.(Gly85Glu),null,missense,translatable,2
c.2552G>T,p.(Arg851Leu),hypomorphic,missense,translatable,4
c.274G>A,p.(Glu92Lys),,missense,translatable,2
c.2780T>C,p.(Leu927Pro),,missense,translatable,5
c.2797A>G,p.(Arg933Gly),,missense,translatable,5
c.2799A>T,p.(Arg933Ser),hypomorphic,missense,translatable,5
c.2813T>G,p.(Val938Gly),hypomorphic,missense,translatable,5
c.2834C>T,p.(Ser945Leu),,missense,translatable,5
c.2856G>C,p.(Met952Ile),,missense,translatable,5
c.289_297delGTACAGCCT,p.(Val97_Pro99del),null,,translatable,2
c.2908G>C,p.(Gly970Arg),,missense,translatable,5
c.2909G>A,,,missense,translatable,5
c.2930C>T,p.(Ser977Phe),,missense,translatable,5
c.293A>G,p.(Gln98Arg),null,missense,translatable,2
c.2989_3468del,p.(Leu997_Leu1156del),,,translatable,5
c.2991G>C,p.(Leu997Phe),hypomorphic,missense,translatable,5
c.3038C>T,p.(Pro1013Leu),hypomorphic,missense,translatable,5
c.3041A>G,,,missense,translatable,5
c.3067_3072delATAGTG,p.(Ile1023_Val1024del),,,translatable,5
c.3095A>G,p.(Tyr1032Cys),hypomorphic,missense,translatable,5
c.3107C>T,p.(Thr1036Ile),null,missense,translatable,5
c.3154T>G,,,missense,translatable,5
c.3160C>G,p.(His1054Asp),hypomorphic,missense,translatable,5
c.3181G>A,p.(Gly1061Arg),hypomorphic,missense,translatable,5
c.3194T>C,p.(Leu1065Pro),null,missense,translatable,5
c.3196C>T,p.(Arg1066Cys),null,missense,translatable,5
c.3197G>A,p.(Arg1066His),,missense,translatable,5
c.3208C>T,p.(Arg1070Trp),hypomorphic,missense,translatable,5
c.3212A>C,p.(Gln1071Pro),hypomorphic,missense,translatable,5
c.3222T>A,p.(Phe1074Leu),hypomorphic,missense,translatable,5
c.3230T>C,p.(Leu1077Pro),null,missense,translatable,5
c.3259G>C,p.(Ala1087Pro),hypomorphic,missense,translatable,5
c.3274T>C,p.(Tyr1092His),,missense,translatable,5
c.3275A>G,,,missense,translatable,5
c.328G>C,p.(Asp110His),hypomorphic,missense,translatable,2
c.3299A>C,p.(Gln1100Pro),,missense,translatable,5
c.3302T>A,p.(Met1101Lys),null,missense,translatable,5
c.3371_3373delAAG,p.(Glu1124del),hypomorphic,missense,translatable,5
c.3380G>A,p.(Gly1127Glu),,missense,translatable,5
c.3389G>C,p.(Gly1130Ala),,missense,translatable,5
c.3406G>A,,,missense,translatable,5
c.3409A>G,p.(Met1137Val),hypomorphic,missense,translatable,5
c.3410T>G,,,missense,translatable,5
c.3415A>G,p.(Ile1139Val),,missense,translatable,5
c.3454G>C,p.(Asp1152His),hypomorphic,missense,translatable,5
c.3469-420_3717+1230del1899,,,,translatable,5
c.3485G>T,R1162L,,missense,translatable,5
c.349C>T,p.(Arg117Cys),hypomorphic,missense,translatable,2
c.3503A>G,p.(Asp1168Gly),,missense,translatable,5
c.350G>A,p.(Arg117His),hypomorphic,missense,translatable,2
c.358G>A,,,missense,translatable,2
c.3700A>G,p.(Ile1234Val),null,missense,translatable,6
c.3719T>G,p.(Val1240Gly),hypomorphic,missense,translatable,6
c.3730G>A,p.(Gly1244Arg),,missense,translatable,6
c.3731G>A,p.(Gly1244Glu),null,missense,translatable,6
c.3739G>C,p.(Gly1247Arg),,missense,translatable,6
c.3752G>A,p.(Ser1251Asn),hypomorphic,missense,translatable,6
c.3779T>C,p.(Leu1260Pro),,missense,translatable,6
c.377G>A,p.(Gly126Asp),,missense,translatable,2
c.3872A>G,p.(Gln1291Arg),hypomorphic,missense,translatable,6
c.3873G>C,p.(Gln1291His),hypomorphic,missense,translatable,6
c.3909C>G,p.(Asn1303Lys),null,missense,translatable,6
c.3964_4242del,p.(Gly1323_Val1415del),null,,translatable,6
c.3964-78_4242+577del,,null,,,
c.4046G>A,p.(Gly1349Asp),,missense,translatable,6
c.4051A>G,p.(Lys1351Glu),hypomorphic,missense,translatable,6
c.4124A>C,,,missense,translatable,6
c.4129G>C,p.(Asp1377His),hypomorphic,missense,translatable,6
c.416A>G,p.(His139Arg),null,missense,translatable,2
c.4241T>C,p.(Leu1414Ser),hypomorphic,missense,translatable,7
c.4364C>G,p.(Ser1455*),hypomorphic,,,
c.4382delA,p.(Lys1461Serfs*7),hypomorphic,,,
c.444_445insCTA,p.(Ile148_Gly149insLeu),null,missense,translatable,2
c.449T>A,p.(Met150Lys),,missense,translatable,2
c.44T>C,p.(Leu15Pro),null,missense,translatable,1
c.455T>G,p.(Met152Arg),null,missense,translatable,2
c.476T>C,p.(Leu159Ser),null,missense,translatable,2
c.482A>G,p.(Tyr161Cys),null,missense,translatable,2
c.496A>G,p.(Lys166Glu),null,missense,translatable,2
c.509G>A,,,missense,translatable,2
c.532G>A,p.(Gly178Arg),null,missense,translatable,2
c.54_164del,p.(Ser18_Glu54del),null,,translatable,1
c.54_869del,p.(Ser18_Gln290delinsArg),null,,translatable,1
c.563T>C,p.(Leu188Pro),hypomorphic,missense,translatable,2
c.574G>A,p.(Asp192Asn),hypomorphic,missense,translatable,2
c.575A>G,p.(Asp192Gly),null,missense,translatable,2
c.577G>A,p.(Glu193Lys),hypomorphic,missense,translatable,2
c.580G>A,p.(Gly194Arg),,missense,translatable,2
c.595C>T,p.(His199Tyr),null,missense,translatable,2
c.596A>G,p.(His199Arg),,missense,translatable,2
c.613C>T,p.(Pro205Ser),hypomorphic,missense,translatable,2
c.617T>G,p.(Leu206Trp),hypomorphic,missense,translatable,2
c.638G>A,p.(Gly213Glu),null,missense,translatable,
c.695T>A,p.(Val232Asp),null,missense,translatable,2
c.709C>G,p.(Gln237Glu),hypomorphic,missense,translatable,2
c.713C>T,p.(Ala238Val),hypomorphic,missense,translatable,2
c.794T>G,p.(Met265Arg),hypomorphic,missense,translatable,2
c.80G>A,p.(Gly27Glu),hypomorphic,missense,translatable,1
c.931T>C,p.(Phe311Leu),,missense,translatable,2
c.935_937delTCT,p.(Phe312del),,missense,translatable,2
c.2918T>C,L973F,,missense,translatable,5
c.254G>T,G85E,,missense,translatable,2
c.772A>G,R258G,,missense,translatable,2
c.1054C>T,R352W,,missense,translatable,2
c.1066_1071del,W356_A357del,,missense,translatable,2
c.1072G>A,V358I,,missense,translatable,2
c.1081T>A,W361R,,missense,translatable,2
c.1119T>G,D373E,,missense,translatable,2
c.1580A>G,E527G,null,missense,translatable,3
c.1826A>T,H609L,,missense,translatable,4
c.1837G>A,A613T,,missense,translatable,4
c.3083T>G,M1028R,null,missense,translatable,5
c.3209G>A,R1070Q,,missense,translatable,5
c.3297C>A,F1099L,,missense,translatable,5
c.3808G>A,D1270N,,missense,translatable,6
c.473G>A,S158N,,missense,translatable,2
c.4141T>C,Y1381H,,missense,translatable,2
c.2249C>T,p.P750L,,missense,translatable,4
c.4333G>A,D1445N,,missense,translatable,7
c.650A>G,E217G,,missense,translatable,2
c.1_273dup,p.?,null,,nontranslatable,
c.1_4443del,p.?,null,,nontranslatable,
c.1021_1022dupTC,p.(Phe342Hisfs*28),null,truncating,nontranslatable,
c.1116+1G>A,,null,truncating,nontranslatable,
c.1130dupA,p.(Gln378Alafs*4),null,truncating,nontranslatable,
c.1135G>T,p.(Glu379*),null,truncating,nontranslatable,
c.1155_1156dupTA,p.(Asn386Ilefs*3),null,truncating,nontranslatable,
c.115C>T,p.(Gln39*),null,truncating,nontranslatable,
c.11C>A,p.(Ser4*),null,truncating,nontranslatable,
c.1324A>T,p.(Lys442*),null,truncating,nontranslatable,
c.1365_1366delGG,p.(Val456Cysfs*25),null,truncating,nontranslatable,
c.1393_3367del,p.(Thr465Glufs*11),null,truncating,nontranslatable,
c.1397C>G,p.(Ser466*),null,truncating,nontranslatable,
c.1409_1418del10,p.(Val470Glufs*54),null,truncating,nontranslatable,
c.1435G>T,p.(Glu479*),null,truncating,nontranslatable,
c.1456G>T,p.(Gly486*),null,truncating,nontranslatable,
c.1466C>A,p.(Ser489*),null,truncating,nontranslatable,
c.1477_1478delCA,p.(Gln493Valfs*10),null,truncating,nontranslatable,
c.1477C>T,p.(Gln493*),null,truncating,nontranslatable,
c.1509_1510delAGinsT,p.(Lys503Asnfs*24),null,truncating,nontranslatable,
c.1545_1546delTA,p.(Tyr515*),null,truncating,nontranslatable,
c.1573C>T,p.(Gln525*),null,truncating,nontranslatable,
c.1582G>T,p.(Glu528*),null,truncating,nontranslatable,
c.1585-1G>A,,null,truncating,nontranslatable,
c.1585-2A>G,,null,truncating,nontranslatable,
c.1624G>T,p.(Gly542*),null,truncating,nontranslatable,
c.165-1G>A,,null,truncating,nontranslatable,
c.1654C>T,p.(Gln552*),null,truncating,nontranslatable,
c.1657C>T,p.(Arg553*),null,truncating,nontranslatable,
c.1660_1661insA,p.(Ala554Aspfs*14),null,truncating,nontranslatable,
c.1682dupC,p.(Val562Serfs*6),null,truncating,nontranslatable,
c.1703T>A,p.(Leu568*),null,truncating,nontranslatable,
c.170G>A,p.(Trp57*),null,truncating,nontranslatable,
c.1753G>T,p.(Glu585*),null,truncating,nontranslatable,
c.178G>T,p.(Glu60*),null,truncating,nontranslatable,
c.182delT,p.(Leu61Argfs*30),null,truncating,nontranslatable,
c.1923_1931delCTCAAAACTinsA,p.(Ser641Argfs*5),null,truncating,nontranslatable,
c.1973_1985del13insAGAAA,p.(Arg658Lysfs*4),null,truncating,nontranslatable,
c.19G>T,p.(Glu7*),null,truncating,nontranslatable,
c.2012delT,p.(Leu671*),null,truncating,nontranslatable,
c.2017G>T,p.(Gly673*),null,truncating,nontranslatable,
c.2051_2052delAAinsG,p.(Lys684Serfs*38),null,truncating,nontranslatable,
c.2052delA,p.(Lys684Asnfs*38),null,truncating,nontranslatable,
c.2052dupA,p.(Gln685Thrfs*4),null,truncating,nontranslatable,
c.2053C>T,p.(Gln685*),null,truncating,nontranslatable,
c.2083dupG,p.(Glu695Glyfs*35),null,truncating,nontranslatable,
c.2089dupA,p.(Arg697Lysfs*33),null,truncating,nontranslatable,
c.2125C>T,p.(Arg709*),null,truncating,nontranslatable,
c.2128A>T,p.(Lys710*),null,truncating,nontranslatable,
c.2157_2166del10insGTAAG,p.(Gln720*),null,truncating,nontranslatable,
c.2175dupA,p.(Glu726Argfs*4),null,truncating,nontranslatable,
c.217delC,p.(Leu73Phefs*18),null,truncating,nontranslatable,
c.2188G>T,p.(Glu730*),null,truncating,nontranslatable,
c.2195T>G,p.(Leu732*),null,truncating,nontranslatable,
c.2215delG,p.(Val739Tyrfs*16),null,truncating,nontranslatable,
c.223C>T,p.(Arg75*),null,truncating,nontranslatable,
c.2241_2248delGATACTGC,p.(Ile748Serfs*28),null,truncating,nontranslatable,
c.2290C>T,p.(Arg764*),null,truncating,nontranslatable,
c.2335C>T,p.(Gln779*),null,truncating,nontranslatable,
c.2353C>T,p.(Arg785*),null,truncating,nontranslatable,
c.2446delA,p.(Thr816Leufs*5),null,truncating,,
c.2491G>T,p.(Glu831*),null,truncating,,
c.2537G>A,p.(Trp846*),null,truncating,nontranslatable,
c.2547C>A,p.(Tyr849*),null,truncating,nontranslatable,
c.2551C>T,p.(Arg851*),null,truncating,nontranslatable,
c.2554dupT,p.(Tyr852Leufs*44),null,truncating,nontranslatable,
c.2583delT,p.(Phe861Leufs*3),null,truncating,nontranslatable,
c.2601dupA,p.(Val868Serfs*28),null,truncating,nontranslatable,
c.2619+1355_2908+243del7613,,null,,nontranslatable,
c.262_263delTT,p.(Leu88Ilefs*22),null,truncating,nontranslatable,
c.263T>A,p.(Leu88*),null,truncating,nontranslatable,
c.2658-2A>G,,null,truncating,nontranslatable,
c.2668C>T,p.(Gln890*),null,truncating,nontranslatable,
c.273+1G>A,,null,truncating,nontranslatable,
c.2737_2738insG,p.(Tyr913*),null,truncating,nontranslatable,
c.2776_2777delTT,p.(Leu926Alafs*48),null,truncating,nontranslatable,
c.2819_2823delCTCTA,p.(Thr940Asnfs*33),null,truncating,nontranslatable,
c.292C>T,p.(Gln98*),null,truncating,nontranslatable,
c.2988+1173_3468+2111del,,null,,nontranslatable,
c.2988+1G>A,,null,truncating,nontranslatable,
c.2989_3367del,p.(Leu997Glufs*11),null,truncating,nontranslatable,
c.2989+1G>A,,null,truncating,nontranslatable,
c.2989-1G>A,,null,truncating,nontranslatable,
c.3039delC,p.(Tyr1014Thrfs*9),null,truncating,nontranslatable,
c.3124C>T,p.(Gln1042*),null,truncating,,
c.325_327delTATinsG,p.(Tyr109Glyfs*4),null,truncating,nontranslatable,
c.3266G>A,p.(Trp1089*),null,truncating,nontranslatable,
c.3276C>A,p.(Tyr1092*),null,truncating,nontranslatable,
c.3368-2A>G,,null,truncating,nontranslatable,
c.3472C>T,p.(Arg1158*),null,truncating,nontranslatable,
c.3484C>T,p.(Arg1162*),null,truncating,nontranslatable,
c.3486_3487delAG,p.(Val1163Leufs*2),null,truncating,nontranslatable,
c.3546C>G,p.(Tyr1182*),null,truncating,nontranslatable,
c.3659delC,p.(Thr1220Lysfs*8),null,truncating,,
c.3773dupT,p.(Leu1258Phefs*7),null,truncating,nontranslatable,
c.3841C>T,p.(Gln1281*),null,truncating,,
c.3846G>A,p.(Trp1282*),null,truncating,,
c.3883_3884insG,p.(Ile1295Serfs*7),null,truncating,nontranslatable,
c.3883_3886delATTT,p.(Ile1295Phefs*32),null,truncating,nontranslatable,
c.3889dupT,p.(Ser1297Phefs*5),null,truncating,nontranslatable,
c.3908delA,p.(Asn1303Thrfs*25),null,truncating,nontranslatable,
c.3937C>T,p.(Gln1313*),hypomorphic,truncating,translatable,
c.3940delG,p.(Glu1314Lysfs*14),null,truncating,nontranslatable,
c.4025_4028dupGGGG,p.(Cys1344Glyfs*16),null,truncating,nontranslatable,
c.4036_4042del,p.(Leu1346Metfs*6),null,truncating,nontranslatable,
c.424delA,p.(Ile142Phefs*11),null,truncating,nontranslatable,
c.42delA,p.(Lys14Asnfs*11),null,truncating,nontranslatable,
c.442delA,p.(Ile148Leufs*5),null,truncating,nontranslatable,
c.451_458del8,,null,truncating,nontranslatable,
c.4C>T,p.(Gln2*),null,truncating,nontranslatable,
c.53+2909_870-1620del55429insGTACTCAACAGCTCTAG,,null,,nontranslatable,
c.531delT,p.(Ile177Metfs*12),null,truncating,nontranslatable,
c.54_273del,p.(Ser18Argfs*16),null,truncating,nontranslatable,
c.54-1161_164+1603del2875,,null,,nontranslatable,
c.54-5490_273+10250del,,null,,nontranslatable,
c.56G>A,p.(Trp19*),null,truncating,nontranslatable,
c.579-1G>T,,null,truncating,nontranslatable,
c.580_869del3273,,null,,nontranslatable,
c.647G>A,p.(Trp216*),null,truncating,nontranslatable,
c.658C>T,p.(Gln220*),null,truncating,nontranslatable,
c.720_741del22,p.(Gly241Glufs*13),null,truncating,nontranslatable,
c.743+1G>A,,null,truncating,nontranslatable,
c.769G>T,p.(Glu257*),null,truncating,nontranslatable,
c.803delA,p.(Asn268Ilefs*17),null,truncating,nontranslatable,
c.825C>G,p.(Tyr275*),null,truncating,nontranslatable,
c.828C>A,p.(Cys276*),null,truncating,nontranslatable,
c.860dupA,p.(Asn287Lysfs*21),null,truncating,nontranslatable,
c.861_865delCTTAA,p.(Asn287Lysfs*19),null,truncating,nontranslatable,
c.870-2A>G,,null,truncating,nontranslatable,
c.948delT,p.(Phe316Leufs*12),null,truncating,nontranslatable,
c.2739T>A,Y913*,null,truncating,nontranslatable,
c.1611_1612delCA,p.(Asp537Glufs*30),null,truncating,nontranslatable,
c.1209+1G>A,,hypomorphic,truncating,,
c.1210-14T>G,,hypomorphic,,,
c.1393-1G>A,,null,truncating,,
c.1680-1G>A,,,truncating,,
c.1680-886A>G,,null,,,
c.1766+1G>T,,null,truncating,,
c.1766+3A>C,,null,,,
c.1766+5G>T,,null,,,
c.2620-1_2624delGGTGGCinsTTG,,null,,,
c.2657+2_2657+3insA,,,,,
c.2657+5G>A,,hypomorphic,,,
c.274-1G>A,,null,truncating,,
c.3140-26A>G,,null,,,
c.3717+12191C>T,,hypomorphic,,,
c.3873+1G>A,,null,truncating,,
c.4417G>T,p.(Glu1473*),,,,
c.4426C>T,p.(Gln1476*),hypomorphic,,,
c.489+1G>T,,null,truncating,,
c.489+3A>G,,,,,
c.579+1G>T,,null,truncating,,
c.579+3A>G,,hypomorphic,,,
c.579+3A>T,,,,,
c.579+5G>A,,null,,,
c.580-1G>T,,null,truncating,,
c.712-1G>T,,null,truncating,,
c.165-3C>T,,,,,
c.1585-8G>A,,,,,
c.1679+1634A>G,,,,,
c.2619+3A>G,,,,,
c.3873+5727A>G,,,,,
c.4006-46del5,,,,,
c.1393-18G>A,,null,,,
c.489+25A>G,,,,,
c.958T>G,,,,,
c.3368-19C>T,,,,,
,,,,,
c.274G>T,p.Glu92Ter,,truncating,,
c.302T>G,p.Leu101Ter,,truncating,,
c.580-2A>G,,,truncating,,
c.885_886insTTCT,p.Thr296PhefsTer13,,truncating,,
c.887delC,p.Thr296IlefsTer7,,truncating,,
c.1006_1007insG,p.Ile336SerfsTer28,,truncating,,
c.1203G>A,p.Trp401Ter,,truncating,,
c.1209+3_1209+52delCAGAATTTTTAAAAAATTGTTTGCTCTAAACACCTAACTGTTTTCTTCTT,,,,,
c.1327_1330dupGATA,p.Ile444ArgfsTer3,,truncating,,
c.1340delA,p.Lys447ArgfsTer2,,truncating,,
c.1393-2A>G,,,truncating,,
c.1572C>A,p.Cys524Ter,,truncating,,
c.1766+1G>A,,,truncating,,
c.1766+1G>C,,,truncating,,
c.1904delA,p.Asn635IlefsTer28,,truncating,,
c.2275_2290delCCCACGCTTCAGGCAC,,,truncating,,
c.2464G>T,p.Glu822Ter,,truncating,,
c.2490+4_2490+7delGGTA,,,truncating,,
c.2490+1G>A,,,truncating,,
c.2502dupT,p.Asp835Ter,,truncating,,
c.2538G>A,p.Trp846Ter,,truncating,,
c.2763_2764dupAG,p.Val922GlufsTer2,,truncating,,
c.2859_2890delACATTCTGTTCTTCAAGCACCTATGTCAACCC,p.Leu953PhefsTer11,,truncating,,
c.2875delG,p.Ala959HisfsTer9,,truncating,,
c.2909-1G>C,,,truncating,,
c.3103C>T,p.Gln1035Ter,,truncating,,
c.3139+1G>A,,,truncating,,
c.3217dupT,p.Tyr1073LeufsTer3,,truncating,,
c.3368_3370delGAG,,,truncating,,
c.3380_3383delGAAG,p.Gly1127GlufsTer6,,truncating,,
c.3434G>A,p.Trp1145Ter,,truncating,,
c.3528delC,p.Lys1177Ser,,truncating,,
c.3587C>G,p.Ser1196Ter,,truncating,,
c.3612G>A,p.Trp1204Ter,,truncating,,
c.3835_3836delTT,p.Leu1279AlafsTer22,,truncating,,
c.3873+2T>C,,,truncating,,
c.4111G>T,.Glu1371Ter,,truncating,,
c.4242+1G>T,,,truncating,,
c.4300_4301dupAG,p.Ser1435GlyfsTer14,,truncating,,
,,,,,
c.652G>A,p.(Glu218Lys),,missense,,
c.2812_2813del,p.(Tyr938Leufs*3),,truncating,,
c.4330C>T,p.(Gln1444*),,truncating,,
c.5381-2A>C,,,truncating,,
c.5410C>T,p.(Arg1804Cys),,missense,,
c.5768A>T,p.(Gln1923Leu),,missense,,
c.8521A>G,p.(Met2841Val),,missense,,
,,,,,
c.220C>T,p.(Arg74Trp),,missense,,
c.2421A>G,p.(Ile807Met),,missense,,
c.2557A>T,p.(Ile853Phe),,missense,,
c.2563G>A,p.(Val855Ile),,missense,,
c.3205G>A,p.(Gly1069Arg),,missense,,
c.3718-24G>A,,,,,
