Input	Errors and warnings	AccNo	Genesymbol	Variant	Reference Sequence Start Descr.	Coding DNA Descr.	Protein Descr.	GeneSymbol Coding DNA Descr.	GeneSymbol Protein Descr.	Genomic Reference	Coding Reference	Protein Reference	Affected Transcripts	Affected Proteins	Restriction Sites Created	Restriction Sites Deleted
NM_000492.3:c.1A>G	(GenRecord): Mutation in start codon of gene CFTR transcript 001.	NM_000492.3	CFTR_v001	c.1A>G	n.133A>G	c.1A>G	p.?	CFTR_v001:c.1A>G	CFTR_v001:p.?		NM_000492.3	NP_000483.3	NM_000492.3(CFTR_v001):c.1A>G	NM_000492.3(CFTR_i001):p.?	BsgI,HpyCH4III	CviAII,FatI,NlaIII	
NM_000492.3:c.1_273dup	(variantchecker): Variant hits one or more splice sites in selected transcript.|(GenRecord): Mutation in start codon of gene CFTR transcript 001.	NM_000492.3	CFTR_v001	c.1_273dup	n.133_405dup	c.1_273dup	p.?	CFTR_v001:c.1_273dup	CFTR_v001:p.?		NM_000492.3	NP_000483.3	NM_000492.3(CFTR_v001):c.1_273dup	NM_000492.3(CFTR_i001):p.?	AluI (2),AlwNI,AseI,AvaII,BciVI,BcoDI,BpmI,BsmAI,BstNI,BtgZI,BtsCI,Cac8I (2),FokI,HaeII,HaeIII,HhaI,HinP1I,Hpy188I (2),Hpy188III (2),HpyAV (2),HpyCH4V,LpnPI (7),MluCI (3),MnlI (3),MseI,MspA1I,MwoI,PspGI,PvuII,Sau96I,ScrFI,SfaNI,StyD4I		
NM_000492.3:c.1_4443del	(variantchecker): Variant hits one or more splice sites in selected transcript.|(variantchecker): Sequence "ATGCAG [4431bp] CTTTAG" at position 133_4575 was given, however, the HGVS notation prescribes that on the forward strand it should be "TGCAGA [4431bp] TTTAGA" at position 134_4576.|(GenRecord): Mutation in start codon of gene CFTR transcript 001.	NM_000492.3	CFTR_v001	c.1_4443del	n.134_4576del	c.2_*1del	p.?	CFTR_v001:c.2_*1del	CFTR_v001:p.?		NM_000492.3	NP_000483.3	NM_000492.3(CFTR_v001):c.2_*1del	NM_000492.3(CFTR_i001):p.?		AccI (2),AciI (3),AcuI (6),AflII,AflIII (2),AluI (20),AlwI (5),AlwNI (3),ApoI (9),AseI (4),BaeI (2),BamHI (3),BanI,BanII,BbsI (2),BccI (7),BceAI (2),BcgI (2),BciVI (2),BclI (2),BfaI (7),BfuAI,BfuCI (15),BglI,BglII (4),BlpI,BmrI (2),BpmI (5),Bpu10I,BpuEI (2),BsaAI (2),BsaHI,BsaJI (5),BsaWI (2),BseRI (5),BsgI,BsiHKAI,BslI (8),BsmI (2),Bsp1286I (2),BspCNI (12),BspDI,BspEI,BspHI,BspMI,BsrDI (4),BsrGI,BsrI (17),BstNI (7),BstUI,BstXI,BstYI (7),BstZ17I,Bsu36I (2),BtgI,BtgZI,BtsCI (7),BtsI (5),BtsIMutI (19),Cac8I (6),ClaI,CviKI_1 (67),CviQI (10),DdeI (16),DpnI (15),DpnII (15),DraI (3),DraIII (2),EaeI (3),EarI (9),EcoNI (2),EcoRI (2),FokI (7),FspI,HaeIII (10),HgaI (2),HindIII (2),HinfI (20),HpaI,HpaII (4),HphI (7),Hpy188I (17),Hpy188III (19),HpyAV (27),HpyCH4III (11),HpyCH4IV (3),HpyCH4V (19),MboI (15),MboII (26),MluCI (29),MlyI (6),MmeI (2),MnlI (37),MscI (3),MseI (21),MslI (6),MspA1I,MspI (4),MwoI (5),NciI,NcoI,NmeAIII (2),NruI,NspI (2),PflFI,PflMI,PleI (6),PmlI,PsiI,PspGI (7),PvuII,RsaI (10),Sau3AI (15),ScaI (2),ScrFI (8),SfaNI (6),SfcI (3),SmlI (3),SphI,SspI (3),StyD4I (8),StyI (3),TaqI (6),TfiI (14),Tsp45I (5),TspRI (19),Tth111I,XbaI,XcmI (2),XmnI (6)	
NM_000492.3:c.4C>T		NM_000492.3	CFTR_v001	c.4C>T	n.136C>T	c.4C>T	p.(Gln2*)	CFTR_v001:c.4C>T	CFTR_v001:p.(Gln2*)		NM_000492.3	NP_000483.3	NM_000492.3(CFTR_v001):c.4C>T	NM_000492.3(CFTR_i001):p.(Gln2*)		HpyCH4V,MwoI	
NM_000492.3:c.11C>A		NM_000492.3	CFTR_v001	c.11C>A	n.143C>A	c.11C>A	p.(Ser4*)	CFTR_v001:c.11C>A	CFTR_v001:p.(Ser4*)		NM_000492.3	NP_000483.3	NM_000492.3(CFTR_v001):c.11C>A	NM_000492.3(CFTR_i001):p.(Ser4*)			
NM_000492.3:c.14C>T		NM_000492.3	CFTR_v001	c.14C>T	n.146C>T	c.14C>T	p.(Pro5Leu)	CFTR_v001:c.14C>T	CFTR_v001:p.(Pro5Leu)		NM_000492.3	NP_000483.3	NM_000492.3(CFTR_v001):c.14C>T	NM_000492.3(CFTR_i001):p.(Pro5Leu)			
NM_000492.3:c.19G>T		NM_000492.3	CFTR_v001	c.19G>T	n.151G>T	c.19G>T	p.(Glu7*)	CFTR_v001:c.19G>T	CFTR_v001:p.(Glu7*)		NM_000492.3	NP_000483.3	NM_000492.3(CFTR_v001):c.19G>T	NM_000492.3(CFTR_i001):p.(Glu7*)		Hpy188III	
NM_000492.3:c.42delA		NM_000492.3	CFTR_v001	c.42delA	n.174del	c.42del	p.(Lys14Asnfs*11)	CFTR_v001:c.42del	CFTR_v001:p.(Lys14Asnfs*11)		NM_000492.3	NP_000483.3	NM_000492.3(CFTR_v001):c.42del	NM_000492.3(CFTR_i001):p.(Lys14Asnfs*11)	MmeI		
NM_000492.3:c.44T>C		NM_000492.3	CFTR_v001	c.44T>C	n.176T>C	c.44T>C	p.(Leu15Pro)	CFTR_v001:c.44T>C	CFTR_v001:p.(Leu15Pro)		NM_000492.3	NP_000483.3	NM_000492.3(CFTR_v001):c.44T>C	NM_000492.3(CFTR_i001):p.(Leu15Pro)			
NM_000492.3:c.53+2909_870-1620del55429insGTACTCAACAGCTCTAG	(variantchecker): Intronic position given for a non-genomic reference sequence.	
NM_000492.3:c.54-5490_273+10250del	(variantchecker): Intronic position given for a non-genomic reference sequence.	
NM_000492.3:c.54_164del		NM_000492.3	CFTR_v001	c.54_164del	n.186_296del	c.54_164del	p.(Ser18_Glu54del)	CFTR_v001:c.54_164del	CFTR_v001:p.(Ser18_Glu54del)		NM_000492.3	NP_000483.3	NM_000492.3(CFTR_v001):c.54_164del	NM_000492.3(CFTR_i001):p.(Ser18_Glu54del)		AlwNI,AvaII,BciVI,BstNI,HaeII,HhaI,HinP1I,HinfI,HpyAV,MluCI (3),MnlI,MspA1I,PspGI,PvuII,Sau96I,ScrFI,StyD4I,TfiI	
NM_000492.3:c.54_273del	(variantchecker): Variant hits one or more splice sites in selected transcript.	NM_000492.3	CFTR_v001	c.54_273del	n.186_405del	c.54_273del	p.(Ser18Argfs*16)	CFTR_v001:c.54_273del	CFTR_v001:p.(Ser18Argfs*16)		NM_000492.3	NP_000483.3	NM_000492.3(CFTR_v001):c.54_273del	NM_000492.3(CFTR_i001):p.(Ser18Argfs*16)		AluI (2),AlwNI,AseI,AvaII,BciVI,BpmI,BstNI,BtgZI,Cac8I,HaeII,HhaI,HinP1I,HinfI (2),Hpy188I (2),HpyAV (2),MluCI (3),MnlI,MseI,MspA1I,PspGI,PvuII,Sau96I,ScrFI,StyD4I,TfiI (2)	
NM_000492.3:c.54-1161_164+1603del2875	(variantchecker): Intronic position given for a non-genomic reference sequence.	
NM_000492.3:c.54_869del	(variantchecker): Variant hits one or more splice sites in selected transcript.	NM_000492.3	CFTR_v001	c.54_869del	n.186_1001del	c.54_869del	p.(Ser18_Gln290delinsArg)	CFTR_v001:c.54_869del	CFTR_v001:p.(Ser18_Gln290delinsArg)		NM_000492.3	NP_000483.3	NM_000492.3(CFTR_v001):c.54_869del	NM_000492.3(CFTR_i001):p.(Ser18_Gln290delinsArg)		AflII,AluI (6),AlwI,AlwNI,ApoI,AseI,AvaII,BbsI,BceAI,BciVI,BfaI (3),BfuCI (3),BmrI,BpmI,BsaHI,BseRI,BseYI (4),BslI,BsmI,BspCNI,BsrDI,BsrI,BstNI,BstUI,BtgZI,BtsI,BtsIMutI (2),Cac8I,CviAII,CviKI_1 (15),CviQI (2),DdeI,DpnI (3),DpnII (3),DraI,EcoNI,FatI,HaeII,HaeIII,HgaI,HhaI,HinP1I,HpaII,HphI,Hpy166II,Hpy188III (4),HpyAV (6),HpyCH4V (3),LpnPI (16),MboI (3),MboII (4),MluCI (4),MmeI,MnlI (6),MseI (4),MslI,MspA1I,MspI,NciI,NlaIII,NruI,PsiI,PspGI,PvuII,RsaI (2),Sau3AI (3),Sau96I,ScrFI (2),SmlI,StyD4I (2),TfiI (3),Tsp45I,TspRI (2),XbaI	
NM_000492.3:c.56G>A		NM_000492.3	CFTR_v001	c.56G>A	n.188G>A	c.56G>A	p.(Trp19*)	CFTR_v001:c.56G>A	CFTR_v001:p.(Trp19*)		NM_000492.3	NP_000483.3	NM_000492.3(CFTR_v001):c.56G>A	NM_000492.3(CFTR_i001):p.(Trp19*)	BfaI	AvaII,MspA1I,PvuII,Sau96I	
NM_000492.3:c.80G>A		NM_000492.3	CFTR_v001	c.80G>A	n.212G>A	c.80G>A	p.(Gly27Glu)	CFTR_v001:c.80G>A	CFTR_v001:p.(Gly27Glu)		NM_000492.3	NP_000483.3	NM_000492.3(CFTR_v001):c.80G>A	NM_000492.3(CFTR_i001):p.(Gly27Glu)		BciVI	
NM_000492.3:c.91C>T		NM_000492.3	CFTR_v001	c.91C>T	n.223C>T	c.91C>T	p.(Arg31Cys)	CFTR_v001:c.91C>T	CFTR_v001:p.(Arg31Cys)		NM_000492.3	NP_000483.3	NM_000492.3(CFTR_v001):c.91C>T	NM_000492.3(CFTR_i001):p.(Arg31Cys)	BtsIMutI,HpyCH4III,TspRI	HaeII,HhaI,HinP1I	
NM_000492.3:c.106G>A		NM_000492.3	CFTR_v001	c.106G>A	n.238G>A	c.106G>A	p.(Asp36Asn)	CFTR_v001:c.106G>A	CFTR_v001:p.(Asp36Asn)		NM_000492.3	NP_000483.3	NM_000492.3(CFTR_v001):c.106G>A	NM_000492.3(CFTR_i001):p.(Asp36Asn)		Hpy188I	
NM_000492.3:c.115C>T		NM_000492.3	CFTR_v001	c.115C>T	n.247C>T	c.115C>T	p.(Gln39*)	CFTR_v001:c.115C>T	CFTR_v001:p.(Gln39*)		NM_000492.3	NP_000483.3	NM_000492.3(CFTR_v001):c.115C>T	NM_000492.3(CFTR_i001):p.(Gln39*)			
NM_000492.3:c.125C>T		NM_000492.3	CFTR_v001	c.125C>T	n.257C>T	c.125C>T	p.(Ser42Phe)	CFTR_v001:c.125C>T	CFTR_v001:p.(Ser42Phe)		NM_000492.3	NP_000483.3	NM_000492.3(CFTR_v001):c.125C>T	NM_000492.3(CFTR_i001):p.(Ser42Phe)		HpyAV	
NM_000492.3:c.164+12T>C	(variantchecker): Intronic position given for a non-genomic reference sequence.	
NM_000492.3:c.165-1G>A	(variantchecker): Intronic position given for a non-genomic reference sequence.	
NM_000492.3:c.165-3C>T	(variantchecker): Intronic position given for a non-genomic reference sequence.	
NM_000492.3:c.166G>A		NM_000492.3	CFTR_v001	c.166G>A	n.298G>A	c.166G>A	p.(Glu56Lys)	CFTR_v001:c.166G>A	CFTR_v001:p.(Glu56Lys)		NM_000492.3	NP_000483.3	NM_000492.3(CFTR_v001):c.166G>A	NM_000492.3(CFTR_i001):p.(Glu56Lys)			
NM_000492.3:c.167A>G		NM_000492.3	CFTR_v001	c.167A>G	n.299A>G	c.167A>G	p.(Glu56Gly)	CFTR_v001:c.167A>G	CFTR_v001:p.(Glu56Gly)		NM_000492.3	NP_000483.3	NM_000492.3(CFTR_v001):c.167A>G	NM_000492.3(CFTR_i001):p.(Glu56Gly)	BccI,BtsCI,FokI,MnlI		
NM_000492.3:c.169T>G		NM_000492.3	CFTR_v001	c.169T>G	n.301T>G	c.169T>G	p.(Trp57Gly)	CFTR_v001:c.169T>G	CFTR_v001:p.(Trp57Gly)		NM_000492.3	NP_000483.3	NM_000492.3(CFTR_v001):c.169T>G	NM_000492.3(CFTR_i001):p.(Trp57Gly)	HpyAV		
NM_000492.3:c.170G>A		NM_000492.3	CFTR_v001	c.170G>A	n.302G>A	c.170G>A	p.(Trp57*)	CFTR_v001:c.170G>A	CFTR_v001:p.(Trp57*)		NM_000492.3	NP_000483.3	NM_000492.3(CFTR_v001):c.170G>A	NM_000492.3(CFTR_i001):p.(Trp57*)			
NM_000492.3:c.178G>A		NM_000492.3	CFTR_v001	c.178G>A	n.310G>A	c.178G>A	p.(Glu60Lys)	CFTR_v001:c.178G>A	CFTR_v001:p.(Glu60Lys)		NM_000492.3	NP_000483.3	NM_000492.3(CFTR_v001):c.178G>A	NM_000492.3(CFTR_i001):p.(Glu60Lys)			
NM_000492.3:c.178G>T		NM_000492.3	CFTR_v001	c.178G>T	n.310G>T	c.178G>T	p.(Glu60*)	CFTR_v001:c.178G>T	CFTR_v001:p.(Glu60*)		NM_000492.3	NP_000483.3	NM_000492.3(CFTR_v001):c.178G>T	NM_000492.3(CFTR_i001):p.(Glu60*)			
NM_000492.3:c.182delT		NM_000492.3	CFTR_v001	c.182delT	n.314del	c.182del	p.(Leu61Argfs*30)	CFTR_v001:c.182del	CFTR_v001:p.(Leu61Argfs*30)		NM_000492.3	NP_000483.3	NM_000492.3(CFTR_v001):c.182del	NM_000492.3(CFTR_i001):p.(Leu61Argfs*30)	AciI,BsrBI,Fnu4HI	AluI,Cac8I,LpnPI	
NM_000492.3:c.200C>T		NM_000492.3	CFTR_v001	c.200C>T	n.332C>T	c.200C>T	p.(Pro67Leu)	CFTR_v001:c.200C>T	CFTR_v001:p.(Pro67Leu)		NM_000492.3	NP_000483.3	NM_000492.3(CFTR_v001):c.200C>T	NM_000492.3(CFTR_i001):p.(Pro67Leu)			
NM_000492.3:c.217delC		NM_000492.3	CFTR_v001	c.217delC	n.349del	c.217del	p.(Leu73Phefs*18)	CFTR_v001:c.217del	CFTR_v001:p.(Leu73Phefs*18)		NM_000492.3	NP_000483.3	NM_000492.3(CFTR_v001):c.217del	NM_000492.3(CFTR_i001):p.(Leu73Phefs*18)			
NM_000492.3:c.220C>T		NM_000492.3	CFTR_v001	c.220C>T	n.352C>T	c.220C>T	p.(Arg74Trp)	CFTR_v001:c.220C>T	CFTR_v001:p.(Arg74Trp)		NM_000492.3	NP_000483.3	NM_000492.3(CFTR_v001):c.220C>T	NM_000492.3(CFTR_i001):p.(Arg74Trp)		HpyAV	
NM_000492.3:c.223C>T		NM_000492.3	CFTR_v001	c.223C>T	n.355C>T	c.223C>T	p.(Arg75*)	CFTR_v001:c.223C>T	CFTR_v001:p.(Arg75*)		NM_000492.3	NP_000483.3	NM_000492.3(CFTR_v001):c.223C>T	NM_000492.3(CFTR_i001):p.(Arg75*)	HphI	BtgZI	
NM_000492.3:c.224G>A		NM_000492.3	CFTR_v001	c.224G>A	n.356G>A	c.224G>A	p.(Arg75Gln)	CFTR_v001:c.224G>A	CFTR_v001:p.(Arg75Gln)		NM_000492.3	NP_000483.3	NM_000492.3(CFTR_v001):c.224G>A	NM_000492.3(CFTR_i001):p.(Arg75Gln)	BsrDI	BtgZI	
NM_000492.3:c.224G>T		NM_000492.3	CFTR_v001	c.224G>T	n.356G>T	c.224G>T	p.(Arg75Leu)	CFTR_v001:c.224G>T	CFTR_v001:p.(Arg75Leu)		NM_000492.3	NP_000483.3	NM_000492.3(CFTR_v001):c.224G>T	NM_000492.3(CFTR_i001):p.(Arg75Leu)	CviKI_1	BtgZI	
NM_000492.3:c.254G>T		NM_000492.3	CFTR_v001	c.254G>T	n.386G>T	c.254G>T	p.(Gly85Val)	CFTR_v001:c.254G>T	CFTR_v001:p.(Gly85Val)		NM_000492.3	NP_000483.3	NM_000492.3(CFTR_v001):c.254G>T	NM_000492.3(CFTR_i001):p.(Gly85Val)		HinfI,TfiI	
NM_000492.3:c.254G>A		NM_000492.3	CFTR_v001	c.254G>A	n.386G>A	c.254G>A	p.(Gly85Glu)	CFTR_v001:c.254G>A	CFTR_v001:p.(Gly85Glu)		NM_000492.3	NP_000483.3	NM_000492.3(CFTR_v001):c.254G>A	NM_000492.3(CFTR_i001):p.(Gly85Glu)		HinfI,TfiI	
NM_000492.3:c.262_263delTT		NM_000492.3	CFTR_v001	c.262_263delTT	n.394_395del	c.262_263del	p.(Leu88Ilefs*22)	CFTR_v001:c.262_263del	CFTR_v001:p.(Leu88Ilefs*22)		NM_000492.3	NP_000483.3	NM_000492.3(CFTR_v001):c.262_263del	NM_000492.3(CFTR_i001):p.(Leu88Ilefs*22)			
NM_000492.3:c.263T>A		NM_000492.3	CFTR_v001	c.263T>A	n.395T>A	c.263T>A	p.(Leu88*)	CFTR_v001:c.263T>A	CFTR_v001:p.(Leu88*)		NM_000492.3	NP_000483.3	NM_000492.3(CFTR_v001):c.263T>A	NM_000492.3(CFTR_i001):p.(Leu88*)	MseI,SspI		
NM_000492.3:c.273+1G>A	(variantchecker): Intronic position given for a non-genomic reference sequence.	
NM_000492.3:c.274G>A		NM_000492.3	CFTR_v001	c.274G>A	n.406G>A	c.274G>A	p.(Glu92Lys)	CFTR_v001:c.274G>A	CFTR_v001:p.(Glu92Lys)		NM_000492.3	NP_000483.3	NM_000492.3(CFTR_v001):c.274G>A	NM_000492.3(CFTR_i001):p.(Glu92Lys)			
NM_000492.3:c.274-1G>A	(variantchecker): Intronic position given for a non-genomic reference sequence.	
NM_000492.3:c.274_1679del	(variantchecker): Variant hits one or more splice sites in selected transcript.	NM_000492.3	CFTR_v001	c.274_1679del	n.406_1811del	c.274_1679del	p.(Glu92Serfs*7)	CFTR_v001:c.274_1679del	CFTR_v001:p.(Glu92Serfs*7)		NM_000492.3	NP_000483.3	NM_000492.3(CFTR_v001):c.274_1679del	NM_000492.3(CFTR_i001):p.(Glu92Serfs*7)		AciI (2),AcuI (2),AflII,AluI (5),AlwI (2),ApeKI,ApoI (3),AseI,BaeI (2),BamHI,BanI,BbsI,BbvI,BccI (2),BceAI,BcoDI,BfaI (4),BfuCI (4),BlpI,BmrI,BpmI (2),BsaHI,BsaJI,BsaWI,BseRI (2),BseYI (4),BslI (2),BsmAI,BsmI,BspCNI (5),BspEI,BsrDI,BsrGI,BsrI (3),BstNI (3),BstUI,BstYI,BtsCI,BtsI,BtsIMutI (5),Cac8I (2),CviAII (4),CviKI_1 (19),CviQI (4),DdeI (5),DpnI (4),DpnII (4),DraI,DraIII,EarI (2),EcoNI,FatI (4),Fnu4HI,FokI,FspI,HaeIII,HgaI (2),HhaI,HinP1I,HincII,HpaII (2),HphI (4),Hpy188I (4),Hpy188III (6),HpyAV (9),HpyCH4III (2),HpyCH4V (6),LpnPI (24),MboI (4),MboII (8),MluCI (8),MlyI (2),MmeI,MnlI (12),MseI (7),MslI,MspI (2),NciI,NlaIII (4),NlaIV (3),NmeAIII,NruI,NspI,PleI (2),PsiI,PspGI (3),RsaI (4),Sau3AI (4),ScrFI (4),SfcI,SmlI,SphI,SspI,StyD4I (4),TseI,Tsp45I (2),TspRI (5),XbaI,XmnI (3)	
NM_000492.3:c.274-2A>G	(variantchecker): Intronic position given for a non-genomic reference sequence.	
NM_000492.3:c.289_297delGTACAGCCT		NM_000492.3	CFTR_v001	c.289_297delGTACAGCCT	n.421_429del	c.289_297del	p.(Val97_Pro99del)	CFTR_v001:c.289_297del	CFTR_v001:p.(Val97_Pro99del)		NM_000492.3	NP_000483.3	NM_000492.3(CFTR_v001):c.289_297del	NM_000492.3(CFTR_i001):p.(Val97_Pro99del)		CviQI,MnlI,RsaI	
NM_000492.3:c.292C>T		NM_000492.3	CFTR_v001	c.292C>T	n.424C>T	c.292C>T	p.(Gln98*)	CFTR_v001:c.292C>T	CFTR_v001:p.(Gln98*)		NM_000492.3	NP_000483.3	NM_000492.3(CFTR_v001):c.292C>T	NM_000492.3(CFTR_i001):p.(Gln98*)		CviQI,RsaI	
NM_000492.3:c.293A>G		NM_000492.3	CFTR_v001	c.293A>G	n.425A>G	c.293A>G	p.(Gln98Arg)	CFTR_v001:c.293A>G	CFTR_v001:p.(Gln98Arg)		NM_000492.3	NP_000483.3	NM_000492.3(CFTR_v001):c.293A>G	NM_000492.3(CFTR_i001):p.(Gln98Arg)	BceAI,HaeIII		
NM_000492.3:c.325_327delTATinsG		NM_000492.3	CFTR_v001	c.325_327delTATinsG	n.457_459delinsG	c.325_327delinsG	p.(Tyr109Glyfs*4)	CFTR_v001:c.325_327delinsG	CFTR_v001:p.(Tyr109Glyfs*4)		NM_000492.3	NP_000483.3	NM_000492.3(CFTR_v001):c.325_327delinsG	NM_000492.3(CFTR_i001):p.(Tyr109Glyfs*4)	AvaII,BsaWI,BspEI,Hpy188III,NlaIV,Sau96I		
NM_000492.3:c.328G>C		NM_000492.3	CFTR_v001	c.328G>C	n.460G>C	c.328G>C	p.(Asp110His)	CFTR_v001:c.328G>C	CFTR_v001:p.(Asp110His)		NM_000492.3	NP_000483.3	NM_000492.3(CFTR_v001):c.328G>C	NM_000492.3(CFTR_i001):p.(Asp110His)	HphI		
NM_000492.3:c.349C>T		NM_000492.3	CFTR_v001	c.349C>T	n.481C>T	c.349C>T	p.(Arg117Cys)	CFTR_v001:c.349C>T	CFTR_v001:p.(Arg117Cys)		NM_000492.3	NP_000483.3	NM_000492.3(CFTR_v001):c.349C>T	NM_000492.3(CFTR_i001):p.(Arg117Cys)	BsmI		
NM_000492.3:c.350G>A		NM_000492.3	CFTR_v001	c.350G>A	n.482G>A	c.350G>A	p.(Arg117His)	CFTR_v001:c.350G>A	CFTR_v001:p.(Arg117His)		NM_000492.3	NP_000483.3	NM_000492.3(CFTR_v001):c.350G>A	NM_000492.3(CFTR_i001):p.(Arg117His)			
NM_000492.3:c.358G>A		NM_000492.3	CFTR_v001	c.358G>A	n.490G>A	c.358G>A	p.(Ala120Thr)	CFTR_v001:c.358G>A	CFTR_v001:p.(Ala120Thr)		NM_000492.3	NP_000483.3	NM_000492.3(CFTR_v001):c.358G>A	NM_000492.3(CFTR_i001):p.(Ala120Thr)		BstUI,NruI	
NM_000492.3:c.377G>A		NM_000492.3	CFTR_v001	c.377G>A	n.509G>A	c.377G>A	p.(Gly126Asp)	CFTR_v001:c.377G>A	CFTR_v001:p.(Gly126Asp)		NM_000492.3	NP_000483.3	NM_000492.3(CFTR_v001):c.377G>A	NM_000492.3(CFTR_i001):p.(Gly126Asp)		CviKI_1	
NM_000492.3:c.416A>G		NM_000492.3	CFTR_v001	c.416A>G	n.548A>G	c.416A>G	p.(His139Arg)	CFTR_v001:c.416A>G	CFTR_v001:p.(His139Arg)		NM_000492.3	NP_000483.3	NM_000492.3(CFTR_v001):c.416A>G	NM_000492.3(CFTR_i001):p.(His139Arg)			
NM_000492.3:c.424delA		NM_000492.3	CFTR_v001	c.424delA	n.556del	c.424del	p.(Ile142Phefs*11)	CFTR_v001:c.424del	CFTR_v001:p.(Ile142Phefs*11)		NM_000492.3	NP_000483.3	NM_000492.3(CFTR_v001):c.424del	NM_000492.3(CFTR_i001):p.(Ile142Phefs*11)	BglI,MwoI		
NM_000492.3:c.442delA		NM_000492.3	CFTR_v001	c.442delA	n.574del	c.442del	p.(Ile148Leufs*5)	CFTR_v001:c.442del	CFTR_v001:p.(Ile148Leufs*5)		NM_000492.3	NP_000483.3	NM_000492.3(CFTR_v001):c.442del	NM_000492.3(CFTR_i001):p.(Ile148Leufs*5)		MslI	
NM_000492.3:c.443T>C		NM_000492.3	CFTR_v001	c.443T>C	n.575T>C	c.443T>C	p.(Ile148Thr)	CFTR_v001:c.443T>C	CFTR_v001:p.(Ile148Thr)		NM_000492.3	NP_000483.3	NM_000492.3(CFTR_v001):c.443T>C	NM_000492.3(CFTR_i001):p.(Ile148Thr)	BsrI,BtsIMutI,TspRI		
NM_000492.3:c.444_445insCTA		NM_000492.3	CFTR_v001	c.444_445insCTA	n.576_577insCTA	c.444_445insCTA	p.(Ile148_Gly149insLeu)	CFTR_v001:c.444_445insCTA	CFTR_v001:p.(Ile148_Gly149insLeu)		NM_000492.3	NP_000483.3	NM_000492.3(CFTR_v001):c.444_445insCTA	NM_000492.3(CFTR_i001):p.(Ile148_Gly149insLeu)	BfaI	MslI	
NM_000492.3:c.449T>A		NM_000492.3	CFTR_v001	c.449T>A	n.581T>A	c.449T>A	p.(Met150Lys)	CFTR_v001:c.449T>A	CFTR_v001:p.(Met150Lys)		NM_000492.3	NP_000483.3	NM_000492.3(CFTR_v001):c.449T>A	NM_000492.3(CFTR_i001):p.(Met150Lys)		BsmI,HpyCH4V,MslI	
NM_000492.3:c.451_458del8		NM_000492.3	CFTR_v001	c.451_458del8	n.583_590del	c.451_458del	p.(Gln151Asnfs*5)	CFTR_v001:c.451_458del	CFTR_v001:p.(Gln151Asnfs*5)		NM_000492.3	NP_000483.3	NM_000492.3(CFTR_v001):c.451_458del	NM_000492.3(CFTR_i001):p.(Gln151Asnfs*5)		BsmI,HpyCH4V	
NM_000492.3:c.455T>G		NM_000492.3	CFTR_v001	c.455T>G	n.587T>G	c.455T>G	p.(Met152Arg)	CFTR_v001:c.455T>G	CFTR_v001:p.(Met152Arg)		NM_000492.3	NP_000483.3	NM_000492.3(CFTR_v001):c.455T>G	NM_000492.3(CFTR_i001):p.(Met152Arg)	BseRI,MnlI		
NM_000492.3:c.473G>A		NM_000492.3	CFTR_v001	c.473G>A	n.605G>A	c.473G>A	p.(Ser158Asn)	CFTR_v001:c.473G>A	CFTR_v001:p.(Ser158Asn)		NM_000492.3	NP_000483.3	NM_000492.3(CFTR_v001):c.473G>A	NM_000492.3(CFTR_i001):p.(Ser158Asn)	MluCI		
NM_000492.3:c.476T>C		NM_000492.3	CFTR_v001	c.476T>C	n.608T>C	c.476T>C	p.(Leu159Ser)	CFTR_v001:c.476T>C	CFTR_v001:p.(Leu159Ser)		NM_000492.3	NP_000483.3	NM_000492.3(CFTR_v001):c.476T>C	NM_000492.3(CFTR_i001):p.(Leu159Ser)	TaqI		
NM_000492.3:c.482A>G		NM_000492.3	CFTR_v001	c.482A>G	n.614A>G	c.482A>G	p.(Tyr161Cys)	CFTR_v001:c.482A>G	CFTR_v001:p.(Tyr161Cys)		NM_000492.3	NP_000483.3	NM_000492.3(CFTR_v001):c.482A>G	NM_000492.3(CFTR_i001):p.(Tyr161Cys)		PsiI	
NM_000492.3:c.489+1G>T	(variantchecker): Intronic position given for a non-genomic reference sequence.	
NM_000492.3:c.489+2C>T	(variantchecker): Intronic position given for a non-genomic reference sequence.	
NM_000492.3:c.489+25A>G	(variantchecker): Intronic position given for a non-genomic reference sequence.	
NM_000492.3:c.489+3A>G	(variantchecker): Intronic position given for a non-genomic reference sequence.	
NM_000492.3:c.496A>G		NM_000492.3	CFTR_v001	c.496A>G	n.628A>G	c.496A>G	p.(Lys166Glu)	CFTR_v001:c.496A>G	CFTR_v001:p.(Lys166Glu)		NM_000492.3	NP_000483.3	NM_000492.3(CFTR_v001):c.496A>G	NM_000492.3(CFTR_i001):p.(Lys166Glu)		DraI,MseI	
NM_000492.3:c.509G>A		NM_000492.3	CFTR_v001	c.509G>A	n.641G>A	c.509G>A	p.(Arg170His)	CFTR_v001:c.509G>A	CFTR_v001:p.(Arg170His)		NM_000492.3	NP_000483.3	NM_000492.3(CFTR_v001):c.509G>A	NM_000492.3(CFTR_i001):p.(Arg170His)	CviAII,FatI,NlaIII	BceAI	
NM_000492.3:c.531delT		NM_000492.3	CFTR_v001	c.531delT	n.663del	c.531del	p.(Ile177Metfs*12)	CFTR_v001:c.531del	CFTR_v001:p.(Ile177Metfs*12)		NM_000492.3	NP_000483.3	NM_000492.3(CFTR_v001):c.531del	NM_000492.3(CFTR_i001):p.(Ile177Metfs*12)			
NM_000492.3:c.532G>A		NM_000492.3	CFTR_v001	c.532G>A	n.664G>A	c.532G>A	p.(Gly178Arg)	CFTR_v001:c.532G>A	CFTR_v001:p.(Gly178Arg)		NM_000492.3	NP_000483.3	NM_000492.3(CFTR_v001):c.532G>A	NM_000492.3(CFTR_i001):p.(Gly178Arg)			
NM_000492.3:c.563T>C		NM_000492.3	CFTR_v001	c.563T>C	n.695T>C	c.563T>C	p.(Leu188Pro)	CFTR_v001:c.563T>C	CFTR_v001:p.(Leu188Pro)		NM_000492.3	NP_000483.3	NM_000492.3(CFTR_v001):c.563T>C	NM_000492.3(CFTR_i001):p.(Leu188Pro)		LpnPI	
NM_000492.3:c.574G>A		NM_000492.3	CFTR_v001	c.574G>A	n.706G>A	c.574G>A	p.(Asp192Asn)	CFTR_v001:c.574G>A	CFTR_v001:p.(Asp192Asn)		NM_000492.3	NP_000483.3	NM_000492.3(CFTR_v001):c.574G>A	NM_000492.3(CFTR_i001):p.(Asp192Asn)	MseI		
NM_000492.3:c.575A>G		NM_000492.3	CFTR_v001	c.575A>G	n.707A>G	c.575A>G	p.(Asp192Gly)	CFTR_v001:c.575A>G	CFTR_v001:p.(Asp192Gly)		NM_000492.3	NP_000483.3	NM_000492.3(CFTR_v001):c.575A>G	NM_000492.3(CFTR_i001):p.(Asp192Gly)	HphI		
NM_000492.3:c.577G>A		NM_000492.3	CFTR_v001	c.577G>A	n.709G>A	c.577G>A	p.(Glu193Lys)	CFTR_v001:c.577G>A	CFTR_v001:p.(Glu193Lys)		NM_000492.3	NP_000483.3	NM_000492.3(CFTR_v001):c.577G>A	NM_000492.3(CFTR_i001):p.(Glu193Lys)		HpyAV	
NM_000492.3:c.579+3A>T	(variantchecker): Intronic position given for a non-genomic reference sequence.	
NM_000492.3:c.579-1G>T	(variantchecker): Intronic position given for a non-genomic reference sequence.	
NM_000492.3:c.579+3A>G	(variantchecker): Intronic position given for a non-genomic reference sequence.	
NM_000492.3:c.579+1G>T	(variantchecker): Intronic position given for a non-genomic reference sequence.	
NM_000492.3:c.579+5G>A	(variantchecker): Intronic position given for a non-genomic reference sequence.	
NM_000492.3:c.580-1G>T	(variantchecker): Intronic position given for a non-genomic reference sequence.	
NM_000492.3:c.580G>A		NM_000492.3	CFTR_v001	c.580G>A	n.712G>A	c.580G>A	p.(Gly194Arg)	CFTR_v001:c.580G>A	CFTR_v001:p.(Gly194Arg)		NM_000492.3	NP_000483.3	NM_000492.3(CFTR_v001):c.580G>A	NM_000492.3(CFTR_i001):p.(Gly194Arg)		HpyAV	
NM_000492.3:c.580_869del3273	(variantchecker): Variant hits one or more splice sites in selected transcript.|(variantchecker): The length (3273) differed from that of the range (290).	
NM_000492.3:c.595C>T		NM_000492.3	CFTR_v001	c.595C>T	n.727C>T	c.595C>T	p.(His199Tyr)	CFTR_v001:c.595C>T	CFTR_v001:p.(His199Tyr)		NM_000492.3	NP_000483.3	NM_000492.3(CFTR_v001):c.595C>T	NM_000492.3(CFTR_i001):p.(His199Tyr)			
NM_000492.3:c.596A>G		NM_000492.3	CFTR_v001	c.596A>G	n.728A>G	c.596A>G	p.(His199Arg)	CFTR_v001:c.596A>G	CFTR_v001:p.(His199Arg)		NM_000492.3	NP_000483.3	NM_000492.3(CFTR_v001):c.596A>G	NM_000492.3(CFTR_i001):p.(His199Arg)	HpyCH4IV		
NM_000492.3:c.613C>T		NM_000492.3	CFTR_v001	c.613C>T	n.745C>T	c.613C>T	p.(Pro205Ser)	CFTR_v001:c.613C>T	CFTR_v001:p.(Pro205Ser)		NM_000492.3	NP_000483.3	NM_000492.3(CFTR_v001):c.613C>T	NM_000492.3(CFTR_i001):p.(Pro205Ser)			
NM_000492.3:c.617T>G		NM_000492.3	CFTR_v001	c.617T>G	n.749T>G	c.617T>G	p.(Leu206Trp)	CFTR_v001:c.617T>G	CFTR_v001:p.(Leu206Trp)		NM_000492.3	NP_000483.3	NM_000492.3(CFTR_v001):c.617T>G	NM_000492.3(CFTR_i001):p.(Leu206Trp)	BsaJI,StyI	HpyCH4V	
NM_000492.3:c.638G>A		NM_000492.3	CFTR_v001	c.638G>A	n.770G>A	c.638G>A	p.(Gly213Glu)	CFTR_v001:c.638G>A	CFTR_v001:p.(Gly213Glu)		NM_000492.3	NP_000483.3	NM_000492.3(CFTR_v001):c.638G>A	NM_000492.3(CFTR_i001):p.(Gly213Glu)	AluI		
NM_000492.3:c.647G>A		NM_000492.3	CFTR_v001	c.647G>A	n.779G>A	c.647G>A	p.(Trp216*)	CFTR_v001:c.647G>A	CFTR_v001:p.(Trp216*)		NM_000492.3	NP_000483.3	NM_000492.3(CFTR_v001):c.647G>A	NM_000492.3(CFTR_i001):p.(Trp216*)	BfaI		
NM_000492.3:c.650A>G		NM_000492.3	CFTR_v001	c.650A>G	n.782A>G	c.650A>G	p.(Glu217Gly)	CFTR_v001:c.650A>G	CFTR_v001:p.(Glu217Gly)		NM_000492.3	NP_000483.3	NM_000492.3(CFTR_v001):c.650A>G	NM_000492.3(CFTR_i001):p.(Glu217Gly)			
NM_000492.3:c.658C>T		NM_000492.3	CFTR_v001	c.658C>T	n.790C>T	c.658C>T	p.(Gln220*)	CFTR_v001:c.658C>T	CFTR_v001:p.(Gln220*)		NM_000492.3	NP_000483.3	NM_000492.3(CFTR_v001):c.658C>T	NM_000492.3(CFTR_i001):p.(Gln220*)		LpnPI	
NM_000492.3:c.695T>A		NM_000492.3	CFTR_v001	c.695T>A	n.827T>A	c.695T>A	p.(Val232Asp)	CFTR_v001:c.695T>A	CFTR_v001:p.(Val232Asp)		NM_000492.3	NP_000483.3	NM_000492.3(CFTR_v001):c.695T>A	NM_000492.3(CFTR_i001):p.(Val232Asp)			
NM_000492.3:c.709C>G		NM_000492.3	CFTR_v001	c.709C>G	n.841C>G	c.709C>G	p.(Gln237Glu)	CFTR_v001:c.709C>G	CFTR_v001:p.(Gln237Glu)		NM_000492.3	NP_000483.3	NM_000492.3(CFTR_v001):c.709C>G	NM_000492.3(CFTR_i001):p.(Gln237Glu)	MnlI		
NM_000492.3:c.713C>T		NM_000492.3	CFTR_v001	c.713C>T	n.845C>T	c.713C>T	p.(Ala238Val)	CFTR_v001:c.713C>T	CFTR_v001:p.(Ala238Val)		NM_000492.3	NP_000483.3	NM_000492.3(CFTR_v001):c.713C>T	NM_000492.3(CFTR_i001):p.(Ala238Val)		BseYI	
NM_000492.3:c.720_741del22	(variantchecker): Sequence "AGGGAGAATGATGATGAAGTAC" at position 852_873 was given, however, the HGVS notation prescribes that on the forward strand it should be "GGAGAATGATGATGAAGTACAG" at position 854_875.	NM_000492.3	CFTR_v001	c.720_741del22	n.854_875del	c.722_743del	p.(Gly241Glufs*13)	CFTR_v001:c.722_743del	CFTR_v001:p.(Gly241Glufs*13)		NM_000492.3	NP_000483.3	NM_000492.3(CFTR_v001):c.722_743del	NM_000492.3(CFTR_i001):p.(Gly241Glufs*13)		CviQI,RsaI	
NM_000492.3:c.726delATT	(variantchecker): ATT not found at position 858, found A instead.	
NM_000492.3:c.743+1G>A	(variantchecker): Intronic position given for a non-genomic reference sequence.	
NM_000492.3:c.744-5_744-2delTACA	(variantchecker): Intronic position given for a non-genomic reference sequence.	
NM_000492.3:c.769G>T		NM_000492.3	CFTR_v001	c.769G>T	n.901G>T	c.769G>T	p.(Glu257*)	CFTR_v001:c.769G>T	CFTR_v001:p.(Glu257*)		NM_000492.3	NP_000483.3	NM_000492.3(CFTR_v001):c.769G>T	NM_000492.3(CFTR_i001):p.(Glu257*)	MseI	BtsIMutI,TspRI	
NM_000492.3:c.772A>G		NM_000492.3	CFTR_v001	c.772A>G	n.904A>G	c.772A>G	p.(Arg258Gly)	CFTR_v001:c.772A>G	CFTR_v001:p.(Arg258Gly)		NM_000492.3	NP_000483.3	NM_000492.3(CFTR_v001):c.772A>G	NM_000492.3(CFTR_i001):p.(Arg258Gly)	FspEI,HpyAV		
NM_000492.3:c.794T>G		NM_000492.3	CFTR_v001	c.794T>G	n.926T>G	c.794T>G	p.(Met265Arg)	CFTR_v001:c.794T>G	CFTR_v001:p.(Met265Arg)		NM_000492.3	NP_000483.3	NM_000492.3(CFTR_v001):c.794T>G	NM_000492.3(CFTR_i001):p.(Met265Arg)	BslI,EcoNI		
NM_000492.3:c.803delA		NM_000492.3	CFTR_v001	c.803delA	n.935del	c.803del	p.(Asn268Ilefs*17)	CFTR_v001:c.803del	CFTR_v001:p.(Asn268Ilefs*17)		NM_000492.3	NP_000483.3	NM_000492.3(CFTR_v001):c.803del	NM_000492.3(CFTR_i001):p.(Asn268Ilefs*17)			
NM_000492.3:c.825C>G		NM_000492.3	CFTR_v001	c.825C>G	n.957C>G	c.825C>G	p.(Tyr275*)	CFTR_v001:c.825C>G	CFTR_v001:p.(Tyr275*)		NM_000492.3	NP_000483.3	NM_000492.3(CFTR_v001):c.825C>G	NM_000492.3(CFTR_i001):p.(Tyr275*)			
NM_000492.3:c.828C>A		NM_000492.3	CFTR_v001	c.828C>A	n.960C>A	c.828C>A	p.(Cys276*)	CFTR_v001:c.828C>A	CFTR_v001:p.(Cys276*)		NM_000492.3	NP_000483.3	NM_000492.3(CFTR_v001):c.828C>A	NM_000492.3(CFTR_i001):p.(Cys276*)	BccI,MslI	BseYI,LpnPI	
NM_000492.3:c.860dupA		NM_000492.3	CFTR_v001	c.860dupA	n.992dup	c.860dup	p.(Asn287Lysfs*21)	CFTR_v001:c.860dup	CFTR_v001:p.(Asn287Lysfs*21)		NM_000492.3	NP_000483.3	NM_000492.3(CFTR_v001):c.860dup	NM_000492.3(CFTR_i001):p.(Asn287Lysfs*21)			
NM_000492.3:c.861_865delCTTAA		NM_000492.3	CFTR_v001	c.861_865delCTTAA	n.993_997del	c.861_865del	p.(Asn287Lysfs*19)	CFTR_v001:c.861_865del	CFTR_v001:p.(Asn287Lysfs*19)		NM_000492.3	NP_000483.3	NM_000492.3(CFTR_v001):c.861_865del	NM_000492.3(CFTR_i001):p.(Asn287Lysfs*19)		AflII,MseI,SmlI	
NM_000492.3:c.870-2A>G	(variantchecker): Intronic position given for a non-genomic reference sequence.	
NM_000492.3:c.931T>C		NM_000492.3	CFTR_v001	c.931T>C	n.1063T>C	c.931T>C	p.(Phe311Leu)	CFTR_v001:c.931T>C	CFTR_v001:p.(Phe311Leu)		NM_000492.3	NP_000483.3	NM_000492.3(CFTR_v001):c.931T>C	NM_000492.3(CFTR_i001):p.(Phe311Leu)	EarI,MnlI		
NM_000492.3:c.935_937delTCT		NM_000492.3	CFTR_v001	c.935_937delTCT	n.1067_1069del	c.935_937del	p.(Phe312del)	CFTR_v001:c.935_937del	CFTR_v001:p.(Phe312del)		NM_000492.3	NP_000483.3	NM_000492.3(CFTR_v001):c.935_937del	NM_000492.3(CFTR_i001):p.(Phe312del)			
NM_000492.3:c.948delT		NM_000492.3	CFTR_v001	c.948delT	n.1080del	c.948del	p.(Phe316Leufs*12)	CFTR_v001:c.948del	CFTR_v001:p.(Phe316Leufs*12)		NM_000492.3	NP_000483.3	NM_000492.3(CFTR_v001):c.948del	NM_000492.3(CFTR_i001):p.(Phe316Leufs*12)			
NM_000492.3:c.958T>G		NM_000492.3	CFTR_v001	c.958T>G	n.1090T>G	c.958T>G	p.(Leu320Val)	CFTR_v001:c.958T>G	CFTR_v001:p.(Leu320Val)		NM_000492.3	NP_000483.3	NM_000492.3(CFTR_v001):c.958T>G	NM_000492.3(CFTR_i001):p.(Leu320Val)			
NM_000492.3:c.1000C>T		NM_000492.3	CFTR_v001	c.1000C>T	n.1132C>T	c.1000C>T	p.(Arg334Trp)	CFTR_v001:c.1000C>T	CFTR_v001:p.(Arg334Trp)		NM_000492.3	NP_000483.3	NM_000492.3(CFTR_v001):c.1000C>T	NM_000492.3(CFTR_i001):p.(Arg334Trp)		BsaWI,BspEI,HpaII,MspI	
NM_000492.3:c.1001G>T		NM_000492.3	CFTR_v001	c.1001G>T	n.1133G>T	c.1001G>T	p.(Arg334Leu)	CFTR_v001:c.1001G>T	CFTR_v001:p.(Arg334Leu)		NM_000492.3	NP_000483.3	NM_000492.3(CFTR_v001):c.1001G>T	NM_000492.3(CFTR_i001):p.(Arg334Leu)		BsaWI,BspEI,HpaII,MspI	
NM_000492.3:c.1001G>A		NM_000492.3	CFTR_v001	c.1001G>A	n.1133G>A	c.1001G>A	p.(Arg334Gln)	CFTR_v001:c.1001G>A	CFTR_v001:p.(Arg334Gln)		NM_000492.3	NP_000483.3	NM_000492.3(CFTR_v001):c.1001G>A	NM_000492.3(CFTR_i001):p.(Arg334Gln)	BpmI	BsaWI,BspEI,HpaII,MspI	
NM_000492.3:c.1007T>A		NM_000492.3	CFTR_v001	c.1007T>A	n.1139T>A	c.1007T>A	p.(Ile336Lys)	CFTR_v001:c.1007T>A	CFTR_v001:p.(Ile336Lys)		NM_000492.3	NP_000483.3	NM_000492.3(CFTR_v001):c.1007T>A	NM_000492.3(CFTR_i001):p.(Ile336Lys)	ApoI,MluCI	SspI	
NM_000492.3:c.1013C>T		NM_000492.3	CFTR_v001	c.1013C>T	n.1145C>T	c.1013C>T	p.(Thr338Ile)	CFTR_v001:c.1013C>T	CFTR_v001:p.(Thr338Ile)		NM_000492.3	NP_000483.3	NM_000492.3(CFTR_v001):c.1013C>T	NM_000492.3(CFTR_i001):p.(Thr338Ile)			
NM_000492.3:c.1021_1022dupTC		NM_000492.3	CFTR_v001	c.1021_1022dupTC	n.1153_1154dup	c.1021_1022dup	p.(Phe342Hisfs*28)	CFTR_v001:c.1021_1022dup	CFTR_v001:p.(Phe342Hisfs*28)		NM_000492.3	NP_000483.3	NM_000492.3(CFTR_v001):c.1021_1022dup	NM_000492.3(CFTR_i001):p.(Phe342Hisfs*28)			
NM_000492.3:c.1029delC		NM_000492.3	CFTR_v001	c.1029delC	n.1161del	c.1029del	p.(Cys343*)	CFTR_v001:c.1029del	CFTR_v001:p.(Cys343*)		NM_000492.3	NP_000483.3	NM_000492.3(CFTR_v001):c.1029del	NM_000492.3(CFTR_i001):p.(Cys343*)	Hpy188I	HpyCH4V	
NM_000492.3:c.1040G>A		NM_000492.3	CFTR_v001	c.1040G>A	n.1172G>A	c.1040G>A	p.(Arg347His)	CFTR_v001:c.1040G>A	CFTR_v001:p.(Arg347His)		NM_000492.3	NP_000483.3	NM_000492.3(CFTR_v001):c.1040G>A	NM_000492.3(CFTR_i001):p.(Arg347His)	BsgI	FspI,HhaI,HinP1I	
NM_000492.3:c.1040G>C		NM_000492.3	CFTR_v001	c.1040G>C	n.1172G>C	c.1040G>C	p.(Arg347Pro)	CFTR_v001:c.1040G>C	CFTR_v001:p.(Arg347Pro)		NM_000492.3	NP_000483.3	NM_000492.3(CFTR_v001):c.1040G>C	NM_000492.3(CFTR_i001):p.(Arg347Pro)	BsaJI,BtgI,NcoI,StyI	FspI,HhaI,HinP1I	
NM_000492.3:c.1043T>A		NM_000492.3	CFTR_v001	c.1043T>A	n.1175T>A	c.1043T>A	p.(Met348Lys)	CFTR_v001:c.1043T>A	CFTR_v001:p.(Met348Lys)		NM_000492.3	NP_000483.3	NM_000492.3(CFTR_v001):c.1043T>A	NM_000492.3(CFTR_i001):p.(Met348Lys)		CviAII,FatI,NlaIII	
NM_000492.3:c.1046C>T		NM_000492.3	CFTR_v001	c.1046C>T	n.1178C>T	c.1046C>T	p.(Ala349Val)	CFTR_v001:c.1046C>T	CFTR_v001:p.(Ala349Val)		NM_000492.3	NP_000483.3	NM_000492.3(CFTR_v001):c.1046C>T	NM_000492.3(CFTR_i001):p.(Ala349Val)		AciI	
NM_000492.3:c.1052C>G		NM_000492.3	CFTR_v001	c.1052C>G	n.1184C>G	c.1052C>G	p.(Thr351Ser)	CFTR_v001:c.1052C>G	CFTR_v001:p.(Thr351Ser)		NM_000492.3	NP_000483.3	NM_000492.3(CFTR_v001):c.1052C>G	NM_000492.3(CFTR_i001):p.(Thr351Ser)		NmeAIII,Tsp45I	
NM_000492.3:c.1054C>T		NM_000492.3	CFTR_v001	c.1054C>T	n.1186C>T	c.1054C>T	p.(Arg352Trp)	CFTR_v001:c.1054C>T	CFTR_v001:p.(Arg352Trp)		NM_000492.3	NP_000483.3	NM_000492.3(CFTR_v001):c.1054C>T	NM_000492.3(CFTR_i001):p.(Arg352Trp)		NmeAIII	
NM_000492.3:c.1055G>A		NM_000492.3	CFTR_v001	c.1055G>A	n.1187G>A	c.1055G>A	p.(Arg352Gln)	CFTR_v001:c.1055G>A	CFTR_v001:p.(Arg352Gln)		NM_000492.3	NP_000483.3	NM_000492.3(CFTR_v001):c.1055G>A	NM_000492.3(CFTR_i001):p.(Arg352Gln)	BspCNI,DdeI	NmeAIII	
NM_000492.3:c.1066_1071del		NM_000492.3	CFTR_v001	c.1066_1071del	n.1198_1203del	c.1066_1071del	p.(Trp356_Ala357del)	CFTR_v001:c.1066_1071del	CFTR_v001:p.(Trp356_Ala357del)		NM_000492.3	NP_000483.3	NM_000492.3(CFTR_v001):c.1066_1071del	NM_000492.3(CFTR_i001):p.(Trp356_Ala357del)		BsaJI,BsrGI,BstNI,CviKI_1,LpnPI,PspGI,ScrFI,StyD4I	
NM_000492.3:c.1072G>A		NM_000492.3	CFTR_v001	c.1072G>A	n.1204G>A	c.1072G>A	p.(Val358Ile)	CFTR_v001:c.1072G>A	CFTR_v001:p.(Val358Ile)		NM_000492.3	NP_000483.3	NM_000492.3(CFTR_v001):c.1072G>A	NM_000492.3(CFTR_i001):p.(Val358Ile)		BsrGI,CviQI,RsaI	
NM_000492.3:c.1081T>A		NM_000492.3	CFTR_v001	c.1081T>A	n.1213T>A	c.1081T>A	p.(Trp361Arg)	CFTR_v001:c.1081T>A	CFTR_v001:p.(Trp361Arg)		NM_000492.3	NP_000483.3	NM_000492.3(CFTR_v001):c.1081T>A	NM_000492.3(CFTR_i001):p.(Trp361Arg)		CviAII,FatI,NlaIII	
NM_000492.3:c.1094T>C		NM_000492.3	CFTR_v001	c.1094T>C	n.1226T>C	c.1094T>C	p.(Leu365Pro)	CFTR_v001:c.1094T>C	CFTR_v001:p.(Leu365Pro)		NM_000492.3	NP_000483.3	NM_000492.3(CFTR_v001):c.1094T>C	NM_000492.3(CFTR_i001):p.(Leu365Pro)	BpmI,BstNI,PspGI,ScrFI,StyD4I		
NM_000492.3:c.1116+1G>A	(variantchecker): Intronic position given for a non-genomic reference sequence.	
NM_000492.3:c.1119T>G		NM_000492.3	CFTR_v001	c.1119T>G	n.1251T>G	c.1119T>G	p.(Asp373Glu)	CFTR_v001:c.1119T>G	CFTR_v001:p.(Asp373Glu)		NM_000492.3	NP_000483.3	NM_000492.3(CFTR_v001):c.1119T>G	NM_000492.3(CFTR_i001):p.(Asp373Glu)			
NM_000492.3:c.1125A>C		NM_000492.3	CFTR_v001	c.1125A>C	n.1257A>C	c.1125A>C	p.(Leu375Phe)	CFTR_v001:c.1125A>C	CFTR_v001:p.(Leu375Phe)		NM_000492.3	NP_000483.3	NM_000492.3(CFTR_v001):c.1125A>C	NM_000492.3(CFTR_i001):p.(Leu375Phe)	MboII		
NM_000492.3:c.1130dupA		NM_000492.3	CFTR_v001	c.1130dupA	n.1262dup	c.1130dup	p.(Gln378Alafs*4)	CFTR_v001:c.1130dup	CFTR_v001:p.(Gln378Alafs*4)		NM_000492.3	NP_000483.3	NM_000492.3(CFTR_v001):c.1130dup	NM_000492.3(CFTR_i001):p.(Gln378Alafs*4)			
NM_000492.3:c.1135G>T		NM_000492.3	CFTR_v001	c.1135G>T	n.1267G>T	c.1135G>T	p.(Glu379*)	CFTR_v001:c.1135G>T	CFTR_v001:p.(Glu379*)		NM_000492.3	NP_000483.3	NM_000492.3(CFTR_v001):c.1135G>T	NM_000492.3(CFTR_i001):p.(Glu379*)			
NM_000492.3:c.1148T>C		NM_000492.3	CFTR_v001	c.1148T>C	n.1280T>C	c.1148T>C	p.(Leu383Ser)	CFTR_v001:c.1148T>C	CFTR_v001:p.(Leu383Ser)		NM_000492.3	NP_000483.3	NM_000492.3(CFTR_v001):c.1148T>C	NM_000492.3(CFTR_i001):p.(Leu383Ser)	Hpy188I		
NM_000492.3:c.1155_1156dupTA		NM_000492.3	CFTR_v001	c.1155_1156dupTA	n.1287_1288dup	c.1155_1156dup	p.(Asn386Ilefs*3)	CFTR_v001:c.1155_1156dup	CFTR_v001:p.(Asn386Ilefs*3)		NM_000492.3	NP_000483.3	NM_000492.3(CFTR_v001):c.1155_1156dup	NM_000492.3(CFTR_i001):p.(Asn386Ilefs*3)			
NM_000492.3:c.1181T>G		NM_000492.3	CFTR_v001	c.1181T>G	n.1313T>G	c.1181T>G	p.(Met394Arg)	CFTR_v001:c.1181T>G	CFTR_v001:p.(Met394Arg)		NM_000492.3	NP_000483.3	NM_000492.3(CFTR_v001):c.1181T>G	NM_000492.3(CFTR_i001):p.(Met394Arg)	MnlI	BccI	
NM_000492.3:c.1196C>A		NM_000492.3	CFTR_v001	c.1196C>A	n.1328C>A	c.1196C>A	p.(Ala399Asp)	CFTR_v001:c.1196C>A	CFTR_v001:p.(Ala399Asp)		NM_000492.3	NP_000483.3	NM_000492.3(CFTR_v001):c.1196C>A	NM_000492.3(CFTR_i001):p.(Ala399Asp)		CviKI_1,HpyAV	
NM_000492.3:c.1209+1G>A	(variantchecker): Intronic position given for a non-genomic reference sequence.	
NM_000492.3:c.1209+2G>C	(variantchecker): Intronic position given for a non-genomic reference sequence.	
NM_000492.3:c.1210-14T>G	(variantchecker): Intronic position given for a non-genomic reference sequence.	
NM_000492.3:c.1210_1392del		NM_000492.3	CFTR_v001	c.1210_1392del	n.1342_1524del	c.1210_1392del	p.(Gly404_Lys464del)	CFTR_v001:c.1210_1392del	CFTR_v001:p.(Gly404_Lys464del)		NM_000492.3	NP_000483.3	NM_000492.3(CFTR_v001):c.1210_1392del	NM_000492.3(CFTR_i001):p.(Gly404_Lys464del)	BcoDI,BsmAI	AciI,AcuI,AlwI,AseI,BaeI (2),BamHI,BfuCI,BpmI,BsrI,BstYI,BtsIMutI,Cac8I,CviQI,DpnI,DpnII,EarI,HphI,Hpy188III (2),HpyCH4III,MboI,MboII,MluCI (3),MseI,NlaIV,RsaI,Sau3AI,TspRI,XmnI	
NM_000492.3:c.1324A>T		NM_000492.3	CFTR_v001	c.1324A>T	n.1456A>T	c.1324A>T	p.(Lys442*)	CFTR_v001:c.1324A>T	CFTR_v001:p.(Lys442*)		NM_000492.3	NP_000483.3	NM_000492.3(CFTR_v001):c.1324A>T	NM_000492.3(CFTR_i001):p.(Lys442*)			
NM_000492.3:c.1327G>T		NM_000492.3	CFTR_v001	c.1327G>T	n.1459G>T	c.1327G>T	p.(Asp443Tyr)	CFTR_v001:c.1327G>T	CFTR_v001:p.(Asp443Tyr)		NM_000492.3	NP_000483.3	NM_000492.3(CFTR_v001):c.1327G>T	NM_000492.3(CFTR_i001):p.(Asp443Tyr)			
NM_000492.3:c.1352G>T		NM_000492.3	CFTR_v001	c.1352G>T	n.1484G>T	c.1352G>T	p.(Gly451Val)	CFTR_v001:c.1352G>T	CFTR_v001:p.(Gly451Val)		NM_000492.3	NP_000483.3	NM_000492.3(CFTR_v001):c.1352G>T	NM_000492.3(CFTR_i001):p.(Gly451Val)	CviQI,RsaI	MnlI	
NM_000492.3:c.1358T>C		NM_000492.3	CFTR_v001	c.1358T>C	n.1490T>C	c.1358T>C	p.(Leu453Ser)	CFTR_v001:c.1358T>C	CFTR_v001:p.(Leu453Ser)		NM_000492.3	NP_000483.3	NM_000492.3(CFTR_v001):c.1358T>C	NM_000492.3(CFTR_i001):p.(Leu453Ser)			
NM_000492.3:c.1364C>A		NM_000492.3	CFTR_v001	c.1364C>A	n.1496C>A	c.1364C>A	p.(Ala455Glu)	CFTR_v001:c.1364C>A	CFTR_v001:p.(Ala455Glu)		NM_000492.3	NP_000483.3	NM_000492.3(CFTR_v001):c.1364C>A	NM_000492.3(CFTR_i001):p.(Ala455Glu)	MmeI	AciI	
NM_000492.3:c.1365_1366delGG		NM_000492.3	CFTR_v001	c.1365_1366delGG	n.1497_1498del	c.1365_1366del	p.(Val456Cysfs*25)	CFTR_v001:c.1365_1366del	CFTR_v001:p.(Val456Cysfs*25)		NM_000492.3	NP_000483.3	NM_000492.3(CFTR_v001):c.1365_1366del	NM_000492.3(CFTR_i001):p.(Val456Cysfs*25)	CviKI_1	AciI	
NM_000492.3:c.1367T>C		NM_000492.3	CFTR_v001	c.1367T>C	n.1499T>C	c.1367T>C	p.(Val456Ala)	CFTR_v001:c.1367T>C	CFTR_v001:p.(Val456Ala)		NM_000492.3	NP_000483.3	NM_000492.3(CFTR_v001):c.1367T>C	NM_000492.3(CFTR_i001):p.(Val456Ala)	ApeKI,BbvI,CviKI_1,Fnu4HI,TseI		
NM_000492.3:c.1393-1G>A	(variantchecker): Intronic position given for a non-genomic reference sequence.	
NM_000492.3:c.1393-18G>A	(variantchecker): Intronic position given for a non-genomic reference sequence.	
NM_000492.3:c.1393_3367del	(variantchecker): Variant hits one or more splice sites in selected transcript.	NM_000492.3	CFTR_v001	c.1393_3367del	n.1525_3499del	c.1393_3367del	p.(Thr465Glufs*11)	CFTR_v001:c.1393_3367del	CFTR_v001:p.(Thr465Glufs*11)		NM_000492.3	NP_000483.3	NM_000492.3(CFTR_v001):c.1393_3367del	NM_000492.3(CFTR_i001):p.(Thr465Glufs*11)		AccI (2),AcuI (4),AflIII,AluI (9),AlwNI,ApeKI (3),ApoI (7),AseI (2),BanI,BbsI,BbvI (3),BccI,BceAI,BciVI,BclI,BcoDI (2),BfaI (3),BfuAI,BglI,BpuEI,BsaAI,BsaI,BsaJI (2),BseRI,BsgI,BslI (2),BsmAI (2),BsmFI,BspCNI (6),BspMI,BsrDI,BstNI (3),BstZ17I,Bsu36I,BtsCI (4),BtsI (3),CviAII (4),CviKI_1 (22),CviQI (3),DdeI (8),DraI (2),DraIII (2),EcoRI,FatI (4),Fnu4HI (3),FokI (4),HaeIII (2),HgaI,HhaI,HinP1I,HincII (4),HindIII,HinfI (11),HpaI,HphI (3),Hpy166II (8),Hpy188I (9),Hpy188III (4),HpyCH4III (5),HpyCH4IV (2),HpyCH4V (7),MboII (11),MluCI (17),MlyI (3),MnlI (15),MseI (14),MslI (2),MwoI (4),NlaIII (4),NspI,PleI (3),PspGI (3),RsaI (3),Sau96I (2),ScaI,ScrFI (3),SfaNI (5),SfcI (2),SmlI,SphI,SspI (2),StyD4I (3),StyI (2),TaqI (4),TfiI (8),TseI (3),Tsp45I (3),XmnI (3)	
NM_000492.3:c.1394C>A		NM_000492.3	CFTR_v001	c.1394C>A	n.1526C>A	c.1394C>A	p.(Thr465Asn)	CFTR_v001:c.1394C>A	CFTR_v001:p.(Thr465Asn)		NM_000492.3	NP_000483.3	NM_000492.3(CFTR_v001):c.1394C>A	NM_000492.3(CFTR_i001):p.(Thr465Asn)	ApoI,EcoRI,MluCI		
NM_000492.3:c.1397C>A		NM_000492.3	CFTR_v001	c.1397C>A	n.1529C>A	c.1397C>A	p.(Ser466*)	CFTR_v001:c.1397C>A	CFTR_v001:p.(Ser466*)		NM_000492.3	NP_000483.3	NM_000492.3(CFTR_v001):c.1397C>A	NM_000492.3(CFTR_i001):p.(Ser466*)	MseI		
NM_000492.3:c.1397C>G		NM_000492.3	CFTR_v001	c.1397C>G	n.1529C>G	c.1397C>G	p.(Ser466*)	CFTR_v001:c.1397C>G	CFTR_v001:p.(Ser466*)		NM_000492.3	NP_000483.3	NM_000492.3(CFTR_v001):c.1397C>G	NM_000492.3(CFTR_i001):p.(Ser466*)			
NM_000492.3:c.1408A>G	(variantchecker): A not found at position 1540, found G instead.	
NM_000492.3:c.1409_1418del10		NM_000492.3	CFTR_v001	c.1409_1418del10	n.1541_1550del	c.1409_1418del	p.(Val470Glufs*54)	CFTR_v001:c.1409_1418del	CFTR_v001:p.(Val470Glufs*54)		NM_000492.3	NP_000483.3	NM_000492.3(CFTR_v001):c.1409_1418del	NM_000492.3(CFTR_i001):p.(Val470Glufs*54)		HphI	
NM_000492.3:c.1418delG		NM_000492.3	CFTR_v001	c.1418delG	n.1550del	c.1418del	p.(Gly473Glufs*54)	CFTR_v001:c.1418del	CFTR_v001:p.(Gly473Glufs*54)		NM_000492.3	NP_000483.3	NM_000492.3(CFTR_v001):c.1418del	NM_000492.3(CFTR_i001):p.(Gly473Glufs*54)			
NM_000492.3:c.1435G>T		NM_000492.3	CFTR_v001	c.1435G>T	n.1567G>T	c.1435G>T	p.(Glu479*)	CFTR_v001:c.1435G>T	CFTR_v001:p.(Glu479*)		NM_000492.3	NP_000483.3	NM_000492.3(CFTR_v001):c.1435G>T	NM_000492.3(CFTR_i001):p.(Glu479*)		AcuI,Hpy188I,MnlI	
NM_000492.3:c.1438G>T		NM_000492.3	CFTR_v001	c.1438G>T	n.1570G>T	c.1438G>T	p.(Gly480Cys)	CFTR_v001:c.1438G>T	CFTR_v001:p.(Gly480Cys)		NM_000492.3	NP_000483.3	NM_000492.3(CFTR_v001):c.1438G>T	NM_000492.3(CFTR_i001):p.(Gly480Cys)		BslI,MnlI	
NM_000492.3:c.1456G>T		NM_000492.3	CFTR_v001	c.1456G>T	n.1588G>T	c.1456G>T	p.(Gly486*)	CFTR_v001:c.1456G>T	CFTR_v001:p.(Gly486*)		NM_000492.3	NP_000483.3	NM_000492.3(CFTR_v001):c.1456G>T	NM_000492.3(CFTR_i001):p.(Gly486*)		BtsIMutI,FspEI,TspRI	
NM_000492.3:c.1466C>A		NM_000492.3	CFTR_v001	c.1466C>A	n.1598C>A	c.1466C>A	p.(Ser489*)	CFTR_v001:c.1466C>A	CFTR_v001:p.(Ser489*)		NM_000492.3	NP_000483.3	NM_000492.3(CFTR_v001):c.1466C>A	NM_000492.3(CFTR_i001):p.(Ser489*)		XmnI	
NM_000492.3:c.1472G>T		NM_000492.3	CFTR_v001	c.1472G>T	n.1604G>T	c.1472G>T	p.(Cys491Phe)	CFTR_v001:c.1472G>T	CFTR_v001:p.(Cys491Phe)		NM_000492.3	NP_000483.3	NM_000492.3(CFTR_v001):c.1472G>T	NM_000492.3(CFTR_i001):p.(Cys491Phe)			
NM_000492.3:c.1475C>T		NM_000492.3	CFTR_v001	c.1475C>T	n.1607C>T	c.1475C>T	p.(Ser492Phe)	CFTR_v001:c.1475C>T	CFTR_v001:p.(Ser492Phe)		NM_000492.3	NP_000483.3	NM_000492.3(CFTR_v001):c.1475C>T	NM_000492.3(CFTR_i001):p.(Ser492Phe)		BspCNI,DdeI	
NM_000492.3:c.1477_1478delCA		NM_000492.3	CFTR_v001	c.1477_1478delCA	n.1609_1610del	c.1477_1478del	p.(Gln493Valfs*10)	CFTR_v001:c.1477_1478del	CFTR_v001:p.(Gln493Valfs*10)		NM_000492.3	NP_000483.3	NM_000492.3(CFTR_v001):c.1477_1478del	NM_000492.3(CFTR_i001):p.(Gln493Valfs*10)		BspCNI,DdeI	
NM_000492.3:c.1477C>T		NM_000492.3	CFTR_v001	c.1477C>T	n.1609C>T	c.1477C>T	p.(Gln493*)	CFTR_v001:c.1477C>T	CFTR_v001:p.(Gln493*)		NM_000492.3	NP_000483.3	NM_000492.3(CFTR_v001):c.1477C>T	NM_000492.3(CFTR_i001):p.(Gln493*)		BspCNI	
NM_000492.3:c.1509_1510delAGinsT		NM_000492.3	CFTR_v001	c.1509_1510delAGinsT	n.1641_1642delinsT	c.1509_1510delinsT	p.(Lys503Asnfs*24)	CFTR_v001:c.1509_1510delinsT	CFTR_v001:p.(Lys503Asnfs*24)		NM_000492.3	NP_000483.3	NM_000492.3(CFTR_v001):c.1509_1510delinsT	NM_000492.3(CFTR_i001):p.(Lys503Asnfs*24)	AseI		
NM_000492.3:c.1516A>G		NM_000492.3	CFTR_v001	c.1516A>G	n.1648A>G	c.1516A>G	p.(Ile506Val)	CFTR_v001:c.1516A>G	CFTR_v001:p.(Ile506Val)		NM_000492.3	NP_000483.3	NM_000492.3(CFTR_v001):c.1516A>G	NM_000492.3(CFTR_i001):p.(Ile506Val)			
NM_000492.3:c.1517T>C		NM_000492.3	CFTR_v001	c.1517T>C	n.1649T>C	c.1517T>C	p.(Ile506Thr)	CFTR_v001:c.1517T>C	CFTR_v001:p.(Ile506Thr)		NM_000492.3	NP_000483.3	NM_000492.3(CFTR_v001):c.1517T>C	NM_000492.3(CFTR_i001):p.(Ile506Thr)	BccI		
NM_000492.3:c.1519_1521delATC		NM_000492.3	CFTR_v001	c.1519_1521delATC	n.1651_1653del	c.1519_1521del	p.(Ile507del)	CFTR_v001:c.1519_1521del	CFTR_v001:p.(Ile507del)		NM_000492.3	NP_000483.3	NM_000492.3(CFTR_v001):c.1519_1521del	NM_000492.3(CFTR_i001):p.(Ile507del)			
NM_000492.3:c.1521_1523delCTT		NM_000492.3	CFTR_v001	c.1521_1523delCTT	n.1653_1655del	c.1521_1523del	p.(Phe508del)	CFTR_v001:c.1521_1523del	CFTR_v001:p.(Phe508del)		NM_000492.3	NP_000483.3	NM_000492.3(CFTR_v001):c.1521_1523del	NM_000492.3(CFTR_i001):p.(Phe508del)			
NM_000492.3:c.1523T>G		NM_000492.3	CFTR_v001	c.1523T>G	n.1655T>G	c.1523T>G	p.(Phe508Cys)	CFTR_v001:c.1523T>G	CFTR_v001:p.(Phe508Cys)		NM_000492.3	NP_000483.3	NM_000492.3(CFTR_v001):c.1523T>G	NM_000492.3(CFTR_i001):p.(Phe508Cys)			
NM_000492.3:c.1545_1546delTA		NM_000492.3	CFTR_v001	c.1545_1546delTA	n.1677_1678del	c.1545_1546del	p.(Tyr515*)	CFTR_v001:c.1545_1546del	CFTR_v001:p.(Tyr515*)		NM_000492.3	NP_000483.3	NM_000492.3(CFTR_v001):c.1545_1546del	NM_000492.3(CFTR_i001):p.(Tyr515*)			
NM_000492.3:c.1558G>T		NM_000492.3	CFTR_v001	c.1558G>T	n.1690G>T	c.1558G>T	p.(Val520Phe)	CFTR_v001:c.1558G>T	CFTR_v001:p.(Val520Phe)		NM_000492.3	NP_000483.3	NM_000492.3(CFTR_v001):c.1558G>T	NM_000492.3(CFTR_i001):p.(Val520Phe)	AluI,CviKI_1,HindIII	HgaI	
NM_000492.3:c.1573C>T		NM_000492.3	CFTR_v001	c.1573C>T	n.1705C>T	c.1573C>T	p.(Gln525*)	CFTR_v001:c.1573C>T	CFTR_v001:p.(Gln525*)		NM_000492.3	NP_000483.3	NM_000492.3(CFTR_v001):c.1573C>T	NM_000492.3(CFTR_i001):p.(Gln525*)			
NM_000492.3:c.1580A>G		NM_000492.3	CFTR_v001	c.1580A>G	n.1712A>G	c.1580A>G	p.(Glu527Gly)	CFTR_v001:c.1580A>G	CFTR_v001:p.(Glu527Gly)		NM_000492.3	NP_000483.3	NM_000492.3(CFTR_v001):c.1580A>G	NM_000492.3(CFTR_i001):p.(Glu527Gly)		EarI,MboII	
NM_000492.3:c.1582G>T		NM_000492.3	CFTR_v001	c.1582G>T	n.1714G>T	c.1582G>T	p.(Glu528*)	CFTR_v001:c.1582G>T	CFTR_v001:p.(Glu528*)		NM_000492.3	NP_000483.3	NM_000492.3(CFTR_v001):c.1582G>T	NM_000492.3(CFTR_i001):p.(Glu528*)		EarI,MboII,MnlI	
NM_000492.3:c.1584G>A		NM_000492.3	CFTR_v001	c.1584G>A	n.1716G>A	c.1584G>A	p.(=)	CFTR_v001:c.1584G>A	CFTR_v001:p.(=)		NM_000492.3	NP_000483.3	NM_000492.3(CFTR_v001):c.1584G>A	NM_000492.3(CFTR_i001):p.(=)	BbsI	EarI,MnlI	
NM_000492.3:c.1585-1G>A	(variantchecker): Intronic position given for a non-genomic reference sequence.	
NM_000492.3:c.1585G>A		NM_000492.3	CFTR_v001	c.1585G>A	n.1717G>A	c.1585G>A	p.(Asp529Asn)	CFTR_v001:c.1585G>A	CFTR_v001:p.(Asp529Asn)		NM_000492.3	NP_000483.3	NM_000492.3(CFTR_v001):c.1585G>A	NM_000492.3(CFTR_i001):p.(Asp529Asn)		MnlI	
NM_000492.3:c.1585-8G>A	(variantchecker): Intronic position given for a non-genomic reference sequence.	
NM_000492.3:c.1585-2A>G	(variantchecker): Intronic position given for a non-genomic reference sequence.	
NM_000492.3:c.1588A>C		NM_000492.3	CFTR_v001	c.1588A>C	n.1720A>C	c.1588A>C	p.(Ile530Leu)	CFTR_v001:c.1588A>C	CFTR_v001:p.(Ile530Leu)		NM_000492.3	NP_000483.3	NM_000492.3(CFTR_v001):c.1588A>C	NM_000492.3(CFTR_i001):p.(Ile530Leu)	AvaII,EcoO109I,PpuMI,Sau96I		
NM_000492.3:c.1611_1612delCA		NM_000492.3	CFTR_v001	c.1611_1612delCA	n.1743_1744del	c.1611_1612del	p.(Asp537Glufs*30)	CFTR_v001:c.1611_1612del	CFTR_v001:p.(Asp537Glufs*30)		NM_000492.3	NP_000483.3	NM_000492.3(CFTR_v001):c.1611_1612del	NM_000492.3(CFTR_i001):p.(Asp537Glufs*30)			
NM_000492.3:c.1624G>T		NM_000492.3	CFTR_v001	c.1624G>T	n.1756G>T	c.1624G>T	p.(Gly542*)	CFTR_v001:c.1624G>T	CFTR_v001:p.(Gly542*)		NM_000492.3	NP_000483.3	NM_000492.3(CFTR_v001):c.1624G>T	NM_000492.3(CFTR_i001):p.(Gly542*)			
NM_000492.3:c.1636_1641delATCACA		NM_000492.3	CFTR_v001	c.1636_1641delATCACA	n.1768_1773del	c.1636_1641del	p.(Ile546_Thr547del)	CFTR_v001:c.1636_1641del	CFTR_v001:p.(Ile546_Thr547del)		NM_000492.3	NP_000483.3	NM_000492.3(CFTR_v001):c.1636_1641del	NM_000492.3(CFTR_i001):p.(Ile546_Thr547del)		BtsIMutI,DraIII,HinfI,TfiI,TspRI	
NM_000492.3:c.1643T>A		NM_000492.3	CFTR_v001	c.1643T>A	n.1775T>A	c.1643T>A	p.(Leu548Gln)	CFTR_v001:c.1643T>A	CFTR_v001:p.(Leu548Gln)		NM_000492.3	NP_000483.3	NM_000492.3(CFTR_v001):c.1643T>A	NM_000492.3(CFTR_i001):p.(Leu548Gln)		BspCNI,BtsIMutI,DdeI,TspRI	
NM_000492.3:c.1646G>A		NM_000492.3	CFTR_v001	c.1646G>A	n.1778G>A	c.1646G>A	p.(Ser549Asn)	CFTR_v001:c.1646G>A	CFTR_v001:p.(Ser549Asn)		NM_000492.3	NP_000483.3	NM_000492.3(CFTR_v001):c.1646G>A	NM_000492.3(CFTR_i001):p.(Ser549Asn)		BspCNI,DdeI,DraIII	
NM_000492.3:c.1647T>G		NM_000492.3	CFTR_v001	c.1647T>G	n.1779T>G	c.1647T>G	p.(Ser549Arg)	CFTR_v001:c.1647T>G	CFTR_v001:p.(Ser549Arg)		NM_000492.3	NP_000483.3	NM_000492.3(CFTR_v001):c.1647T>G	NM_000492.3(CFTR_i001):p.(Ser549Arg)		DraIII	
NM_000492.3:c.1652G>A		NM_000492.3	CFTR_v001	c.1652G>A	n.1784G>A	c.1652G>A	p.(Gly551Asp)	CFTR_v001:c.1652G>A	CFTR_v001:p.(Gly551Asp)		NM_000492.3	NP_000483.3	NM_000492.3(CFTR_v001):c.1652G>A	NM_000492.3(CFTR_i001):p.(Gly551Asp)	BfuCI,DpnI,DpnII,MboI,Sau3AI	HincII,Hpy166II,MnlI	
NM_000492.3:c.1654C>T		NM_000492.3	CFTR_v001	c.1654C>T	n.1786C>T	c.1654C>T	p.(Gln552*)	CFTR_v001:c.1654C>T	CFTR_v001:p.(Gln552*)		NM_000492.3	NP_000483.3	NM_000492.3(CFTR_v001):c.1654C>T	NM_000492.3(CFTR_i001):p.(Gln552*)	HpaI,MseI		
NM_000492.3:c.1657C>T		NM_000492.3	CFTR_v001	c.1657C>T	n.1789C>T	c.1657C>T	p.(Arg553*)	CFTR_v001:c.1657C>T	CFTR_v001:p.(Arg553*)		NM_000492.3	NP_000483.3	NM_000492.3(CFTR_v001):c.1657C>T	NM_000492.3(CFTR_i001):p.(Arg553*)		HincII,Hpy166II	
NM_000492.3:c.1660_1661insA		NM_000492.3	CFTR_v001	c.1660_1661insA	n.1792_1793insA	c.1660_1661insA	p.(Ala554Aspfs*14)	CFTR_v001:c.1660_1661insA	CFTR_v001:p.(Ala554Aspfs*14)		NM_000492.3	NP_000483.3	NM_000492.3(CFTR_v001):c.1660_1661insA	NM_000492.3(CFTR_i001):p.(Ala554Aspfs*14)	BcoDI,BsmAI		
NM_000492.3:c.1666A>G		NM_000492.3	CFTR_v001	c.1666A>G	n.1798A>G	c.1666A>G	p.(Ile556Val)	CFTR_v001:c.1666A>G	CFTR_v001:p.(Ile556Val)		NM_000492.3	NP_000483.3	NM_000492.3(CFTR_v001):c.1666A>G	NM_000492.3(CFTR_i001):p.(Ile556Val)		ApoI,MluCI	
NM_000492.3:c.1673T>C		NM_000492.3	CFTR_v001	c.1673T>C	n.1805T>C	c.1673T>C	p.(Leu558Ser)	CFTR_v001:c.1673T>C	CFTR_v001:p.(Leu558Ser)		NM_000492.3	NP_000483.3	NM_000492.3(CFTR_v001):c.1673T>C	NM_000492.3(CFTR_i001):p.(Leu558Ser)	AcuI,MboII,XmnI		
NM_000492.3:c.1679+1634A>G	(variantchecker): Intronic position given for a non-genomic reference sequence.	
NM_000492.3:c.1679G>C		NM_000492.3	CFTR_v001	c.1679G>C	n.1811G>C	c.1679G>C	p.(Arg560Thr)	CFTR_v001:c.1679G>C	CFTR_v001:p.(Arg560Thr)		NM_000492.3	NP_000483.3	NM_000492.3(CFTR_v001):c.1679G>C	NM_000492.3(CFTR_i001):p.(Arg560Thr)			
NM_000492.3:c.1680-886A>G	(variantchecker): Intronic position given for a non-genomic reference sequence.	
NM_000492.3:c.1680-1G>A	(variantchecker): Intronic position given for a non-genomic reference sequence.	
NM_000492.3:c.1680A>T		NM_000492.3	CFTR_v001	c.1680A>T	n.1812A>T	c.1680A>T	p.(Arg560Ser)	CFTR_v001:c.1680A>T	CFTR_v001:p.(Arg560Ser)		NM_000492.3	NP_000483.3	NM_000492.3(CFTR_v001):c.1680A>T	NM_000492.3(CFTR_i001):p.(Arg560Ser)	BsgI,HpyCH4V		
NM_000492.3:c.1682C>A		NM_000492.3	CFTR_v001	c.1682C>A	n.1814C>A	c.1682C>A	p.(Ala561Glu)	CFTR_v001:c.1682C>A	CFTR_v001:p.(Ala561Glu)		NM_000492.3	NP_000483.3	NM_000492.3(CFTR_v001):c.1682C>A	NM_000492.3(CFTR_i001):p.(Ala561Glu)			
NM_000492.3:c.1682dupC		NM_000492.3	CFTR_v001	c.1682dupC	n.1814dup	c.1682dup	p.(Val562Serfs*6)	CFTR_v001:c.1682dup	CFTR_v001:p.(Val562Serfs*6)		NM_000492.3	NP_000483.3	NM_000492.3(CFTR_v001):c.1682dup	NM_000492.3(CFTR_i001):p.(Val562Serfs*6)	BsrI,CviKI_1,FspEI,LpnPI		
NM_000492.3:c.1684G>A		NM_000492.3	CFTR_v001	c.1684G>A	n.1816G>A	c.1684G>A	p.(Val562Ile)	CFTR_v001:c.1684G>A	CFTR_v001:p.(Val562Ile)		NM_000492.3	NP_000483.3	NM_000492.3(CFTR_v001):c.1684G>A	NM_000492.3(CFTR_i001):p.(Val562Ile)		AccI,BstZ17I,Hpy166II	
NM_000492.3:c.1697C>A		NM_000492.3	CFTR_v001	c.1697C>A	n.1829C>A	c.1697C>A	p.(Ala566Asp)	CFTR_v001:c.1697C>A	CFTR_v001:p.(Ala566Asp)		NM_000492.3	NP_000483.3	NM_000492.3(CFTR_v001):c.1697C>A	NM_000492.3(CFTR_i001):p.(Ala566Asp)		SfaNI	
NM_000492.3:c.1703T>A		NM_000492.3	CFTR_v001	c.1703T>A	n.1835T>A	c.1703T>A	p.(Leu568*)	CFTR_v001:c.1703T>A	CFTR_v001:p.(Leu568*)		NM_000492.3	NP_000483.3	NM_000492.3(CFTR_v001):c.1703T>A	NM_000492.3(CFTR_i001):p.(Leu568*)			
NM_000492.3:c.1704G>T		NM_000492.3	CFTR_v001	c.1704G>T	n.1836G>T	c.1704G>T	p.(Leu568Phe)	CFTR_v001:c.1704G>T	CFTR_v001:p.(Leu568Phe)		NM_000492.3	NP_000483.3	NM_000492.3(CFTR_v001):c.1704G>T	NM_000492.3(CFTR_i001):p.(Leu568Phe)			
NM_000492.3:c.1705T>G		NM_000492.3	CFTR_v001	c.1705T>G	n.1837T>G	c.1705T>G	p.(Tyr569Asp)	CFTR_v001:c.1705T>G	CFTR_v001:p.(Tyr569Asp)		NM_000492.3	NP_000483.3	NM_000492.3(CFTR_v001):c.1705T>G	NM_000492.3(CFTR_i001):p.(Tyr569Asp)			
NM_000492.3:c.1712T>C		NM_000492.3	CFTR_v001	c.1712T>C	n.1844T>C	c.1712T>C	p.(Leu571Ser)	CFTR_v001:c.1712T>C	CFTR_v001:p.(Leu571Ser)		NM_000492.3	NP_000483.3	NM_000492.3(CFTR_v001):c.1712T>C	NM_000492.3(CFTR_i001):p.(Leu571Ser)	Hpy188I		
NM_000492.3:c.1721C>A		NM_000492.3	CFTR_v001	c.1721C>A	n.1853C>A	c.1721C>A	p.(Pro574His)	CFTR_v001:c.1721C>A	CFTR_v001:p.(Pro574His)		NM_000492.3	NP_000483.3	NM_000492.3(CFTR_v001):c.1721C>A	NM_000492.3(CFTR_i001):p.(Pro574His)			
NM_000492.3:c.1724T>A		NM_000492.3	CFTR_v001	c.1724T>A	n.1856T>A	c.1724T>A	p.(Phe575Tyr)	CFTR_v001:c.1724T>A	CFTR_v001:p.(Phe575Tyr)		NM_000492.3	NP_000483.3	NM_000492.3(CFTR_v001):c.1724T>A	NM_000492.3(CFTR_i001):p.(Phe575Tyr)			
NM_000492.3:c.1736A>G		NM_000492.3	CFTR_v001	c.1736A>G	n.1868A>G	c.1736A>G	p.(Asp579Gly)	CFTR_v001:c.1736A>G	CFTR_v001:p.(Asp579Gly)		NM_000492.3	NP_000483.3	NM_000492.3(CFTR_v001):c.1736A>G	NM_000492.3(CFTR_i001):p.(Asp579Gly)	AvrII,BaeI (2),BsaJI,StyI		
NM_000492.3:c.1753G>T		NM_000492.3	CFTR_v001	c.1753G>T	n.1885G>T	c.1753G>T	p.(Glu585*)	CFTR_v001:c.1753G>T	CFTR_v001:p.(Glu585*)		NM_000492.3	NP_000483.3	NM_000492.3(CFTR_v001):c.1753G>T	NM_000492.3(CFTR_i001):p.(Glu585*)			
NM_000492.3:c.1763A>T		NM_000492.3	CFTR_v001	c.1763A>T	n.1895A>T	c.1763A>T	p.(Glu588Val)	CFTR_v001:c.1763A>T	CFTR_v001:p.(Glu588Val)		NM_000492.3	NP_000483.3	NM_000492.3(CFTR_v001):c.1763A>T	NM_000492.3(CFTR_i001):p.(Glu588Val)			
NM_000492.3:c.1766+1G>T	(variantchecker): Intronic position given for a non-genomic reference sequence.	
NM_000492.3:c.1766+5G>T	(variantchecker): Intronic position given for a non-genomic reference sequence.	
NM_000492.3:c.1766+3A>C	(variantchecker): Intronic position given for a non-genomic reference sequence.	
NM_000492.3:c.1826A>G		NM_000492.3	CFTR_v001	c.1826A>G	n.1958A>G	c.1826A>G	p.(His609Arg)	CFTR_v001:c.1826A>G	CFTR_v001:p.(His609Arg)		NM_000492.3	NP_000483.3	NM_000492.3(CFTR_v001):c.1826A>G	NM_000492.3(CFTR_i001):p.(His609Arg)	AclI,HpyCH4IV		
NM_000492.3:c.1826A>T		NM_000492.3	CFTR_v001	c.1826A>T	n.1958A>T	c.1826A>T	p.(His609Leu)	CFTR_v001:c.1826A>T	CFTR_v001:p.(His609Leu)		NM_000492.3	NP_000483.3	NM_000492.3(CFTR_v001):c.1826A>T	NM_000492.3(CFTR_i001):p.(His609Leu)			
NM_000492.3:c.1837G>A		NM_000492.3	CFTR_v001	c.1837G>A	n.1969G>A	c.1837G>A	p.(Ala613Thr)	CFTR_v001:c.1837G>A	CFTR_v001:p.(Ala613Thr)		NM_000492.3	NP_000483.3	NM_000492.3(CFTR_v001):c.1837G>A	NM_000492.3(CFTR_i001):p.(Ala613Thr)		AluI,CviKI_1	
NM_000492.3:c.1841A>G		NM_000492.3	CFTR_v001	c.1841A>G	n.1973A>G	c.1841A>G	p.(Asp614Gly)	CFTR_v001:c.1841A>G	CFTR_v001:p.(Asp614Gly)		NM_000492.3	NP_000483.3	NM_000492.3(CFTR_v001):c.1841A>G	NM_000492.3(CFTR_i001):p.(Asp614Gly)	Cac8I,LpnPI		
NM_000492.3:c.1865G>A		NM_000492.3	CFTR_v001	c.1865G>A	n.1997G>A	c.1865G>A	p.(Gly622Asp)	CFTR_v001:c.1865G>A	CFTR_v001:p.(Gly622Asp)		NM_000492.3	NP_000483.3	NM_000492.3(CFTR_v001):c.1865G>A	NM_000492.3(CFTR_i001):p.(Gly622Asp)	MboII	HpyAV	
NM_000492.3:c.1882G>C		NM_000492.3	CFTR_v001	c.1882G>C	n.2014G>C	c.1882G>C	p.(Gly628Arg)	CFTR_v001:c.1882G>C	CFTR_v001:p.(Gly628Arg)		NM_000492.3	NP_000483.3	NM_000492.3(CFTR_v001):c.1882G>C	NM_000492.3(CFTR_i001):p.(Gly628Arg)		BsmFI	
NM_000492.3:c.1911delG		NM_000492.3	CFTR_v001	c.1911delG	n.2043del	c.1911del	p.(Gln637Hisfs*26)	CFTR_v001:c.1911del	CFTR_v001:p.(Gln637Hisfs*26)		NM_000492.3	NP_000483.3	NM_000492.3(CFTR_v001):c.1911del	NM_000492.3(CFTR_i001):p.(Gln637Hisfs*26)		SfcI	
NM_000492.3:c.1923_1931delCTCAAAACTinsA		NM_000492.3	CFTR_v001	c.1923_1931delCTCAAAACTinsA	n.2055_2063delinsA	c.1923_1931delinsA	p.(Ser641Argfs*5)	CFTR_v001:c.1923_1931delinsA	CFTR_v001:p.(Ser641Argfs*5)		NM_000492.3	NP_000483.3	NM_000492.3(CFTR_v001):c.1923_1931delinsA	NM_000492.3(CFTR_i001):p.(Ser641Argfs*5)		AluI	
NM_000492.3:c.1973_1985del13insAGAAA		NM_000492.3	CFTR_v001	c.1973_1985del13insAGAAA	n.2105_2117delinsAGAAA	c.1973_1985delinsAGAAA	p.(Arg658Lysfs*4)	CFTR_v001:c.1973_1985delinsAGAAA	CFTR_v001:p.(Arg658Lysfs*4)		NM_000492.3	NP_000483.3	NM_000492.3(CFTR_v001):c.1973_1985delinsAGAAA	NM_000492.3(CFTR_i001):p.(Arg658Lysfs*4)		ApoI,MboII,XmnI	
NM_000492.3:c.2012delT		NM_000492.3	CFTR_v001	c.2012delT	n.2144del	c.2012del	p.(Leu671*)	CFTR_v001:c.2012del	CFTR_v001:p.(Leu671*)		NM_000492.3	NP_000483.3	NM_000492.3(CFTR_v001):c.2012del	NM_000492.3(CFTR_i001):p.(Leu671*)			
NM_000492.3:c.2017G>T		NM_000492.3	CFTR_v001	c.2017G>T	n.2149G>T	c.2017G>T	p.(Gly673*)	CFTR_v001:c.2017G>T	CFTR_v001:p.(Gly673*)		NM_000492.3	NP_000483.3	NM_000492.3(CFTR_v001):c.2017G>T	NM_000492.3(CFTR_i001):p.(Gly673*)	MslI	HpyAV	
NM_000492.3:c.2051_2052delAAinsG		NM_000492.3	CFTR_v001	c.2051_2052delAAinsG	n.2183_2184delinsG	c.2051_2052delinsG	p.(Lys684Serfs*38)	CFTR_v001:c.2051_2052delinsG	CFTR_v001:p.(Lys684Serfs*38)		NM_000492.3	NP_000483.3	NM_000492.3(CFTR_v001):c.2051_2052delinsG	NM_000492.3(CFTR_i001):p.(Lys684Serfs*38)			
NM_000492.3:c.2052dupA		NM_000492.3	CFTR_v001	c.2052dupA	n.2184dup	c.2052dup	p.(Gln685Thrfs*4)	CFTR_v001:c.2052dup	CFTR_v001:p.(Gln685Thrfs*4)		NM_000492.3	NP_000483.3	NM_000492.3(CFTR_v001):c.2052dup	NM_000492.3(CFTR_i001):p.(Gln685Thrfs*4)			
NM_000492.3:c.2052delA		NM_000492.3	CFTR_v001	c.2052delA	n.2184del	c.2052del	p.(Lys684Asnfs*38)	CFTR_v001:c.2052del	CFTR_v001:p.(Lys684Asnfs*38)		NM_000492.3	NP_000483.3	NM_000492.3(CFTR_v001):c.2052del	NM_000492.3(CFTR_i001):p.(Lys684Asnfs*38)			
NM_000492.3:c.2053C>T		NM_000492.3	CFTR_v001	c.2053C>T	n.2185C>T	c.2053C>T	p.(Gln685*)	CFTR_v001:c.2053C>T	CFTR_v001:p.(Gln685*)		NM_000492.3	NP_000483.3	NM_000492.3(CFTR_v001):c.2053C>T	NM_000492.3(CFTR_i001):p.(Gln685*)			
NM_000492.3:c.2083dupG		NM_000492.3	CFTR_v001	c.2083dupG	n.2215dup	c.2083dup	p.(Glu695Glyfs*35)	CFTR_v001:c.2083dup	CFTR_v001:p.(Glu695Glyfs*35)		NM_000492.3	NP_000483.3	NM_000492.3(CFTR_v001):c.2083dup	NM_000492.3(CFTR_i001):p.(Glu695Glyfs*35)			
NM_000492.3:c.2089dupA		NM_000492.3	CFTR_v001	c.2089dupA	n.2221dup	c.2089dup	p.(Arg697Lysfs*33)	CFTR_v001:c.2089dup	CFTR_v001:p.(Arg697Lysfs*33)		NM_000492.3	NP_000483.3	NM_000492.3(CFTR_v001):c.2089dup	NM_000492.3(CFTR_i001):p.(Arg697Lysfs*33)			
NM_000492.3:c.2125C>T		NM_000492.3	CFTR_v001	c.2125C>T	n.2257C>T	c.2125C>T	p.(Arg709*)	CFTR_v001:c.2125C>T	CFTR_v001:p.(Arg709*)		NM_000492.3	NP_000483.3	NM_000492.3(CFTR_v001):c.2125C>T	NM_000492.3(CFTR_i001):p.(Arg709*)			
NM_000492.3:c.2128A>T		NM_000492.3	CFTR_v001	c.2128A>T	n.2260A>T	c.2128A>T	p.(Lys710*)	CFTR_v001:c.2128A>T	CFTR_v001:p.(Lys710*)		NM_000492.3	NP_000483.3	NM_000492.3(CFTR_v001):c.2128A>T	NM_000492.3(CFTR_i001):p.(Lys710*)		ApoI,XmnI	
NM_000492.3:c.2157_2166del10insGTAAG		NM_000492.3	CFTR_v001	c.2157_2166del10insGTAAG	n.2289_2298delinsGTAAG	c.2157_2166delinsGTAAG	p.(Gln720*)	CFTR_v001:c.2157_2166delinsGTAAG	CFTR_v001:p.(Gln720*)		NM_000492.3	NP_000483.3	NM_000492.3(CFTR_v001):c.2157_2166delinsGTAAG	NM_000492.3(CFTR_i001):p.(Gln720*)	BslI		
NM_000492.3:c.2175dupA		NM_000492.3	CFTR_v001	c.2175dupA	n.2307dup	c.2175dup	p.(Glu726Argfs*4)	CFTR_v001:c.2175dup	CFTR_v001:p.(Glu726Argfs*4)		NM_000492.3	NP_000483.3	NM_000492.3(CFTR_v001):c.2175dup	NM_000492.3(CFTR_i001):p.(Glu726Argfs*4)		EarI,MboII	
NM_000492.3:c.2188G>T		NM_000492.3	CFTR_v001	c.2188G>T	n.2320G>T	c.2188G>T	p.(Glu730*)	CFTR_v001:c.2188G>T	CFTR_v001:p.(Glu730*)		NM_000492.3	NP_000483.3	NM_000492.3(CFTR_v001):c.2188G>T	NM_000492.3(CFTR_i001):p.(Glu730*)			
NM_000492.3:c.2195T>G		NM_000492.3	CFTR_v001	c.2195T>G	n.2327T>G	c.2195T>G	p.(Leu732*)	CFTR_v001:c.2195T>G	CFTR_v001:p.(Leu732*)		NM_000492.3	NP_000483.3	NM_000492.3(CFTR_v001):c.2195T>G	NM_000492.3(CFTR_i001):p.(Leu732*)	BpuEI,SmlI		
NM_000492.3:c.2215delG		NM_000492.3	CFTR_v001	c.2215delG	n.2347del	c.2215del	p.(Val739Tyrfs*16)	CFTR_v001:c.2215del	CFTR_v001:p.(Val739Tyrfs*16)		NM_000492.3	NP_000483.3	NM_000492.3(CFTR_v001):c.2215del	NM_000492.3(CFTR_i001):p.(Val739Tyrfs*16)		CviQI,RsaI	
NM_000492.3:c.2241_2248delGATACTGC		NM_000492.3	CFTR_v001	c.2241_2248delGATACTGC	n.2373_2380del	c.2241_2248del	p.(Ile748Serfs*28)	CFTR_v001:c.2241_2248del	CFTR_v001:p.(Ile748Serfs*28)		NM_000492.3	NP_000483.3	NM_000492.3(CFTR_v001):c.2241_2248del	NM_000492.3(CFTR_i001):p.(Ile748Serfs*28)	CviKI_1,HaeIII,StuI		
NM_000492.3:c.2249C>T		NM_000492.3	CFTR_v001	c.2249C>T	n.2381C>T	c.2249C>T	p.(Pro750Leu)	CFTR_v001:c.2249C>T	CFTR_v001:p.(Pro750Leu)		NM_000492.3	NP_000483.3	NM_000492.3(CFTR_v001):c.2249C>T	NM_000492.3(CFTR_i001):p.(Pro750Leu)			
NM_000492.3:c.2290C>T		NM_000492.3	CFTR_v001	c.2290C>T	n.2422C>T	c.2290C>T	p.(Arg764*)	CFTR_v001:c.2290C>T	CFTR_v001:p.(Arg764*)		NM_000492.3	NP_000483.3	NM_000492.3(CFTR_v001):c.2290C>T	NM_000492.3(CFTR_i001):p.(Arg764*)	CviAII,FatI,NlaIII		
NM_000492.3:c.2335C>T		NM_000492.3	CFTR_v001	c.2335C>T	n.2467C>T	c.2335C>T	p.(Gln779*)	CFTR_v001:c.2335C>T	CFTR_v001:p.(Gln779*)		NM_000492.3	NP_000483.3	NM_000492.3(CFTR_v001):c.2335C>T	NM_000492.3(CFTR_i001):p.(Gln779*)		BsaJI,StyI	
NM_000492.3:c.2353C>T		NM_000492.3	CFTR_v001	c.2353C>T	n.2485C>T	c.2353C>T	p.(Arg785*)	CFTR_v001:c.2353C>T	CFTR_v001:p.(Arg785*)		NM_000492.3	NP_000483.3	NM_000492.3(CFTR_v001):c.2353C>T	NM_000492.3(CFTR_i001):p.(Arg785*)	BtsIMutI,TspRI	HphI	
NM_000492.3:c.2417A>G		NM_000492.3	CFTR_v001	c.2417A>G	n.2549A>G	c.2417A>G	p.(Asp806Gly)	CFTR_v001:c.2417A>G	CFTR_v001:p.(Asp806Gly)		NM_000492.3	NP_000483.3	NM_000492.3(CFTR_v001):c.2417A>G	NM_000492.3(CFTR_i001):p.(Asp806Gly)	BmrI		
NM_000492.3:c.2421A>G		NM_000492.3	CFTR_v001	c.2421A>G	n.2553A>G	c.2421A>G	p.(Ile807Met)	CFTR_v001:c.2421A>G	CFTR_v001:p.(Ile807Met)		NM_000492.3	NP_000483.3	NM_000492.3(CFTR_v001):c.2421A>G	NM_000492.3(CFTR_i001):p.(Ile807Met)			
NM_000492.3:c.2446delA		NM_000492.3	CFTR_v001	c.2446delA	n.2578del	c.2446del	p.(Thr816Leufs*5)	CFTR_v001:c.2446del	CFTR_v001:p.(Thr816Leufs*5)		NM_000492.3	NP_000483.3	NM_000492.3(CFTR_v001):c.2446del	NM_000492.3(CFTR_i001):p.(Thr816Leufs*5)			
NM_000492.3:c.2491G>T		NM_000492.3	CFTR_v001	c.2491G>T	n.2623G>T	c.2491G>T	p.(Glu831*)	CFTR_v001:c.2491G>T	CFTR_v001:p.(Glu831*)		NM_000492.3	NP_000483.3	NM_000492.3(CFTR_v001):c.2491G>T	NM_000492.3(CFTR_i001):p.(Glu831*)			
NM_000492.3:c.2506G>T		NM_000492.3	CFTR_v001	c.2506G>T	n.2638G>T	c.2506G>T	p.(Asp836Tyr)	CFTR_v001:c.2506G>T	CFTR_v001:p.(Asp836Tyr)		NM_000492.3	NP_000483.3	NM_000492.3(CFTR_v001):c.2506G>T	NM_000492.3(CFTR_i001):p.(Asp836Tyr)			
NM_000492.3:c.2537G>A		NM_000492.3	CFTR_v001	c.2537G>A	n.2669G>A	c.2537G>A	p.(Trp846*)	CFTR_v001:c.2537G>A	CFTR_v001:p.(Trp846*)		NM_000492.3	NP_000483.3	NM_000492.3(CFTR_v001):c.2537G>A	NM_000492.3(CFTR_i001):p.(Trp846*)		CviAII,FatI,NlaIII	
NM_000492.3:c.2547C>A		NM_000492.3	CFTR_v001	c.2547C>A	n.2679C>A	c.2547C>A	p.(Tyr849*)	CFTR_v001:c.2547C>A	CFTR_v001:p.(Tyr849*)		NM_000492.3	NP_000483.3	NM_000492.3(CFTR_v001):c.2547C>A	NM_000492.3(CFTR_i001):p.(Tyr849*)		FspEI,HpyAV	
NM_000492.3:c.2551C>T		NM_000492.3	CFTR_v001	c.2551C>T	n.2683C>T	c.2551C>T	p.(Arg851*)	CFTR_v001:c.2551C>T	CFTR_v001:p.(Arg851*)		NM_000492.3	NP_000483.3	NM_000492.3(CFTR_v001):c.2551C>T	NM_000492.3(CFTR_i001):p.(Arg851*)		HpyAV,TaqI	
NM_000492.3:c.2552G>T		NM_000492.3	CFTR_v001	c.2552G>T	n.2684G>T	c.2552G>T	p.(Arg851Leu)	CFTR_v001:c.2552G>T	CFTR_v001:p.(Arg851Leu)		NM_000492.3	NP_000483.3	NM_000492.3(CFTR_v001):c.2552G>T	NM_000492.3(CFTR_i001):p.(Arg851Leu)		TaqI	
NM_000492.3:c.2554dupT		NM_000492.3	CFTR_v001	c.2554dupT	n.2686dup	c.2554dup	p.(Tyr852Leufs*44)	CFTR_v001:c.2554dup	CFTR_v001:p.(Tyr852Leufs*44)		NM_000492.3	NP_000483.3	NM_000492.3(CFTR_v001):c.2554dup	NM_000492.3(CFTR_i001):p.(Tyr852Leufs*44)			
NM_000492.3:c.2557A>T		NM_000492.3	CFTR_v001	c.2557A>T	n.2689A>T	c.2557A>T	p.(Ile853Phe)	CFTR_v001:c.2557A>T	CFTR_v001:p.(Ile853Phe)		NM_000492.3	NP_000483.3	NM_000492.3(CFTR_v001):c.2557A>T	NM_000492.3(CFTR_i001):p.(Ile853Phe)			
NM_000492.3:c.2563G>A		NM_000492.3	CFTR_v001	c.2563G>A	n.2695G>A	c.2563G>A	p.(Val855Ile)	CFTR_v001:c.2563G>A	CFTR_v001:p.(Val855Ile)		NM_000492.3	NP_000483.3	NM_000492.3(CFTR_v001):c.2563G>A	NM_000492.3(CFTR_i001):p.(Val855Ile)		Hpy166II,HpyCH4III	
NM_000492.3:c.2583delT		NM_000492.3	CFTR_v001	c.2583delT	n.2715del	c.2583del	p.(Phe861Leufs*3)	CFTR_v001:c.2583del	CFTR_v001:p.(Phe861Leufs*3)		NM_000492.3	NP_000483.3	NM_000492.3(CFTR_v001):c.2583del	NM_000492.3(CFTR_i001):p.(Phe861Leufs*3)			
NM_000492.3:c.2601dupA		NM_000492.3	CFTR_v001	c.2601dupA	n.2733dup	c.2601dup	p.(Val868Serfs*28)	CFTR_v001:c.2601dup	CFTR_v001:p.(Val868Serfs*28)		NM_000492.3	NP_000483.3	NM_000492.3(CFTR_v001):c.2601dup	NM_000492.3(CFTR_i001):p.(Val868Serfs*28)	AflII,MseI,SmlI	DdeI	
NM_000492.3:c.2619+3A>G	(variantchecker): Intronic position given for a non-genomic reference sequence.	
NM_000492.3:c.2619+1355_2908+243del7613	(variantchecker): Intronic position given for a non-genomic reference sequence.	
NM_000492.3:c.2620-1_2624delGGTGGCinsTTG	(variantchecker): Intronic position given for a non-genomic reference sequence.	
NM_000492.3:c.2657+5G>A	(variantchecker): Intronic position given for a non-genomic reference sequence.	
NM_000492.3:c.2657+2_2657+3insA	(variantchecker): Intronic position given for a non-genomic reference sequence.	
NM_000492.3:c.2658-2A>G	(variantchecker): Intronic position given for a non-genomic reference sequence.	
NM_000492.3:c.2668C>T		NM_000492.3	CFTR_v001	c.2668C>T	n.2800C>T	c.2668C>T	p.(Gln890*)	CFTR_v001:c.2668C>T	CFTR_v001:p.(Gln890*)		NM_000492.3	NP_000483.3	NM_000492.3(CFTR_v001):c.2668C>T	NM_000492.3(CFTR_i001):p.(Gln890*)	MseI	EarI,Hpy188III,MboII	
NM_000492.3:c.2735C>T		NM_000492.3	CFTR_v001	c.2735C>T	n.2867C>T	c.2735C>T	p.(Ser912Leu)	CFTR_v001:c.2735C>T	CFTR_v001:p.(Ser912Leu)		NM_000492.3	NP_000483.3	NM_000492.3(CFTR_v001):c.2735C>T	NM_000492.3(CFTR_i001):p.(Ser912Leu)			
NM_000492.3:c.2737_2738insG		NM_000492.3	CFTR_v001	c.2737_2738insG	n.2869_2870insG	c.2737_2738insG	p.(Tyr913*)	CFTR_v001:c.2737_2738insG	CFTR_v001:p.(Tyr913*)		NM_000492.3	NP_000483.3	NM_000492.3(CFTR_v001):c.2737_2738insG	NM_000492.3(CFTR_i001):p.(Tyr913*)	Hpy188III		
NM_000492.3:c.2739T>A		NM_000492.3	CFTR_v001	c.2739T>A	n.2871T>A	c.2739T>A	p.(Tyr913*)	CFTR_v001:c.2739T>A	CFTR_v001:p.(Tyr913*)		NM_000492.3	NP_000483.3	NM_000492.3(CFTR_v001):c.2739T>A	NM_000492.3(CFTR_i001):p.(Tyr913*)			
NM_000492.3:c.2776_2777delTT		NM_000492.3	CFTR_v001	c.2776_2777delTT	n.2908_2909del	c.2776_2777del	p.(Leu926Alafs*48)	CFTR_v001:c.2776_2777del	CFTR_v001:p.(Leu926Alafs*48)		NM_000492.3	NP_000483.3	NM_000492.3(CFTR_v001):c.2776_2777del	NM_000492.3(CFTR_i001):p.(Leu926Alafs*48)	BtsI,BtsIMutI,MwoI,TspRI		
NM_000492.3:c.2780T>C		NM_000492.3	CFTR_v001	c.2780T>C	n.2912T>C	c.2780T>C	p.(Leu927Pro)	CFTR_v001:c.2780T>C	CFTR_v001:p.(Leu927Pro)		NM_000492.3	NP_000483.3	NM_000492.3(CFTR_v001):c.2780T>C	NM_000492.3(CFTR_i001):p.(Leu927Pro)	BslI,LpnPI		
NM_000492.3:c.2797A>G		NM_000492.3	CFTR_v001	c.2797A>G	n.2929A>G	c.2797A>G	p.(Arg933Gly)	CFTR_v001:c.2797A>G	CFTR_v001:p.(Arg933Gly)		NM_000492.3	NP_000483.3	NM_000492.3(CFTR_v001):c.2797A>G	NM_000492.3(CFTR_i001):p.(Arg933Gly)		AcuI	
NM_000492.3:c.2799A>T		NM_000492.3	CFTR_v001	c.2799A>T	n.2931A>T	c.2799A>T	p.(Arg933Ser)	CFTR_v001:c.2799A>T	CFTR_v001:p.(Arg933Ser)		NM_000492.3	NP_000483.3	NM_000492.3(CFTR_v001):c.2799A>T	NM_000492.3(CFTR_i001):p.(Arg933Ser)		Hpy188I,MnlI	
NM_000492.3:c.2813T>G		NM_000492.3	CFTR_v001	c.2813T>G	n.2945T>G	c.2813T>G	p.(Val938Gly)	CFTR_v001:c.2813T>G	CFTR_v001:p.(Val938Gly)		NM_000492.3	NP_000483.3	NM_000492.3(CFTR_v001):c.2813T>G	NM_000492.3(CFTR_i001):p.(Val938Gly)	BmrI	HpyCH4V	
NM_000492.3:c.2819_2823delCTCTA		NM_000492.3	CFTR_v001	c.2819_2823delCTCTA	n.2951_2955del	c.2819_2823del	p.(Thr940Asnfs*33)	CFTR_v001:c.2819_2823del	CFTR_v001:p.(Thr940Asnfs*33)		NM_000492.3	NP_000483.3	NM_000492.3(CFTR_v001):c.2819_2823del	NM_000492.3(CFTR_i001):p.(Thr940Asnfs*33)			
NM_000492.3:c.2834C>T		NM_000492.3	CFTR_v001	c.2834C>T	n.2966C>T	c.2834C>T	p.(Ser945Leu)	CFTR_v001:c.2834C>T	CFTR_v001:p.(Ser945Leu)		NM_000492.3	NP_000483.3	NM_000492.3(CFTR_v001):c.2834C>T	NM_000492.3(CFTR_i001):p.(Ser945Leu)		TaqI	
NM_000492.3:c.2856G>C		NM_000492.3	CFTR_v001	c.2856G>C	n.2988G>C	c.2856G>C	p.(Met952Ile)	CFTR_v001:c.2856G>C	CFTR_v001:p.(Met952Ile)		NM_000492.3	NP_000483.3	NM_000492.3(CFTR_v001):c.2856G>C	NM_000492.3(CFTR_i001):p.(Met952Ile)			
NM_000492.3:c.2900T>C		NM_000492.3	CFTR_v001	c.2900T>C	n.3032T>C	c.2900T>C	p.(Leu967Ser)	CFTR_v001:c.2900T>C	CFTR_v001:p.(Leu967Ser)		NM_000492.3	NP_000483.3	NM_000492.3(CFTR_v001):c.2900T>C	NM_000492.3(CFTR_i001):p.(Leu967Ser)	BmgBI,Hpy99I,TaqI		
NM_000492.3:c.2908G>C		NM_000492.3	CFTR_v001	c.2908G>C	n.3040G>C	c.2908G>C	p.(Gly970Arg)	CFTR_v001:c.2908G>C	CFTR_v001:p.(Gly970Arg)		NM_000492.3	NP_000483.3	NM_000492.3(CFTR_v001):c.2908G>C	NM_000492.3(CFTR_i001):p.(Gly970Arg)	BsaAI,PmlI	BfuAI,BspMI,LpnPI	
NM_000492.3:c.2909-15T>G	(variantchecker): Intronic position given for a non-genomic reference sequence.	
NM_000492.3:c.2909-13del7	(variantchecker): Intronic position given for a non-genomic reference sequence.	
NM_000492.3:c.2909G>A		NM_000492.3	CFTR_v001	c.2909G>A	n.3041G>A	c.2909G>A	p.(Gly970Asp)	CFTR_v001:c.2909G>A	CFTR_v001:p.(Gly970Asp)		NM_000492.3	NP_000483.3	NM_000492.3(CFTR_v001):c.2909G>A	NM_000492.3(CFTR_i001):p.(Gly970Asp)	BccI	BfuAI,BspMI,LpnPI	
NM_000492.3:c.2918T>C		NM_000492.3	CFTR_v001	c.2918T>C	n.3050T>C	c.2918T>C	p.(Leu973Pro)	CFTR_v001:c.2918T>C	CFTR_v001:p.(Leu973Pro)		NM_000492.3	NP_000483.3	NM_000492.3(CFTR_v001):c.2918T>C	NM_000492.3(CFTR_i001):p.(Leu973Pro)		MseI	
NM_000492.3:c.2930C>T		NM_000492.3	CFTR_v001	c.2930C>T	n.3062C>T	c.2930C>T	p.(Ser977Phe)	CFTR_v001:c.2930C>T	CFTR_v001:p.(Ser977Phe)		NM_000492.3	NP_000483.3	NM_000492.3(CFTR_v001):c.2930C>T	NM_000492.3(CFTR_i001):p.(Ser977Phe)	MboII		
NM_000492.3:c.2988+1G>A	(variantchecker): Intronic position given for a non-genomic reference sequence.	
NM_000492.3:c.2988+1173_3468+2111del	(variantchecker): Intronic position given for a non-genomic reference sequence.	
NM_000492.3:c.2989-1G>A	(variantchecker): Intronic position given for a non-genomic reference sequence.	
NM_000492.3:c.2989+1G>A	(variantchecker): Intronic position given for a non-genomic reference sequence.	
NM_000492.3:c.2989_3367del	(variantchecker): Variant hits one or more splice sites in selected transcript.	NM_000492.3	CFTR_v001	c.2989_3367del	n.3121_3499del	c.2989_3367del	p.(Leu997Glufs*11)	CFTR_v001:c.2989_3367del	CFTR_v001:p.(Leu997Glufs*11)		NM_000492.3	NP_000483.3	NM_000492.3(CFTR_v001):c.2989_3367del	NM_000492.3(CFTR_i001):p.(Leu997Glufs*11)	BstNI,PspGI,ScrFI,StyD4I	AcuI,AluI (3),ApeKI,ApoI,AseI,BbvI,BceAI,BsrDI,BsrI (4),BtsI,BtsIMutI (3),CviKI_1 (5),CviQI,DraIII,Fnu4HI,HhaI,HinP1I,HincII,HindIII,HinfI (2),Hpy166II,Hpy188I (3),HpyCH4III,HpyCH4V,MboII,MluCI (3),MlyI,MnlI (2),MseI (3),MwoI,NlaIV,PleI,RsaI,SfcI,TfiI,TseI,TspRI (3)	
NM_000492.3:c.2989_3468del	(variantchecker): Variant hits one or more splice sites in selected transcript.	NM_000492.3	CFTR_v001	c.2989_3468del	n.3121_3600del	c.2989_3468del	p.(Leu997_Leu1156del)	CFTR_v001:c.2989_3468del	CFTR_v001:p.(Leu997_Leu1156del)		NM_000492.3	NP_000483.3	NM_000492.3(CFTR_v001):c.2989_3468del	NM_000492.3(CFTR_i001):p.(Leu997_Leu1156del)		AcuI,AluI (4),ApeKI,ApoI,AseI,BbvI,BceAI,BpmI,BslI,BspHI,BsrDI (2),BsrI (4),BtsI (2),BtsIMutI (4),CviAII (2),CviQI (2),DraIII,EarI,FatI (2),Fnu4HI,HhaI,HinP1I,HincII,HindIII,Hpy166II (2),Hpy188I (3),HpyAV (5),HpyCH4III,HpyCH4V (2),MboII (2),MluCI (3),MlyI,MnlI (2),MseI (3),MwoI,NlaIII (2),NlaIV,PleI,RsaI (2),SfcI,TfiI,TseI,TspRI (4),XcmI	
NM_000492.3:c.2991G>C		NM_000492.3	CFTR_v001	c.2991G>C	n.3123G>C	c.2991G>C	p.(Leu997Phe)	CFTR_v001:c.2991G>C	CFTR_v001:p.(Leu997Phe)		NM_000492.3	NP_000483.3	NM_000492.3(CFTR_v001):c.2991G>C	NM_000492.3(CFTR_i001):p.(Leu997Phe)			
NM_000492.3:c.2998delA		NM_000492.3	CFTR_v001	c.2998delA	n.3130del	c.2998del	p.(Ile1000Leufs*2)	CFTR_v001:c.2998del	CFTR_v001:p.(Ile1000Leufs*2)		NM_000492.3	NP_000483.3	NM_000492.3(CFTR_v001):c.2998del	NM_000492.3(CFTR_i001):p.(Ile1000Leufs*2)		AseI,MluCI,MseI	
NM_000492.3:c.3038C>T		NM_000492.3	CFTR_v001	c.3038C>T	n.3170C>T	c.3038C>T	p.(Pro1013Leu)	CFTR_v001:c.3038C>T	CFTR_v001:p.(Pro1013Leu)		NM_000492.3	NP_000483.3	NM_000492.3(CFTR_v001):c.3038C>T	NM_000492.3(CFTR_i001):p.(Pro1013Leu)		FspEI	
NM_000492.3:c.3039delC		NM_000492.3	CFTR_v001	c.3039delC	n.3171del	c.3039del	p.(Tyr1014Thrfs*9)	CFTR_v001:c.3039del	CFTR_v001:p.(Tyr1014Thrfs*9)		NM_000492.3	NP_000483.3	NM_000492.3(CFTR_v001):c.3039del	NM_000492.3(CFTR_i001):p.(Tyr1014Thrfs*9)			
NM_000492.3:c.3041A>G		NM_000492.3	CFTR_v001	c.3041A>G	n.3173A>G	c.3041A>G	p.(Tyr1014Cys)	CFTR_v001:c.3041A>G	CFTR_v001:p.(Tyr1014Cys)		NM_000492.3	NP_000483.3	NM_000492.3(CFTR_v001):c.3041A>G	NM_000492.3(CFTR_i001):p.(Tyr1014Cys)	LpnPI,SfaNI		
NM_000492.3:c.3067_3072delATAGTG		NM_000492.3	CFTR_v001	c.3067_3072delATAGTG	n.3199_3204del	c.3067_3072del	p.(Ile1023_Val1024del)	CFTR_v001:c.3067_3072del	CFTR_v001:p.(Ile1023_Val1024del)		NM_000492.3	NP_000483.3	NM_000492.3(CFTR_v001):c.3067_3072del	NM_000492.3(CFTR_i001):p.(Ile1023_Val1024del)			
NM_000492.3:c.3083T>G		NM_000492.3	CFTR_v001	c.3083T>G	n.3215T>G	c.3083T>G	p.(Met1028Arg)	CFTR_v001:c.3083T>G	CFTR_v001:p.(Met1028Arg)		NM_000492.3	NP_000483.3	NM_000492.3(CFTR_v001):c.3083T>G	NM_000492.3(CFTR_i001):p.(Met1028Arg)			
NM_000492.3:c.3095A>G		NM_000492.3	CFTR_v001	c.3095A>G	n.3227A>G	c.3095A>G	p.(Tyr1032Cys)	CFTR_v001:c.3095A>G	CFTR_v001:p.(Tyr1032Cys)		NM_000492.3	NP_000483.3	NM_000492.3(CFTR_v001):c.3095A>G	NM_000492.3(CFTR_i001):p.(Tyr1032Cys)	CviAII,FatI,NlaIII,NspI		
NM_000492.3:c.3107C>A		NM_000492.3	CFTR_v001	c.3107C>A	n.3239C>A	c.3107C>A	p.(Thr1036Asn)	CFTR_v001:c.3107C>A	CFTR_v001:p.(Thr1036Asn)		NM_000492.3	NP_000483.3	NM_000492.3(CFTR_v001):c.3107C>A	NM_000492.3(CFTR_i001):p.(Thr1036Asn)			
NM_000492.3:c.3107C>T		NM_000492.3	CFTR_v001	c.3107C>T	n.3239C>T	c.3107C>T	p.(Thr1036Ile)	CFTR_v001:c.3107C>T	CFTR_v001:p.(Thr1036Ile)		NM_000492.3	NP_000483.3	NM_000492.3(CFTR_v001):c.3107C>T	NM_000492.3(CFTR_i001):p.(Thr1036Ile)			
NM_000492.3:c.3121-2A>G	(variantchecker): Intronic position given for a non-genomic reference sequence.	
NM_000492.3:c.3124C>T		NM_000492.3	CFTR_v001	c.3124C>T	n.3256C>T	c.3124C>T	p.(Gln1042*)	CFTR_v001:c.3124C>T	CFTR_v001:p.(Gln1042*)		NM_000492.3	NP_000483.3	NM_000492.3(CFTR_v001):c.3124C>T	NM_000492.3(CFTR_i001):p.(Gln1042*)			
NM_000492.3:c.3140-26A>G	(variantchecker): Intronic position given for a non-genomic reference sequence.	
NM_000492.3:c.3154T>G		NM_000492.3	CFTR_v001	c.3154T>G	n.3286T>G	c.3154T>G	p.(Phe1052Val)	CFTR_v001:c.3154T>G	CFTR_v001:p.(Phe1052Val)		NM_000492.3	NP_000483.3	NM_000492.3(CFTR_v001):c.3154T>G	NM_000492.3(CFTR_i001):p.(Phe1052Val)	MfeI,Tsp45I		
NM_000492.3:c.3160C>G		NM_000492.3	CFTR_v001	c.3160C>G	n.3292C>G	c.3160C>G	p.(His1054Asp)	CFTR_v001:c.3160C>G	CFTR_v001:p.(His1054Asp)		NM_000492.3	NP_000483.3	NM_000492.3(CFTR_v001):c.3160C>G	NM_000492.3(CFTR_i001):p.(His1054Asp)	BfuCI,BtsIMutI,DpnI,DpnII,MboI,Sau3AI,TspRI		
NM_000492.3:c.3181G>A		NM_000492.3	CFTR_v001	c.3181G>A	n.3313G>A	c.3181G>A	p.(Gly1061Arg)	CFTR_v001:c.3181G>A	CFTR_v001:p.(Gly1061Arg)		NM_000492.3	NP_000483.3	NM_000492.3(CFTR_v001):c.3181G>A	NM_000492.3(CFTR_i001):p.(Gly1061Arg)			
NM_000492.3:c.3194T>C		NM_000492.3	CFTR_v001	c.3194T>C	n.3326T>C	c.3194T>C	p.(Leu1065Pro)	CFTR_v001:c.3194T>C	CFTR_v001:p.(Leu1065Pro)		NM_000492.3	NP_000483.3	NM_000492.3(CFTR_v001):c.3194T>C	NM_000492.3(CFTR_i001):p.(Leu1065Pro)	BssSI,MnlI		
NM_000492.3:c.3196C>T		NM_000492.3	CFTR_v001	c.3196C>T	n.3328C>T	c.3196C>T	p.(Arg1066Cys)	CFTR_v001:c.3196C>T	CFTR_v001:p.(Arg1066Cys)		NM_000492.3	NP_000483.3	NM_000492.3(CFTR_v001):c.3196C>T	NM_000492.3(CFTR_i001):p.(Arg1066Cys)			
NM_000492.3:c.3197G>A		NM_000492.3	CFTR_v001	c.3197G>A	n.3329G>A	c.3197G>A	p.(Arg1066His)	CFTR_v001:c.3197G>A	CFTR_v001:p.(Arg1066His)		NM_000492.3	NP_000483.3	NM_000492.3(CFTR_v001):c.3197G>A	NM_000492.3(CFTR_i001):p.(Arg1066His)	CviAII,FatI,NlaIII	DraIII	
NM_000492.3:c.3205G>A		NM_000492.3	CFTR_v001	c.3205G>A	n.3337G>A	c.3205G>A	p.(Gly1069Arg)	CFTR_v001:c.3205G>A	CFTR_v001:p.(Gly1069Arg)		NM_000492.3	NP_000483.3	NM_000492.3(CFTR_v001):c.3205G>A	NM_000492.3(CFTR_i001):p.(Gly1069Arg)	AcuI		
NM_000492.3:c.3208C>T		NM_000492.3	CFTR_v001	c.3208C>T	n.3340C>T	c.3208C>T	p.(Arg1070Trp)	CFTR_v001:c.3208C>T	CFTR_v001:p.(Arg1070Trp)		NM_000492.3	NP_000483.3	NM_000492.3(CFTR_v001):c.3208C>T	NM_000492.3(CFTR_i001):p.(Arg1070Trp)	BccI,BtsCI,FokI	BceAI	
NM_000492.3:c.3209G>A		NM_000492.3	CFTR_v001	c.3209G>A	n.3341G>A	c.3209G>A	p.(Arg1070Gln)	CFTR_v001:c.3209G>A	CFTR_v001:p.(Arg1070Gln)		NM_000492.3	NP_000483.3	NM_000492.3(CFTR_v001):c.3209G>A	NM_000492.3(CFTR_i001):p.(Arg1070Gln)		BceAI,BslI	
NM_000492.3:c.3212A>C		NM_000492.3	CFTR_v001	c.3212A>C	n.3344A>C	c.3212A>C	p.(Gln1071Pro)	CFTR_v001:c.3212A>C	CFTR_v001:p.(Gln1071Pro)		NM_000492.3	NP_000483.3	NM_000492.3(CFTR_v001):c.3212A>C	NM_000492.3(CFTR_i001):p.(Gln1071Pro)	AciI,BsiEI,EaeI,EagI,HaeIII	ApeKI,BbvI,TseI	
NM_000492.3:c.3222T>A		NM_000492.3	CFTR_v001	c.3222T>A	n.3354T>A	c.3222T>A	p.(Phe1074Leu)	CFTR_v001:c.3222T>A	CFTR_v001:p.(Phe1074Leu)		NM_000492.3	NP_000483.3	NM_000492.3(CFTR_v001):c.3222T>A	NM_000492.3(CFTR_i001):p.(Phe1074Leu)	DdeI		
NM_000492.3:c.3230T>C		NM_000492.3	CFTR_v001	c.3230T>C	n.3362T>C	c.3230T>C	p.(Leu1077Pro)	CFTR_v001:c.3230T>C	CFTR_v001:p.(Leu1077Pro)		NM_000492.3	NP_000483.3	NM_000492.3(CFTR_v001):c.3230T>C	NM_000492.3(CFTR_i001):p.(Leu1077Pro)			
NM_000492.3:c.3254A>G		NM_000492.3	CFTR_v001	c.3254A>G	n.3386A>G	c.3254A>G	p.(His1085Arg)	CFTR_v001:c.3254A>G	CFTR_v001:p.(His1085Arg)		NM_000492.3	NP_000483.3	NM_000492.3(CFTR_v001):c.3254A>G	NM_000492.3(CFTR_i001):p.(His1085Arg)	BsaAI,HpyCH4IV,SnaBI		
NM_000492.3:c.3259G>C		NM_000492.3	CFTR_v001	c.3259G>C	n.3391G>C	c.3259G>C	p.(Ala1087Pro)	CFTR_v001:c.3259G>C	CFTR_v001:p.(Ala1087Pro)		NM_000492.3	NP_000483.3	NM_000492.3(CFTR_v001):c.3259G>C	NM_000492.3(CFTR_i001):p.(Ala1087Pro)			
NM_000492.3:c.3266G>A		NM_000492.3	CFTR_v001	c.3266G>A	n.3398G>A	c.3266G>A	p.(Trp1089*)	CFTR_v001:c.3266G>A	CFTR_v001:p.(Trp1089*)		NM_000492.3	NP_000483.3	NM_000492.3(CFTR_v001):c.3266G>A	NM_000492.3(CFTR_i001):p.(Trp1089*)	BfaI,SpeI	BsrI	
NM_000492.3:c.3274T>C		NM_000492.3	CFTR_v001	c.3274T>C	n.3406T>C	c.3274T>C	p.(Tyr1092His)	CFTR_v001:c.3274T>C	CFTR_v001:p.(Tyr1092His)		NM_000492.3	NP_000483.3	NM_000492.3(CFTR_v001):c.3274T>C	NM_000492.3(CFTR_i001):p.(Tyr1092His)	HpyCH4V	CviQI,RsaI	
NM_000492.3:c.3275A>G		NM_000492.3	CFTR_v001	c.3275A>G	n.3407A>G	c.3275A>G	p.(Tyr1092Cys)	CFTR_v001:c.3275A>G	CFTR_v001:p.(Tyr1092Cys)		NM_000492.3	NP_000483.3	NM_000492.3(CFTR_v001):c.3275A>G	NM_000492.3(CFTR_i001):p.(Tyr1092Cys)		CviQI,RsaI	
NM_000492.3:c.3276C>A		NM_000492.3	CFTR_v001	c.3276C>A	n.3408C>A	c.3276C>A	p.(Tyr1092*)	CFTR_v001:c.3276C>A	CFTR_v001:p.(Tyr1092*)		NM_000492.3	NP_000483.3	NM_000492.3(CFTR_v001):c.3276C>A	NM_000492.3(CFTR_i001):p.(Tyr1092*)	HpyCH4III	CviQI,RsaI	
NM_000492.3:c.3297C>A		NM_000492.3	CFTR_v001	c.3297C>A	n.3429C>A	c.3297C>A	p.(Phe1099Leu)	CFTR_v001:c.3297C>A	CFTR_v001:p.(Phe1099Leu)		NM_000492.3	NP_000483.3	NM_000492.3(CFTR_v001):c.3297C>A	NM_000492.3(CFTR_i001):p.(Phe1099Leu)		NlaIV	
NM_000492.3:c.3299A>C		NM_000492.3	CFTR_v001	c.3299A>C	n.3431A>C	c.3299A>C	p.(Gln1100Pro)	CFTR_v001:c.3299A>C	CFTR_v001:p.(Gln1100Pro)		NM_000492.3	NP_000483.3	NM_000492.3(CFTR_v001):c.3299A>C	NM_000492.3(CFTR_i001):p.(Gln1100Pro)			
NM_000492.3:c.3302T>A		NM_000492.3	CFTR_v001	c.3302T>A	n.3434T>A	c.3302T>A	p.(Met1101Lys)	CFTR_v001:c.3302T>A	CFTR_v001:p.(Met1101Lys)		NM_000492.3	NP_000483.3	NM_000492.3(CFTR_v001):c.3302T>A	NM_000492.3(CFTR_i001):p.(Met1101Lys)			
NM_000492.3:c.3368-2A>G	(variantchecker): Intronic position given for a non-genomic reference sequence.	
NM_000492.3:c.3368-19C>T	(variantchecker): Intronic position given for a non-genomic reference sequence.	
NM_000492.3:c.3371_3373delAAG		NM_000492.3	CFTR_v001	c.3371_3373delAAG	n.3503_3505del	c.3371_3373del	p.(Glu1124del)	CFTR_v001:c.3371_3373del	CFTR_v001:p.(Glu1124del)		NM_000492.3	NP_000483.3	NM_000492.3(CFTR_v001):c.3371_3373del	NM_000492.3(CFTR_i001):p.(Glu1124del)	BseRI,MnlI		
NM_000492.3:c.3380G>A		NM_000492.3	CFTR_v001	c.3380G>A	n.3512G>A	c.3380G>A	p.(Gly1127Glu)	CFTR_v001:c.3380G>A	CFTR_v001:p.(Gly1127Glu)		NM_000492.3	NP_000483.3	NM_000492.3(CFTR_v001):c.3380G>A	NM_000492.3(CFTR_i001):p.(Gly1127Glu)		EarI	
NM_000492.3:c.3389G>C		NM_000492.3	CFTR_v001	c.3389G>C	n.3521G>C	c.3389G>C	p.(Gly1130Ala)	CFTR_v001:c.3389G>C	CFTR_v001:p.(Gly1130Ala)		NM_000492.3	NP_000483.3	NM_000492.3(CFTR_v001):c.3389G>C	NM_000492.3(CFTR_i001):p.(Gly1130Ala)			
NM_000492.3:c.3406G>A		NM_000492.3	CFTR_v001	c.3406G>A	n.3538G>A	c.3406G>A	p.(Ala1136Thr)	CFTR_v001:c.3406G>A	CFTR_v001:p.(Ala1136Thr)		NM_000492.3	NP_000483.3	NM_000492.3(CFTR_v001):c.3406G>A	NM_000492.3(CFTR_i001):p.(Ala1136Thr)	MseI	CviKI_1	
NM_000492.3:c.3409A>G		NM_000492.3	CFTR_v001	c.3409A>G	n.3541A>G	c.3409A>G	p.(Met1137Val)	CFTR_v001:c.3409A>G	CFTR_v001:p.(Met1137Val)		NM_000492.3	NP_000483.3	NM_000492.3(CFTR_v001):c.3409A>G	NM_000492.3(CFTR_i001):p.(Met1137Val)	BceAI		
NM_000492.3:c.3410T>G		NM_000492.3	CFTR_v001	c.3410T>G	n.3542T>G	c.3410T>G	p.(Met1137Arg)	CFTR_v001:c.3410T>G	CFTR_v001:p.(Met1137Arg)		NM_000492.3	NP_000483.3	NM_000492.3(CFTR_v001):c.3410T>G	NM_000492.3(CFTR_i001):p.(Met1137Arg)	BstNI,PspGI,ScrFI,StyD4I		
NM_000492.3:c.3415A>G		NM_000492.3	CFTR_v001	c.3415A>G	n.3547A>G	c.3415A>G	p.(Ile1139Val)	CFTR_v001:c.3415A>G	CFTR_v001:p.(Ile1139Val)		NM_000492.3	NP_000483.3	NM_000492.3(CFTR_v001):c.3415A>G	NM_000492.3(CFTR_i001):p.(Ile1139Val)			
NM_000492.3:c.3454G>C		NM_000492.3	CFTR_v001	c.3454G>C	n.3586G>C	c.3454G>C	p.(Asp1152His)	CFTR_v001:c.3454G>C	CFTR_v001:p.(Asp1152His)		NM_000492.3	NP_000483.3	NM_000492.3(CFTR_v001):c.3454G>C	NM_000492.3(CFTR_i001):p.(Asp1152His)	AflIII,CviAII,FatI,NlaIII,NspI,PciI		
NM_000492.3:c.3469-2880_3717+2150del5279	(variantchecker): Intronic position given for a non-genomic reference sequence.	
NM_000492.3:c.3469_3717del		NM_000492.3	CFTR_v001	c.3469_3717del	n.3601_3849del	c.3469_3717del	p.(Met1157_Arg1239del)	CFTR_v001:c.3469_3717del	CFTR_v001:p.(Met1157_Arg1239del)		NM_000492.3	NP_000483.3	NM_000492.3(CFTR_v001):c.3469_3717del	NM_000492.3(CFTR_i001):p.(Met1157_Arg1239del)	MwoI	AflIII,ApoI,BfuCI (2),BglII,BsaAI,BslI (3),BspCNI,BstNI,BstYI,Bsu36I,CviAII,DdeI,DpnI (2),DpnII (2),EaeI (2),EcoRI,FatI,HincII,HinfI,Hpy166II (2),Hpy188III,HpyAV (3),HpyCH4III,HpyCH4IV,MboI (2),MboII,MluCI,MlyI,MscI (2),MseI,NlaIII,NlaIV,NmeAIII,NspI,PflMI,PleI,PmlI,PspGI,Sau3AI (2),ScrFI,SfaNI,StyD4I,TaqI	
NM_000492.3:c.3469-420_3717+1230del1899	(variantchecker): Intronic position given for a non-genomic reference sequence.	
NM_000492.3:c.3472C>T		NM_000492.3	CFTR_v001	c.3472C>T	n.3604C>T	c.3472C>T	p.(Arg1158*)	CFTR_v001:c.3472C>T	CFTR_v001:p.(Arg1158*)		NM_000492.3	NP_000483.3	NM_000492.3(CFTR_v001):c.3472C>T	NM_000492.3(CFTR_i001):p.(Arg1158*)		SfaNI	
NM_000492.3:c.3484C>T		NM_000492.3	CFTR_v001	c.3484C>T	n.3616C>T	c.3484C>T	p.(Arg1162*)	CFTR_v001:c.3484C>T	CFTR_v001:p.(Arg1162*)		NM_000492.3	NP_000483.3	NM_000492.3(CFTR_v001):c.3484C>T	NM_000492.3(CFTR_i001):p.(Arg1162*)	BspCNI,DdeI	FspEI	
NM_000492.3:c.3485G>T		NM_000492.3	CFTR_v001	c.3485G>T	n.3617G>T	c.3485G>T	p.(Arg1162Leu)	CFTR_v001:c.3485G>T	CFTR_v001:p.(Arg1162Leu)		NM_000492.3	NP_000483.3	NM_000492.3(CFTR_v001):c.3485G>T	NM_000492.3(CFTR_i001):p.(Arg1162Leu)	BfaI	HinfI,MlyI,NmeAIII,PleI	
NM_000492.3:c.3486_3487delAG		NM_000492.3	CFTR_v001	c.3486_3487delAG	n.3618_3619del	c.3486_3487del	p.(Val1163Leufs*2)	CFTR_v001:c.3486_3487del	CFTR_v001:p.(Val1163Leufs*2)		NM_000492.3	NP_000483.3	NM_000492.3(CFTR_v001):c.3486_3487del	NM_000492.3(CFTR_i001):p.(Val1163Leufs*2)	BceAI	HinfI,MlyI,NmeAIII,PleI	
NM_000492.3:c.3503A>G		NM_000492.3	CFTR_v001	c.3503A>G	n.3635A>G	c.3503A>G	p.(Asp1168Gly)	CFTR_v001:c.3503A>G	CFTR_v001:p.(Asp1168Gly)		NM_000492.3	NP_000483.3	NM_000492.3(CFTR_v001):c.3503A>G	NM_000492.3(CFTR_i001):p.(Asp1168Gly)	Cac8I,SphI		
NM_000492.3:c.3529A>T		NM_000492.3	CFTR_v001	c.3529A>T	n.3661A>T	c.3529A>T	p.(Lys1177*)	CFTR_v001:c.3529A>T	CFTR_v001:p.(Lys1177*)		NM_000492.3	NP_000483.3	NM_000492.3(CFTR_v001):c.3529A>T	NM_000492.3(CFTR_i001):p.(Lys1177*)	BfaI		
NM_000492.3:c.3532_3535dupTCAA		NM_000492.3	CFTR_v001	c.3532_3535dupTCAA	n.3664_3667dup	c.3532_3535dup	p.(Thr1179Ilefs*17)	CFTR_v001:c.3532_3535dup	CFTR_v001:p.(Thr1179Ilefs*17)		NM_000492.3	NP_000483.3	NM_000492.3(CFTR_v001):c.3532_3535dup	NM_000492.3(CFTR_i001):p.(Thr1179Ilefs*17)		HincII	
NM_000492.3:c.3546C>G		NM_000492.3	CFTR_v001	c.3546C>G	n.3678C>G	c.3546C>G	p.(Tyr1182*)	CFTR_v001:c.3546C>G	CFTR_v001:p.(Tyr1182*)		NM_000492.3	NP_000483.3	NM_000492.3(CFTR_v001):c.3546C>G	NM_000492.3(CFTR_i001):p.(Tyr1182*)	MboII		
NM_000492.3:c.3659delC		NM_000492.3	CFTR_v001	c.3659delC	n.3791del	c.3659del	p.(Thr1220Lysfs*8)	CFTR_v001:c.3659del	CFTR_v001:p.(Thr1220Lysfs*8)		NM_000492.3	NP_000483.3	NM_000492.3(CFTR_v001):c.3659del	NM_000492.3(CFTR_i001):p.(Thr1220Lysfs*8)			
NM_000492.3:c.3700A>G		NM_000492.3	CFTR_v001	c.3700A>G	n.3832A>G	c.3700A>G	p.(Ile1234Val)	CFTR_v001:c.3700A>G	CFTR_v001:p.(Ile1234Val)		NM_000492.3	NP_000483.3	NM_000492.3(CFTR_v001):c.3700A>G	NM_000492.3(CFTR_i001):p.(Ile1234Val)	BspCNI,DdeI		
NM_000492.3:c.3717+12191C>T	(variantchecker): Intronic position given for a non-genomic reference sequence.	
NM_000492.3:c.3718-24G>A	(variantchecker): Intronic position given for a non-genomic reference sequence.	
NM_000492.3:c.3719T>G		NM_000492.3	CFTR_v001	c.3719T>G	n.3851T>G	c.3719T>G	p.(Val1240Gly)	CFTR_v001:c.3719T>G	CFTR_v001:p.(Val1240Gly)		NM_000492.3	NP_000483.3	NM_000492.3(CFTR_v001):c.3719T>G	NM_000492.3(CFTR_i001):p.(Val1240Gly)	EcoO109I,NlaIV	PflMI	
NM_000492.3:c.3730G>A		NM_000492.3	CFTR_v001	c.3730G>A	n.3862G>A	c.3730G>A	p.(Gly1244Arg)	CFTR_v001:c.3730G>A	CFTR_v001:p.(Gly1244Arg)		NM_000492.3	NP_000483.3	NM_000492.3(CFTR_v001):c.3730G>A	NM_000492.3(CFTR_i001):p.(Gly1244Arg)	BpuEI,Hpy188III,SmlI		
NM_000492.3:c.3731G>A		NM_000492.3	CFTR_v001	c.3731G>A	n.3863G>A	c.3731G>A	p.(Gly1244Glu)	CFTR_v001:c.3731G>A	CFTR_v001:p.(Gly1244Glu)		NM_000492.3	NP_000483.3	NM_000492.3(CFTR_v001):c.3731G>A	NM_000492.3(CFTR_i001):p.(Gly1244Glu)		MboII	
NM_000492.3:c.3739G>C		NM_000492.3	CFTR_v001	c.3739G>C	n.3871G>C	c.3739G>C	p.(Gly1247Arg)	CFTR_v001:c.3739G>C	CFTR_v001:p.(Gly1247Arg)		NM_000492.3	NP_000483.3	NM_000492.3(CFTR_v001):c.3739G>C	NM_000492.3(CFTR_i001):p.(Gly1247Arg)	TaqI	AlwI,BsrI	
NM_000492.3:c.3752G>A		NM_000492.3	CFTR_v001	c.3752G>A	n.3884G>A	c.3752G>A	p.(Ser1251Asn)	CFTR_v001:c.3752G>A	CFTR_v001:p.(Ser1251Asn)		NM_000492.3	NP_000483.3	NM_000492.3(CFTR_v001):c.3752G>A	NM_000492.3(CFTR_i001):p.(Ser1251Asn)		CviQI,EarI,RsaI,ScaI	
NM_000492.3:c.3773dupT		NM_000492.3	CFTR_v001	c.3773dupT	n.3905dup	c.3773dup	p.(Leu1258Phefs*7)	CFTR_v001:c.3773dup	CFTR_v001:p.(Leu1258Phefs*7)		NM_000492.3	NP_000483.3	NM_000492.3(CFTR_v001):c.3773dup	NM_000492.3(CFTR_i001):p.(Leu1258Phefs*7)			
NM_000492.3:c.3779T>C		NM_000492.3	CFTR_v001	c.3779T>C	n.3911T>C	c.3779T>C	p.(Leu1260Pro)	CFTR_v001:c.3779T>C	CFTR_v001:p.(Leu1260Pro)		NM_000492.3	NP_000483.3	NM_000492.3(CFTR_v001):c.3779T>C	NM_000492.3(CFTR_i001):p.(Leu1260Pro)	BsaI		
NM_000492.3:c.3793G>A		NM_000492.3	CFTR_v001	c.3793G>A	n.3925G>A	c.3793G>A	p.(Gly1265Arg)	CFTR_v001:c.3793G>A	CFTR_v001:p.(Gly1265Arg)		NM_000492.3	NP_000483.3	NM_000492.3(CFTR_v001):c.3793G>A	NM_000492.3(CFTR_i001):p.(Gly1265Arg)		AcuI,HpyAV	
NM_000492.3:c.3808G>A		NM_000492.3	CFTR_v001	c.3808G>A	n.3940G>A	c.3808G>A	p.(Asp1270Asn)	CFTR_v001:c.3808G>A	CFTR_v001:p.(Asp1270Asn)		NM_000492.3	NP_000483.3	NM_000492.3(CFTR_v001):c.3808G>A	NM_000492.3(CFTR_i001):p.(Asp1270Asn)		BccI,BspDI,ClaI,TaqI	
NM_000492.3:c.3841C>T		NM_000492.3	CFTR_v001	c.3841C>T	n.3973C>T	c.3841C>T	p.(Gln1281*)	CFTR_v001:c.3841C>T	CFTR_v001:p.(Gln1281*)		NM_000492.3	NP_000483.3	NM_000492.3(CFTR_v001):c.3841C>T	NM_000492.3(CFTR_i001):p.(Gln1281*)		BtsIMutI,HpyCH4III,TspRI	
NM_000492.3:c.3846G>A		NM_000492.3	CFTR_v001	c.3846G>A	n.3978G>A	c.3846G>A	p.(Trp1282*)	CFTR_v001:c.3846G>A	CFTR_v001:p.(Trp1282*)		NM_000492.3	NP_000483.3	NM_000492.3(CFTR_v001):c.3846G>A	NM_000492.3(CFTR_i001):p.(Trp1282*)	HpyAV	MnlI	
NM_000492.3:c.3855delC		NM_000492.3	CFTR_v001	c.3855delC	n.3987del	c.3855del	p.(Phe1286Leufs*3)	CFTR_v001:c.3855del	CFTR_v001:p.(Phe1286Leufs*3)		NM_000492.3	NP_000483.3	NM_000492.3(CFTR_v001):c.3855del	NM_000492.3(CFTR_i001):p.(Phe1286Leufs*3)	AluI,HindIII		
NM_000492.3:c.3872A>G		NM_000492.3	CFTR_v001	c.3872A>G	n.4004A>G	c.3872A>G	p.(Gln1291Arg)	CFTR_v001:c.3872A>G	CFTR_v001:p.(Gln1291Arg)		NM_000492.3	NP_000483.3	NM_000492.3(CFTR_v001):c.3872A>G	NM_000492.3(CFTR_i001):p.(Gln1291Arg)	BsaJI,BtgI		
NM_000492.3:c.3873+1G>A	(variantchecker): Intronic position given for a non-genomic reference sequence.	
NM_000492.3:c.3873G>C		NM_000492.3	CFTR_v001	c.3873G>C	n.4005G>C	c.3873G>C	p.(Gln1291His)	CFTR_v001:c.3873G>C	CFTR_v001:p.(Gln1291His)		NM_000492.3	NP_000483.3	NM_000492.3(CFTR_v001):c.3873G>C	NM_000492.3(CFTR_i001):p.(Gln1291His)			
NM_000492.3:c.3873+5727A>G	(variantchecker): Intronic position given for a non-genomic reference sequence.	
NM_000492.3:c.3883_3884insG		NM_000492.3	CFTR_v001	c.3883_3884insG	n.4015_4016insG	c.3883_3884insG	p.(Ile1295Serfs*7)	CFTR_v001:c.3883_3884insG	CFTR_v001:p.(Ile1295Serfs*7)		NM_000492.3	NP_000483.3	NM_000492.3(CFTR_v001):c.3883_3884insG	NM_000492.3(CFTR_i001):p.(Ile1295Serfs*7)			
NM_000492.3:c.3883_3886delATTT		NM_000492.3	CFTR_v001	c.3883_3886delATTT	n.4015_4018del	c.3883_3886del	p.(Ile1295Phefs*32)	CFTR_v001:c.3883_3886del	CFTR_v001:p.(Ile1295Phefs*32)		NM_000492.3	NP_000483.3	NM_000492.3(CFTR_v001):c.3883_3886del	NM_000492.3(CFTR_i001):p.(Ile1295Phefs*32)			
NM_000492.3:c.3889dupT		NM_000492.3	CFTR_v001	c.3889dupT	n.4021dup	c.3889dup	p.(Ser1297Phefs*5)	CFTR_v001:c.3889dup	CFTR_v001:p.(Ser1297Phefs*5)		NM_000492.3	NP_000483.3	NM_000492.3(CFTR_v001):c.3889dup	NM_000492.3(CFTR_i001):p.(Ser1297Phefs*5)			
NM_000492.3:c.3908delA		NM_000492.3	CFTR_v001	c.3908delA	n.4040del	c.3908del	p.(Asn1303Thrfs*25)	CFTR_v001:c.3908del	CFTR_v001:p.(Asn1303Thrfs*25)		NM_000492.3	NP_000483.3	NM_000492.3(CFTR_v001):c.3908del	NM_000492.3(CFTR_i001):p.(Asn1303Thrfs*25)			
NM_000492.3:c.3909C>G		NM_000492.3	CFTR_v001	c.3909C>G	n.4041C>G	c.3909C>G	p.(Asn1303Lys)	CFTR_v001:c.3909C>G	CFTR_v001:p.(Asn1303Lys)		NM_000492.3	NP_000483.3	NM_000492.3(CFTR_v001):c.3909C>G	NM_000492.3(CFTR_i001):p.(Asn1303Lys)	MmeI		
NM_000492.3:c.3937C>T		NM_000492.3	CFTR_v001	c.3937C>T	n.4069C>T	c.3937C>T	p.(Gln1313*)	CFTR_v001:c.3937C>T	CFTR_v001:p.(Gln1313*)		NM_000492.3	NP_000483.3	NM_000492.3(CFTR_v001):c.3937C>T	NM_000492.3(CFTR_i001):p.(Gln1313*)	MseI	BclI,Hpy188III	
NM_000492.3:c.3940delG		NM_000492.3	CFTR_v001	c.3940delG	n.4072del	c.3940del	p.(Glu1314Lysfs*14)	CFTR_v001:c.3940del	CFTR_v001:p.(Glu1314Lysfs*14)		NM_000492.3	NP_000483.3	NM_000492.3(CFTR_v001):c.3940del	NM_000492.3(CFTR_i001):p.(Glu1314Lysfs*14)		Hpy188III	
NM_000492.3:c.3964-78_4242+577del	(variantchecker): Intronic position given for a non-genomic reference sequence.	
NM_000492.3:c.3964_4242del	(variantchecker): Variant hits one or more splice sites in selected transcript.	NM_000492.3	CFTR_v001	c.3964_4242del	n.4096_4374del	c.3964_4242del	p.(Gly1323_Val1415del)	CFTR_v001:c.3964_4242del	CFTR_v001:p.(Gly1323_Val1415del)		NM_000492.3	NP_000483.3	NM_000492.3(CFTR_v001):c.3964_4242del	NM_000492.3(CFTR_i001):p.(Gly1323_Val1415del)		AluI,AlwI,ApeKI,BamHI,BanII,BbvI,BccI,BcgI (2),BfaI,BfuCI (4),BglII (3),BmrI,Bpu10I,BsaJI (2),BsiHKAI,BsmI,Bsp1286I (2),BspCNI (2),BsrDI,BsrI (2),BstNI,BstYI (4),BtgI,BtsCI,BtsIMutI,CviAII,CviKI_1 (6),DdeI (3),DpnI (4),DpnII (4),EaeI,FatI,FokI,HaeIII,HindIII,Hpy166II,Hpy188I,HpyCH4III (2),LpnPI (5),MboI (4),MluCI (3),MscI,NcoI,NlaIII,NlaIV,PflFI,PspGI,Sau3AI (4),ScrFI,StyD4I,StyI,TseI,TspRI,Tth111I,XcmI,XmnI	
NM_000492.3:c.4006-46del5	(variantchecker): Intronic position given for a non-genomic reference sequence.	
NM_000492.3:c.4025_4028dupGGGG		NM_000492.3	CFTR_v001	c.4025_4028dupGGGG	n.4157_4160dup	c.4025_4028dup	p.(Cys1344Glyfs*16)	CFTR_v001:c.4025_4028dup	CFTR_v001:p.(Cys1344Glyfs*16)		NM_000492.3	NP_000483.3	NM_000492.3(CFTR_v001):c.4025_4028dup	NM_000492.3(CFTR_i001):p.(Cys1344Glyfs*16)			
NM_000492.3:c.4036_4042del		NM_000492.3	CFTR_v001	c.4036_4042del	n.4168_4174del	c.4036_4042del	p.(Leu1346Metfs*6)	CFTR_v001:c.4036_4042del	CFTR_v001:p.(Leu1346Metfs*6)		NM_000492.3	NP_000483.3	NM_000492.3(CFTR_v001):c.4036_4042del	NM_000492.3(CFTR_i001):p.(Leu1346Metfs*6)		Bpu10I,BsaJI,BtgI,DdeI,NcoI,StyI	
NM_000492.3:c.4046G>A		NM_000492.3	CFTR_v001	c.4046G>A	n.4178G>A	c.4046G>A	p.(Gly1349Asp)	CFTR_v001:c.4046G>A	CFTR_v001:p.(Gly1349Asp)		NM_000492.3	NP_000483.3	NM_000492.3(CFTR_v001):c.4046G>A	NM_000492.3(CFTR_i001):p.(Gly1349Asp)		BsaJI,BtgI,EaeI,HaeIII,MscI,NcoI,StyI	
NM_000492.3:c.4051A>G		NM_000492.3	CFTR_v001	c.4051A>G	n.4183A>G	c.4051A>G	p.(Lys1351Glu)	CFTR_v001:c.4051A>G	CFTR_v001:p.(Lys1351Glu)		NM_000492.3	NP_000483.3	NM_000492.3(CFTR_v001):c.4051A>G	NM_000492.3(CFTR_i001):p.(Lys1351Glu)	BssSI		
NM_000492.3:c.4124A>C		NM_000492.3	CFTR_v001	c.4124A>C	n.4256A>C	c.4124A>C	p.(His1375Pro)	CFTR_v001:c.4124A>C	CFTR_v001:p.(His1375Pro)		NM_000492.3	NP_000483.3	NM_000492.3(CFTR_v001):c.4124A>C	NM_000492.3(CFTR_i001):p.(His1375Pro)			
NM_000492.3:c.4129G>C		NM_000492.3	CFTR_v001	c.4129G>C	n.4261G>C	c.4129G>C	p.(Asp1377His)	CFTR_v001:c.4129G>C	CFTR_v001:p.(Asp1377His)		NM_000492.3	NP_000483.3	NM_000492.3(CFTR_v001):c.4129G>C	NM_000492.3(CFTR_i001):p.(Asp1377His)	BtsCI,FokI,HpyCH4V,SfaNI	AlwI,BamHI,BfuCI,BstYI,DpnI,DpnII,MboI,NlaIV,Sau3AI,XcmI	
NM_000492.3:c.4141T>C		NM_000492.3	CFTR_v001	c.4141T>C	n.4273T>C	c.4141T>C	p.(Tyr1381His)	CFTR_v001:c.4141T>C	CFTR_v001:p.(Tyr1381His)		NM_000492.3	NP_000483.3	NM_000492.3(CFTR_v001):c.4141T>C	NM_000492.3(CFTR_i001):p.(Tyr1381His)			
NM_000492.3:c.4241T>C		NM_000492.3	CFTR_v001	c.4241T>C	n.4373T>C	c.4241T>C	p.(Leu1414Ser)	CFTR_v001:c.4241T>C	CFTR_v001:p.(Leu1414Ser)		NM_000492.3	NP_000483.3	NM_000492.3(CFTR_v001):c.4241T>C	NM_000492.3(CFTR_i001):p.(Leu1414Ser)			
NM_000492.3:c.4251delA		NM_000492.3	CFTR_v001	c.4251delA	n.4383del	c.4251del	p.(Glu1418Argfs*14)	CFTR_v001:c.4251del	CFTR_v001:p.(Glu1418Argfs*14)		NM_000492.3	NP_000483.3	NM_000492.3(CFTR_v001):c.4251del	NM_000492.3(CFTR_i001):p.(Glu1418Argfs*14)		EarI,MboII	
NM_000492.3:c.4333G>A		NM_000492.3	CFTR_v001	c.4333G>A	n.4465G>A	c.4333G>A	p.(Asp1445Asn)	CFTR_v001:c.4333G>A	CFTR_v001:p.(Asp1445Asn)		NM_000492.3	NP_000483.3	NM_000492.3(CFTR_v001):c.4333G>A	NM_000492.3(CFTR_i001):p.(Asp1445Asn)		Hpy188I	
NM_000492.3:c.4364C>G		NM_000492.3	CFTR_v001	c.4364C>G	n.4496C>G	c.4364C>G	p.(Ser1455*)	CFTR_v001:c.4364C>G	CFTR_v001:p.(Ser1455*)		NM_000492.3	NP_000483.3	NM_000492.3(CFTR_v001):c.4364C>G	NM_000492.3(CFTR_i001):p.(Ser1455*)	AcuI	BpuEI,SmlI	
NM_000492.3:c.4382delA		NM_000492.3	CFTR_v001	c.4382delA	n.4514del	c.4382del	p.(Lys1461Serfs*7)	CFTR_v001:c.4382del	CFTR_v001:p.(Lys1461Serfs*7)		NM_000492.3	NP_000483.3	NM_000492.3(CFTR_v001):c.4382del	NM_000492.3(CFTR_i001):p.(Lys1461Serfs*7)	BfaI,MwoI	DdeI	
NM_000492.3:c.4417G>T		NM_000492.3	CFTR_v001	c.4417G>T	n.4549G>T	c.4417G>T	p.(Glu1473*)	CFTR_v001:c.4417G>T	CFTR_v001:p.(Glu1473*)		NM_000492.3	NP_000483.3	NM_000492.3(CFTR_v001):c.4417G>T	NM_000492.3(CFTR_i001):p.(Glu1473*)		EarI,MboII	
NM_000492.3:c.4426C>T		NM_000492.3	CFTR_v001	c.4426C>T	n.4558C>T	c.4426C>T	p.(Gln1476*)	CFTR_v001:c.4426C>T	CFTR_v001:p.(Gln1476*)		NM_000492.3	NP_000483.3	NM_000492.3(CFTR_v001):c.4426C>T	NM_000492.3(CFTR_i001):p.(Gln1476*)		HpyCH4V	
