no,patient_ref,dupl,citation,gender,ethnicity.exac,ethnicity,nucls1,exon1,aminoacid1,nucls2,exon2,aminoacid2,phenotype.severity,phenotype,5T/7T,age at dg,age ,rhinosinus disease,pancreatic affection,evolution,meconium ileus,Pseudomonas,age_at_transplantation,,nucleotide3,aminoacid3,nucleotide4,aminoacid4
1791,1,,sharma2008,,South Asian,indian,c.1521_1523delCTT,,Phe508del,c.1521_1523delCTT,,Phe508del,severe,CF,,,,,,,,,,,,,,
1792,2,,sharma2008,,South Asian,indian,c.1521_1523delCTT,,Phe508del,c.1521_1523delCTT,,Phe508del,severe,CF,,,,,,,,,,,,,,
1793,3,,sharma2008,,South Asian,indian,c.1521_1523delCTT,,Phe508del,c.1521_1523delCTT,,Phe508del,severe,CF,,,,,,,,,,,,,,
1794,4,,sharma2008,,South Asian,indian,c.1521_1523delCTT,,Phe508del,c.1521_1523delCTT,,Phe508del,severe,CF,,,,,,,,,,,,,,
1795,5,,sharma2008,,South Asian,indian,c.1521_1523delCTT,,Phe508del,c.1521_1523delCTT,,Phe508del,severe,CF,,,,,,,,,,,,,,
1796,6,,sharma2008,,South Asian,indian,c.1521_1523delCTT,,Phe508del,c.3717+12191C>T,,,severe,CF,,,,,,,,,,,,,,
1797,7,,sharma2008,,South Asian,indian,c.1521_1523delCTT,,Phe508del,c.1646G>A,,S549N,severe,CF,,,,,,,,,,,,,,
1798,8,,sharma2008,,South Asian,indian,c.1521_1523delCTT,,Phe508del,c.1646G>A,,S549N,severe,CF,,,,,,,,,,,,,,
1799,9,,sharma2008,,South Asian,indian,c.1521_1523delCTT,,Phe508del,c.473G>A,,S158N,severe,CF,,,,,,,,,,,,,,
1800,10,,sharma2008,,South Asian,indian,c.1521_1523delCTT,,Phe508del,c.4141T>C,,Y1381H,severe,CF,,,,,,,,,,,,,,
1801,11,,sharma2008,,South Asian,indian,c.1521_1523delCTT,,Phe508del,c.1393-1G>A,,splice,severe,CF,,,,,,,,,,,,,,
1802,12,,sharma2008,,South Asian,indian,c.1558G>T,,V520F,c.350G>A,,R117H,severe,CF,,,,,,,,,,,,,,
1803,13,,sharma2008,,South Asian,indian,c.1588A>C,,I530L,c.1588A>C,,I530L,severe,CF,,,,,,,,,,,,,,
1804,14,,sharma2008,,South Asian,indian,c.744-5_744-2delTACA,,,c.744-5_744-2delTACA,,,severe,CF,,,,,,,,,,,,,,
1805,15,,sharma2008,,South Asian,indian,c.1660_1661insA,,,c.1660_1661insA,,,severe,CF,,,,,,,,,,,,,,
1806,16,,sharma2008,,South Asian,indian,c.3855delC,,,c.3855delC,,,severe,CF,,,,,,,,,,,,,,
