Input Variant	Errors	Chromosomal Variant	Coding Variant(s)
NM_004646.3:c.58+1G>T		NC_000019.9:g.36342681C>A	XM_005259307.1:c.-184+56C>A	XM_005259308.1:c.-4276C>A	XM_005259309.1:c.-5341C>A	NM_004646.2:c.58+1G>T	NM_004646.3:c.58+1G>T	XM_005258961.1:c.58+1G>T
NM_004646.3:c.121_122delCT		NC_000019.9:g.36342511_36342512delAG	XM_005259307.1:c.-298_-297delAG	XM_005259308.1:c.-4446_-4445delAG	XM_005259309.1:c.-5511_-5510delAG	NM_004646.2:c.121_122delCT	NM_004646.3:c.121_122delCT	XM_005258961.1:c.58+170_58+171delCT
NM_004646.3:c.139delG		NC_000019.9:g.36342494delC	XM_005259307.1:c.-315delC	XM_005259308.1:c.-4463delC	XM_005259309.1:c.-5528delC	NM_004646.2:c.139delG	NM_004646.3:c.139delG	XM_005258961.1:c.58+188delG
NM_004646.3:c.162_176del15		NC_000019.9:g.36342457_36342471del15	XM_005259307.1:c.-352_-338del15	XM_005259308.1:c.-4500_-4486del15	NM_004646.2:c.162_176del15	NM_004646.3:c.162_176del15	XM_005258961.1:c.58+211_58+225del15
NM_004646.3:c.188A>G		NC_000019.9:g.36342445T>C	XM_005259307.1:c.-364T>C	XM_005259308.1:c.-4512T>C	NM_004646.2:c.188A>G	NM_004646.3:c.188A>G	XM_005258961.1:c.58+237A>G
NM_004646.3:c.219delC		NC_000019.9:g.36342414delG	XM_005259307.1:c.-395delG	XM_005259308.1:c.-4543delG	NM_004646.2:c.219delC	NM_004646.3:c.219delC	XM_005258961.1:c.58+268delC
NM_004646.3:c.286C>G		NC_000019.9:g.36342275G>C	XM_005259307.1:c.-534G>C	XM_005259308.1:c.-4682G>C	NM_004646.2:c.286C>G	NM_004646.3:c.286C>G	XM_005258961.1:c.59-284C>G
NM_004646.3:c.313G>A		NC_000019.9:g.36342248C>T	XM_005259307.1:c.-561C>T	XM_005259308.1:c.-4709C>T	NM_004646.2:c.313G>A	NM_004646.3:c.313G>A	XM_005258961.1:c.59-257G>A
NM_004646.3:c.319G>A		NC_000019.9:g.36342242C>T	XM_005259307.1:c.-567C>T	XM_005259308.1:c.-4715C>T	NM_004646.2:c.319G>A	NM_004646.3:c.319G>A	XM_005258961.1:c.59-251G>A
NM_004646.3:c.320C>T		NC_000019.9:g.36342241G>A	XM_005259307.1:c.-568G>A	XM_005259308.1:c.-4716G>A	NM_004646.2:c.320C>T	NM_004646.3:c.320C>T	XM_005258961.1:c.59-250C>T
NM_004646.3:c.320C>A		NC_000019.9:g.36342241G>T	XM_005259307.1:c.-568G>T	XM_005259308.1:c.-4716G>T	NM_004646.2:c.320C>A	NM_004646.3:c.320C>A	XM_005258961.1:c.59-250C>A
NM_004646.3:c.340G>C		NC_000019.9:g.36342221C>G	XM_005259307.1:c.-588C>G	XM_005259308.1:c.-4736C>G	NM_004646.2:c.340G>C	NM_004646.3:c.340G>C	XM_005258961.1:c.59-230G>C
NM_004646.3:c.361G>A		NC_000019.9:g.36342200C>T	XM_005259307.1:c.-609C>T	XM_005259308.1:c.-4757C>T	NM_004646.2:c.361G>A	NM_004646.3:c.361G>A	XM_005258961.1:c.59-209G>A
NM_004646.3:c.385C>T		NC_000019.9:g.36342176G>A	XM_005259307.1:c.-633G>A	XM_005259308.1:c.-4781G>A	NM_004646.2:c.385C>T	NM_004646.3:c.385C>T	XM_005258961.1:c.59-185C>T
NM_004646.3:c.398-1G>A		NC_000019.9:g.36341992C>T	XM_005259307.1:c.-817C>T	XM_005259308.1:c.-4965C>T	NM_004646.2:c.398-1G>A	NM_004646.3:c.398-1G>A	XM_005258961.1:c.59-1G>A
NM_004646.3:c.456delT		NC_000019.9:g.36341933delA	XM_005259307.1:c.-876delA	XM_005259308.1:c.-5024delA	NM_004646.2:c.456delT	NM_004646.3:c.456delT	XM_005258961.1:c.117delT
NM_004646.3:c.468C>G		NC_000019.9:g.36341921G>C	XM_005259307.1:c.-888G>C	XM_005259308.1:c.-5036G>C	NM_004646.2:c.468C>G	NM_004646.3:c.468C>G	XM_005258961.1:c.129C>G
NM_004646.3:c.479G>C		NC_000019.9:g.36341910C>G	XM_005259307.1:c.-899C>G	XM_005259308.1:c.-5047C>G	NM_004646.2:c.479G>C	NM_004646.3:c.479G>C	XM_005258961.1:c.140G>C
NM_004646.3:c.500C>T		NC_000019.9:g.36341889G>A	XM_005259307.1:c.-920G>A	XM_005259308.1:c.-5068G>A	NM_004646.2:c.500C>T	NM_004646.3:c.500C>T	XM_005258961.1:c.161C>T
NM_004646.3:c.512T>A		NC_000019.9:g.36341877A>T	XM_005259307.1:c.-932A>T	XM_005259308.1:c.-5080A>T	NM_004646.2:c.512T>A	NM_004646.3:c.512T>A	XM_005258961.1:c.173T>A
NM_004646.3:c.515_517delCCA		NC_000019.9:g.36341872_36341874delTGG	XM_005259307.1:c.-937_-935delTGG	XM_005259308.1:c.-5085_-5083delTGG	NM_004646.2:c.515_517delCCA	NM_004646.3:c.515_517delCCA	XM_005258961.1:c.176_178delCCA
NM_004646.3:c.516delC		NC_000019.9:g.36341873delG	XM_005259307.1:c.-936delG	XM_005259308.1:c.-5084delG	NM_004646.2:c.516delC	NM_004646.3:c.516delC	XM_005258961.1:c.177delC
NM_004646.3:c.518T>A		NC_000019.9:g.36341871A>T	XM_005259307.1:c.-938A>T	XM_005259308.1:c.-5086A>T	NM_004646.2:c.518T>A	NM_004646.3:c.518T>A	XM_005258961.1:c.179T>A
NM_004646.3:c.526+5G>C		NC_000019.9:g.36341858C>G	XM_005259307.1:c.-951C>G	XM_005259308.1:c.-5099C>G	NM_004646.2:c.526+5G>C	NM_004646.3:c.526+5G>C	XM_005258961.1:c.187+5G>C
NM_004646.3:c.526_526+1delAG		NC_000019.9:g.36341862_36341863delCT	XM_005259307.1:c.-947_-946delCT	XM_005259308.1:c.-5095_-5094delCT	NM_004646.2:c.526_526+1delAG	NM_004646.3:c.526_526+1delAG	XM_005258961.1:c.187_187+1delAG
NM_004646.3:c.526+2T>G		NC_000019.9:g.36341861A>C	XM_005259307.1:c.-948A>C	XM_005259308.1:c.-5096A>C	NM_004646.2:c.526+2T>G	NM_004646.3:c.526+2T>G	XM_005258961.1:c.187+2T>G
NM_004646.3:c.532C>T		NC_000019.9:g.36341342G>A	XM_005259307.1:c.-1467G>A	NM_004646.2:c.532C>T	NM_004646.3:c.532C>T	XM_005258961.1:c.193C>T
NM_004646.3:c.534delG		NC_000019.9:g.36341340delC	XM_005259307.1:c.-1469delC	NM_004646.2:c.534delG	NM_004646.3:c.534delG	XM_005258961.1:c.195delG
NM_004646.3:c.563A>T		NC_000019.9:g.36341311T>A	XM_005259307.1:c.-1498T>A	NM_004646.2:c.563A>T	NM_004646.3:c.563A>T	XM_005258961.1:c.224A>T
NM_004646.3:c.565G>A		NC_000019.9:g.36341309C>T	XM_005259307.1:c.-1500C>T	NM_004646.2:c.565G>A	NM_004646.3:c.565G>A	XM_005258961.1:c.226G>A
NM_004646.3:c.574C>T		NC_000019.9:g.36341300G>A	XM_005259307.1:c.-1509G>A	NM_004646.2:c.574C>T	NM_004646.3:c.574C>T	XM_005258961.1:c.235C>T
NM_004646.3:c.609-2A>C		NC_000019.9:g.36340557T>G	XM_005259307.1:c.-2252T>G	NM_004646.2:c.609-2A>C	NM_004646.3:c.609-2A>C	XM_005258961.1:c.270-2A>C
NM_004646.3:c.614_621delCACCCCGGinsTT		NC_000019.9:g.36340543_36340550delinsAA	XM_005259307.1:c.-2266_-2259delinsAA	NM_004646.2:c.614_621delinsTT	NM_004646.3:c.614_621delinsTT	XM_005258961.1:c.275_282delinsTT
NM_004646.3:c.617C>A		NC_000019.9:g.36340547G>T	XM_005259307.1:c.-2262G>T	NM_004646.2:c.617C>A	NM_004646.3:c.617C>A	XM_005258961.1:c.278C>A
NM_004646.3:c.619delC		NC_000019.9:g.36340545delG	XM_005259307.1:c.-2264delG	NM_004646.2:c.619delC	NM_004646.3:c.619delC	XM_005258961.1:c.280delC
NM_004646.3:c.637C>T		NC_000019.9:g.36340527G>A	XM_005259307.1:c.-2282G>A	NM_004646.2:c.637C>T	NM_004646.3:c.637C>T	XM_005258961.1:c.298C>T
NM_004646.3:c.661_662delAG		NC_000019.9:g.36340502_36340503delCT	XM_005259307.1:c.-2307_-2306delCT	NM_004646.2:c.661_662delAG	NM_004646.3:c.661_662delAG	XM_005258961.1:c.322_323delAG
NM_004646.3:c.710T>C		NC_000019.9:g.36340454A>G	XM_005259307.1:c.-2355A>G	NM_004646.2:c.710T>C	NM_004646.3:c.710T>C	XM_005258961.1:c.371T>C
NM_004646.3:c.736G>T		NC_000019.9:g.36340242C>A	XM_005259307.1:c.-2567C>A	NM_004646.2:c.736G>T	NM_004646.3:c.736G>T	XM_005258961.1:c.397G>T
NM_004646.3:c.740G>A		NC_000019.9:g.36340238C>T	XM_005259307.1:c.-2571C>T	NM_004646.2:c.740G>A	NM_004646.3:c.740G>A	XM_005258961.1:c.401G>A
NM_004646.3:c.766C>T		NC_000019.9:g.36340212G>A	XM_005259307.1:c.-2597G>A	NM_004646.2:c.766C>T	NM_004646.3:c.766C>T	XM_005258961.1:c.427C>T
NM_004646.3:c.791C>G		NC_000019.9:g.36340187G>C	XM_005259307.1:c.-2622G>C	NM_004646.2:c.791C>G	NM_004646.3:c.791C>G	XM_005258961.1:c.452C>G
NM_004646.3:c.802C>T		NC_000019.9:g.36340176G>A	XM_005259307.1:c.-2633G>A	NM_004646.2:c.802C>T	NM_004646.3:c.802C>T	XM_005258961.1:c.463C>T
NM_004646.3:c.808G>T		NC_000019.9:g.36340170C>A	XM_005259307.1:c.-2639C>A	NM_004646.2:c.808G>T	NM_004646.3:c.808G>T	XM_005258961.1:c.469G>T
NM_004646.3:c.840+26A>T		NC_000019.9:g.36340112T>A	XM_005259307.1:c.-2697T>A	NM_004646.2:c.840+26A>T	NM_004646.3:c.840+26A>T	XM_005258961.1:c.501+26A>T
NM_004646.3:c.840+1G>T		NC_000019.9:g.36340137C>A	XM_005259307.1:c.-2672C>A	NM_004646.2:c.840+1G>T	NM_004646.3:c.840+1G>T	XM_005258961.1:c.501+1G>T
NM_004646.3:c.866G>A		NC_000019.9:g.36340024C>T	XM_005259307.1:c.-2785C>T	NM_004646.2:c.866G>A	NM_004646.3:c.866G>A	XM_005258961.1:c.527G>A
NM_004646.3:c.868G>T		NC_000019.9:g.36340022C>A	XM_005259307.1:c.-2787C>A	NM_004646.2:c.868G>T	NM_004646.3:c.868G>T	XM_005258961.1:c.529G>T
NM_004646.3:c.881C>T		NC_000019.9:g.36340009G>A	XM_005259307.1:c.-2800G>A	NM_004646.2:c.881C>T	NM_004646.3:c.881C>T	XM_005258961.1:c.542C>T
NM_004646.3:c.895C>T		NC_000019.9:g.36339995G>A	XM_005259307.1:c.-2814G>A	NM_004646.2:c.895C>T	NM_004646.3:c.895C>T	XM_005258961.1:c.556C>T
NM_004646.3:c.896G>C		NC_000019.9:g.36339994C>G	XM_005259307.1:c.-2815C>G	NM_004646.2:c.896G>C	NM_004646.3:c.896G>C	XM_005258961.1:c.557G>C
NM_004646.3:c.928G>A		NC_000019.9:g.36339962C>T	XM_005259307.1:c.-2847C>T	NM_004646.2:c.928G>A	NM_004646.3:c.928G>A	XM_005258961.1:c.589G>A
NM_004646.3:c.1001T>C		NC_000019.9:g.36339889A>G	XM_005259307.1:c.-2920A>G	NM_004646.2:c.1001T>C	NM_004646.3:c.1001T>C	XM_005258961.1:c.662T>C
NM_004646.3:c.1012+1dupG		NC_000019.9:g.36339877dup	XM_005259307.1:c.-2932dup	NM_004646.2:c.1012+1dup	NM_004646.3:c.1012+1dup	XM_005258961.1:c.673+1dup
NM_004646.3:c.1019C>A		NC_000019.9:g.36339690G>T	XM_005259307.1:c.-3119G>T	NM_004646.2:c.1019C>A	NM_004646.3:c.1019C>A	XM_005258961.1:c.680C>A
NM_004646.3:c.1020delT		NC_000019.9:g.36339689delA	XM_005259307.1:c.-3120delA	NM_004646.2:c.1020delT	NM_004646.3:c.1020delT	XM_005258961.1:c.681delT
NM_004646.3:c.1039G>A		NC_000019.9:g.36339670C>T	XM_005259307.1:c.-3139C>T	NM_004646.2:c.1039G>A	NM_004646.3:c.1039G>A	XM_005258961.1:c.700G>A
NM_004646.3:c.1040G>A		NC_000019.9:g.36339669C>T	XM_005259307.1:c.-3140C>T	NM_004646.2:c.1040G>A	NM_004646.3:c.1040G>A	XM_005258961.1:c.701G>A
NM_004646.3:c.1048T>C		NC_000019.9:g.36339661A>G	XM_005259307.1:c.-3148A>G	NM_004646.2:c.1048T>C	NM_004646.3:c.1048T>C	XM_005258961.1:c.709T>C
NM_004646.3:c.1049C>T		NC_000019.9:g.36339660G>A	XM_005259307.1:c.-3149G>A	NM_004646.2:c.1049C>T	NM_004646.3:c.1049C>T	XM_005258961.1:c.710C>T
NM_004646.3:c.1089C>G		NC_000019.9:g.36339620G>C	XM_005259307.1:c.-3189G>C	NM_004646.2:c.1089C>G	NM_004646.3:c.1089C>G	XM_005258961.1:c.750C>G
NM_004646.3:c.1096A>C		NC_000019.9:g.36339613T>G	XM_005259307.1:c.-3196T>G	NM_004646.2:c.1096A>C	NM_004646.3:c.1096A>C	XM_005258961.1:c.757A>C
NM_004646.3:c.1099C>T		NC_000019.9:g.36339610G>A	XM_005259307.1:c.-3199G>A	NM_004646.2:c.1099C>T	NM_004646.3:c.1099C>T	XM_005258961.1:c.760C>T
NM_004646.3:c.1102C>T		NC_000019.9:g.36339607G>A	XM_005259307.1:c.-3202G>A	NM_004646.2:c.1102C>T	NM_004646.3:c.1102C>T	XM_005258961.1:c.763C>T
NM_004646.3:c.1134G>A		NC_000019.9:g.36339575C>T	XM_005259307.1:c.-3234C>T	NM_004646.2:c.1134G>A	NM_004646.3:c.1134G>A	XM_005258961.1:c.795G>A
NM_004646.3:c.1135C>T		NC_000019.9:g.36339574G>A	XM_005259307.1:c.-3235G>A	NM_004646.2:c.1135C>T	NM_004646.3:c.1135C>T	XM_005258961.1:c.796C>T
NM_004646.3:c.1135_1136delCG		NC_000019.9:g.36339573_36339574delCG	XM_005259307.1:c.-3236_-3235delCG	NM_004646.2:c.1135_1136delCG	NM_004646.3:c.1135_1136delCG	XM_005258961.1:c.796_797delCG
NM_004646.3:c.1169A>G		NC_000019.9:g.36339540T>C	XM_005259307.1:c.-3269T>C	NM_004646.2:c.1169A>G	NM_004646.3:c.1169A>G	XM_005258961.1:c.830A>G
NM_004646.3:c.1170+2T>C		NC_000019.9:g.36339537A>G	XM_005259307.1:c.-3272A>G	NM_004646.2:c.1170+2T>C	NM_004646.3:c.1170+2T>C	XM_005258961.1:c.831+2T>C
NM_004646.3:c.1170+7C>T		NC_000019.9:g.36339532G>A	XM_005259307.1:c.-3277G>A	NM_004646.2:c.1170+7C>T	NM_004646.3:c.1170+7C>T	XM_005258961.1:c.831+7C>T
NM_004646.3:c.1181G>T		NC_000019.9:g.36339289C>A	XM_005259307.1:c.-3520C>A	NM_004646.2:c.1181G>T	NM_004646.3:c.1181G>T	XM_005258961.1:c.842G>T
NM_004646.3:c.1192T>C		NC_000019.9:g.36339278A>G	XM_005259307.1:c.-3531A>G	NM_004646.2:c.1192T>C	NM_004646.3:c.1192T>C	XM_005258961.1:c.853T>C
NM_004646.3:c.1219C>T		NC_000019.9:g.36339251G>A	XM_005259307.1:c.-3558G>A	NM_004646.2:c.1219C>T	NM_004646.3:c.1219C>T	XM_005258961.1:c.880C>T
NM_004646.3:c.1222C>T		NC_000019.9:g.36339248G>A	XM_005259307.1:c.-3561G>A	NM_004646.2:c.1222C>T	NM_004646.3:c.1222C>T	XM_005258961.1:c.883C>T
NM_004646.3:c.1223G>A		NC_000019.9:g.36339247C>T	XM_005259307.1:c.-3562C>T	NM_004646.2:c.1223G>A	NM_004646.3:c.1223G>A	XM_005258961.1:c.884G>A
NM_004646.3:c.1223_1225delGGG		NC_000019.9:g.36339245_36339247delCCC	XM_005259307.1:c.-3564_-3562delCCC	NM_004646.2:c.1223_1225delGGG	NM_004646.3:c.1223_1225delGGG	XM_005258961.1:c.884_886delGGG
NM_004646.3:c.1234G>T		NC_000019.9:g.36339236C>A	XM_005259307.1:c.-3573C>A	NM_004646.2:c.1234G>T	NM_004646.3:c.1234G>T	XM_005258961.1:c.895G>T
NM_004646.3:c.1234G>A		NC_000019.9:g.36339236C>T	XM_005259307.1:c.-3573C>T	NM_004646.2:c.1234G>A	NM_004646.3:c.1234G>A	XM_005258961.1:c.895G>A
NM_004646.3:c.1248dupA		NC_000019.9:g.36339222dup	XM_005259307.1:c.-3587dup	NM_004646.2:c.1248dup	NM_004646.3:c.1248dup	XM_005258961.1:c.909dup
NM_004646.3:c.1258T>G		NC_000019.9:g.36339212A>C	XM_005259307.1:c.-3597A>C	NM_004646.2:c.1258T>G	NM_004646.3:c.1258T>G	XM_005258961.1:c.919T>G
NM_004646.3:c.1292dupA		NC_000019.9:g.36339178dup	XM_005259307.1:c.-3631dup	NM_004646.2:c.1292dup	NM_004646.3:c.1292dup	XM_005258961.1:c.953dup
NM_004646.3:c.1307_1308dupAC		NC_000019.9:g.36339162_36339163dup	XM_005259307.1:c.-3647_-3646dup	NM_004646.2:c.1307_1308dup	NM_004646.3:c.1307_1308dup	XM_005258961.1:c.968_969dup
NM_004646.3:c.1315+1G>A		NC_000019.9:g.36339154C>T	XM_005259307.1:c.-3655C>T	NM_004646.2:c.1315+1G>A	NM_004646.3:c.1315+1G>A	XM_005258961.1:c.976+1G>A
NM_004646.3:c.1316A>G		NC_000019.9:g.36339067T>C	XM_005259307.1:c.-3742T>C	NM_004646.2:c.1316A>G	NM_004646.3:c.1316A>G	XM_005258961.1:c.977A>G
NM_004646.3:c.1317+1G>A		NC_000019.9:g.36339065C>T	XM_005259307.1:c.-3744C>T	NM_004646.2:c.1318G>A	NM_004646.3:c.1318G>A	XM_005258961.1:c.979G>A
NM_004646.3:c.1337T>A		NC_000019.9:g.36339046A>T	XM_005259307.1:c.-3763A>T	NM_004646.2:c.1337T>A	NM_004646.3:c.1337T>A	XM_005258961.1:c.998T>A
NM_004646.3:c.1339G>A		NC_000019.9:g.36339044C>T	XM_005259307.1:c.-3765C>T	NM_004646.2:c.1339G>A	NM_004646.3:c.1339G>A	XM_005258961.1:c.1000G>A
NM_004646.3:c.1348C>A		NC_000019.9:g.36339035G>T	XM_005259307.1:c.-3774G>T	NM_004646.2:c.1348C>A	NM_004646.3:c.1348C>A	XM_005258961.1:c.1009C>A
NM_004646.3:c.1379G>A		NC_000019.9:g.36339004C>T	XM_005259307.1:c.-3805C>T	NM_004646.2:c.1379G>A	NM_004646.3:c.1379G>A	XM_005258961.1:c.1040G>A
NM_004646.3:c.1404_1406dupCGG		NC_000019.9:g.36338977_36338979dup	XM_005259307.1:c.-3832_-3830dup	NM_004646.2:c.1404_1406dup	NM_004646.3:c.1404_1406dup	XM_005258961.1:c.1065_1067dup
NM_004646.3:c.1481delC		NC_000019.9:g.36337056delG	NM_004646.2:c.1481delC	NM_004646.3:c.1481delC	XM_005258961.1:c.1142delC
NM_004646.3:c.1538T>C		NC_000019.9:g.36336999A>G	NM_004646.2:c.1538T>C	NM_004646.3:c.1538T>C	XM_005258961.1:c.1199T>C
NM_004646.3:c.1555C>T		NC_000019.9:g.36336982G>A	NM_004646.2:c.1555C>T	NM_004646.3:c.1555C>T	XM_005258961.1:c.1216C>T
NM_004646.3:c.1583G>T		NC_000019.9:g.36336954C>A	NM_004646.2:c.1583G>T	NM_004646.3:c.1583G>T	XM_005258961.1:c.1244G>T
NM_004646.3:c.1610C>T		NC_000019.9:g.36336927G>A	NM_004646.2:c.1610C>T	NM_004646.3:c.1610C>T	XM_005258961.1:c.1271C>T
NM_004646.3:c.1672C>T		NC_000019.9:g.36336656G>A	NM_004646.2:c.1672C>T	NM_004646.3:c.1672C>T	XM_005258961.1:c.1333C>T
NM_004646.3:c.1699T>A		NC_000019.9:g.36336629A>T	NM_004646.2:c.1699T>A	NM_004646.3:c.1699T>A	XM_005258961.1:c.1360T>A
NM_004646.3:c.1701C>A		NC_000019.9:g.36336627G>T	NM_004646.2:c.1701C>A	NM_004646.3:c.1701C>A	XM_005258961.1:c.1362C>A
NM_004646.3:c.1703T>C		NC_000019.9:g.36336625A>G	NM_004646.2:c.1703T>C	NM_004646.3:c.1703T>C	XM_005258961.1:c.1364T>C
NM_004646.3:c.1707C>G		NC_000019.9:g.36336621G>C	NM_004646.2:c.1707C>G	NM_004646.3:c.1707C>G	XM_005258961.1:c.1368C>G
NM_004646.3:c.1713delC		NC_000019.9:g.36336615delG	NM_004646.2:c.1713delC	NM_004646.3:c.1713delC	XM_005258961.1:c.1374delC
NM_004646.3:c.1715G>A		NC_000019.9:g.36336613C>T	NM_004646.2:c.1715G>A	NM_004646.3:c.1715G>A	XM_005258961.1:c.1376G>A
NM_004646.3:c.1716C>G		NC_000019.9:g.36336612G>C	NM_004646.2:c.1716C>G	NM_004646.3:c.1716C>G	XM_005258961.1:c.1377C>G
NM_004646.3:c.1724C>A		NC_000019.9:g.36336604G>T	NM_004646.2:c.1724C>A	NM_004646.3:c.1724C>A	XM_005258961.1:c.1385C>A
NM_004646.3:c.1738T>G		NC_000019.9:g.36336590A>C	NM_004646.2:c.1738T>G	NM_004646.3:c.1738T>G	XM_005258961.1:c.1399T>G
NM_004646.3:c.1756A>G		NC_000019.9:g.36336572T>C	NM_004646.2:c.1756A>G	NM_004646.3:c.1756A>G	XM_005258961.1:c.1417A>G
NM_004646.3:c.1758-8_1784del36		NC_000019.9:g.36336416_36336450del36	NM_004646.2:c.1758-8_1784del36	NM_004646.3:c.1758-8_1784del36	XM_005258961.1:c.1419-8_1445del36
NM_004646.3:c.1759-15_1778del		NC_000019.9:g.36336422_36336456del	NM_004646.2:c.1758-14_1778del	NM_004646.3:c.1758-14_1778del	XM_005258961.1:c.1419-14_1439del
NM_004646.3:c.1760T>G		NC_000019.9:g.36336440A>C	NM_004646.2:c.1760T>G	NM_004646.3:c.1760T>G	XM_005258961.1:c.1421T>G
NM_004646.3:c.1801G>C		NC_000019.9:g.36336399C>G	NM_004646.2:c.1801G>C	NM_004646.3:c.1801G>C	XM_005258961.1:c.1462G>C
NM_004646.3:c.1802G>C		NC_000019.9:g.36336398C>G	NM_004646.2:c.1802G>C	NM_004646.3:c.1802G>C	XM_005258961.1:c.1463G>C
NM_004646.3:c.1815delC		NC_000019.9:g.36336385delG	NM_004646.2:c.1815delC	NM_004646.3:c.1815delC	XM_005258961.1:c.1476delC
NM_004646.3:c.1822G>A		NC_000019.9:g.36336378C>T	NM_004646.2:c.1822G>A	NM_004646.3:c.1822G>A	XM_005258961.1:c.1483G>A
NM_004646.3:c.1829T>A		NC_000019.9:g.36336371A>T	NM_004646.2:c.1829T>A	NM_004646.3:c.1829T>A	XM_005258961.1:c.1490T>A
NM_004646.3:c.1845_1849delCGATC		NC_000019.9:g.36336351_36336355delGATCG	NM_004646.2:c.1845_1849delCGATC	NM_004646.3:c.1845_1849delCGATC	XM_005258961.1:c.1506_1510delCGATC
NM_004646.3:c.1847A>G		NC_000019.9:g.36336353T>C	NM_004646.2:c.1847A>G	NM_004646.3:c.1847A>G	XM_005258961.1:c.1508A>G
NM_004646.3:c.1868G>T		NC_000019.9:g.36336332C>A	NM_004646.2:c.1868G>T	NM_004646.3:c.1868G>T	XM_005258961.1:c.1529G>T
NM_004646.3:c.1881C>A		NC_000019.9:g.36336319G>T	NM_004646.2:c.1881C>A	NM_004646.3:c.1881C>A	XM_005258961.1:c.1542C>A
NM_004646.3:c.1885G>T		NC_000019.9:g.36336315C>A	NM_004646.2:c.1885G>T	NM_004646.3:c.1885G>T	XM_005258961.1:c.1546G>T
NM_004646.3:c.1905C>T		NC_000019.9:g.36336295G>A	NM_004646.2:c.1905C>T	NM_004646.3:c.1905C>T	XM_005258961.1:c.1566C>T
NM_004646.3:c.1913A>G		NC_000019.9:g.36336287T>C	NM_004646.2:c.1913A>G	NM_004646.3:c.1913A>G	XM_005258961.1:c.1574A>G
NM_004646.3:c.1928T>C		NC_000019.9:g.36336272A>G	NM_004646.2:c.1928T>C	NM_004646.3:c.1928T>C	XM_005258961.1:c.1589T>C
NM_004646.3:c.1931-1G>A		NC_000019.9:g.36335362C>T	NM_004646.2:c.1931-1G>A	NM_004646.3:c.1931-1G>A	XM_005258961.1:c.1592-1G>A
NM_004646.3:c.1933C>A		NC_000019.9:g.36335359G>T	NM_004646.2:c.1933C>A	NM_004646.3:c.1933C>A	XM_005258961.1:c.1594C>A
NM_004646.3:c.1954C>T		NC_000019.9:g.36335338G>A	NM_004646.2:c.1954C>T	NM_004646.3:c.1954C>T	XM_005258961.1:c.1615C>T
NM_004646.3:c.1999C>A		NC_000019.9:g.36335293G>T	NM_004646.2:c.1999C>A	NM_004646.3:c.1999C>A	XM_005258961.1:c.1660C>A
NM_004646.3:c.2014G>C		NC_000019.9:g.36335278C>G	NM_004646.2:c.2014G>C	NM_004646.3:c.2014G>C	XM_005258961.1:c.1675G>C
NM_004646.3:c.2014G>A		NC_000019.9:g.36335278C>T	NM_004646.2:c.2014G>A	NM_004646.3:c.2014G>A	XM_005258961.1:c.1675G>A
NM_004646.3:c.2019C>A		NC_000019.9:g.36335273G>T	NM_004646.2:c.2019C>A	NM_004646.3:c.2019C>A	XM_005258961.1:c.1680C>A
NM_004646.3:c.2020C>A		NC_000019.9:g.36335272G>T	NM_004646.2:c.2020C>A	NM_004646.3:c.2020C>A	XM_005258961.1:c.1681C>A
NM_004646.3:c.2026C>T		NC_000019.9:g.36335266G>A	NM_004646.2:c.2026C>T	NM_004646.3:c.2026C>T	XM_005258961.1:c.1687C>T
NM_004646.3:c.2026C>A		NC_000019.9:g.36335266G>T	NM_004646.2:c.2026C>A	NM_004646.3:c.2026C>A	XM_005258961.1:c.1687C>A
NM_004646.3:c.2043G>T		NC_000019.9:g.36335249C>A	NM_004646.2:c.2043G>T	NM_004646.3:c.2043G>T	XM_005258961.1:c.1704G>T
NM_004646.3:c.2071+2T>C		NC_000019.9:g.36335219A>G	NM_004646.2:c.2071+2T>C	NM_004646.3:c.2071+2T>C	XM_005258961.1:c.1732+2T>C
NM_004646.3:c.2072-6C>G		NC_000019.9:g.36335151G>C	NM_004646.2:c.2072-6C>G	NM_004646.3:c.2072-6C>G	XM_005258961.1:c.1733-6C>G
NM_004646.3:c.2104G>T		NC_000019.9:g.36335113C>A	NM_004646.2:c.2104G>T	NM_004646.3:c.2104G>T	XM_005258961.1:c.1765G>T
NM_004646.3:c.2126T>G		NC_000019.9:g.36335091A>C	NM_004646.2:c.2126T>G	NM_004646.3:c.2126T>G	XM_005258961.1:c.1787T>G
NM_004646.3:c.2131C>A		NC_000019.9:g.36335086G>T	NM_004646.2:c.2131C>A	NM_004646.3:c.2131C>A	XM_005258961.1:c.1792C>A
NM_004646.3:c.2132G>A		NC_000019.9:g.36335085C>T	NM_004646.2:c.2132G>A	NM_004646.3:c.2132G>A	XM_005258961.1:c.1793G>A
NM_004646.3:c.2143G>C		NC_000019.9:g.36335074C>G	NM_004646.2:c.2143G>C	NM_004646.3:c.2143G>C	XM_005258961.1:c.1804G>C
NM_004646.3:c.2156_2163delTGCACTGC		NC_000019.9:g.36335054_36335061delGCAGTGCA	NM_004646.2:c.2156_2163delTGCACTGC	NM_004646.3:c.2156_2163delTGCACTGC	XM_005258961.1:c.1817_1824delTGCACTGC
NM_004646.3:c.2171C>G		NC_000019.9:g.36335046G>C	NM_004646.2:c.2171C>G	NM_004646.3:c.2171C>G	XM_005258961.1:c.1832C>G
NM_004646.3:c.2172_2173delTG		NC_000019.9:g.36335044_36335045delCA	NM_004646.2:c.2172_2173delTG	NM_004646.3:c.2172_2173delTG	XM_005258961.1:c.1833_1834delTG
NM_004646.3:c.2173G>A		NC_000019.9:g.36335044C>T	NM_004646.2:c.2173G>A	NM_004646.3:c.2173G>A	XM_005258961.1:c.1834G>A
NM_004646.3:c.2206G>T		NC_000019.9:g.36335011C>A	NM_004646.2:c.2206G>T	NM_004646.3:c.2206G>T	XM_005258961.1:c.1867G>T
NM_004646.3:c.2212+2_2212+3delTG		NC_000019.9:g.36335002_36335003delCA	NM_004646.2:c.2212+2_2212+3delTG	NM_004646.3:c.2212+2_2212+3delTG	XM_005258961.1:c.1873+2_1873+3delTG
NM_004646.3:c.2215G>A		NC_000019.9:g.36334493C>T	NM_004646.2:c.2215G>A	NM_004646.3:c.2215G>A	XM_005258961.1:c.1876G>A
NM_004646.3:c.2216C>T		NC_000019.9:g.36334492G>A	NM_004646.2:c.2216C>T	NM_004646.3:c.2216C>T	XM_005258961.1:c.1877C>T
NM_004646.3:c.2227C>T		NC_000019.9:g.36334481G>A	NM_004646.2:c.2227C>T	NM_004646.3:c.2227C>T	XM_005258961.1:c.1888C>T
NM_004646.3:c.2227delC		NC_000019.9:g.36334481delG	NM_004646.2:c.2227delC	NM_004646.3:c.2227delC	XM_005258961.1:c.1888delC
NM_004646.3:c.2251G>T		NC_000019.9:g.36334457C>A	NM_004646.2:c.2251G>T	NM_004646.3:c.2251G>T	XM_005258961.1:c.1912G>T
NM_004646.3:c.2299C>T		NC_000019.9:g.36334409G>A	NM_004646.2:c.2299C>T	NM_004646.3:c.2299C>T	XM_005258961.1:c.1960C>T
NM_004646.3:c.2324G>T		NC_000019.9:g.36334384C>A	NM_004646.2:c.2324G>T	NM_004646.3:c.2324G>T	XM_005258961.1:c.1985G>T
NM_004646.3:c.2335-1G>A		NC_000019.9:g.36333453C>T	NM_004646.2:c.2335-1G>A	NM_004646.3:c.2335-1G>A	XM_005258961.1:c.1996-1G>A
NM_004646.3:c.2386G>A		NC_000019.9:g.36333401C>T	NM_004646.2:c.2386G>A	NM_004646.3:c.2386G>A	XM_005258961.1:c.2047G>A
NM_004646.3:c.2404C>T		NC_000019.9:g.36333383G>A	NM_004646.2:c.2404C>T	NM_004646.3:c.2404C>T	XM_005258961.1:c.2065C>T
NM_004646.3:c.2405G>C		NC_000019.9:g.36333382C>G	NM_004646.2:c.2405G>C	NM_004646.3:c.2405G>C	XM_005258961.1:c.2066G>C
NM_004646.3:c.2417C>A		NC_000019.9:g.36333370G>T	NM_004646.2:c.2417C>A	NM_004646.3:c.2417C>A	XM_005258961.1:c.2078C>A
NM_004646.3:c.2422delC		NC_000019.9:g.36333365delG	NM_004646.2:c.2422delC	NM_004646.3:c.2422delC	XM_005258961.1:c.2083delC
NM_004646.3:c.2442C>G		NC_000019.9:g.36333345G>C	NM_004646.2:c.2442C>G	NM_004646.3:c.2442C>G	XM_005258961.1:c.2103C>G
NM_004646.3:c.2479C>T		NC_000019.9:g.36333308G>A	NM_004646.2:c.2479C>T	NM_004646.3:c.2479C>T	XM_005258961.1:c.2140C>T
NM_004646.3:c.2491C>T		NC_000019.9:g.36333296G>A	NM_004646.2:c.2491C>T	NM_004646.3:c.2491C>T	XM_005258961.1:c.2152C>T
NM_004646.3:c.2495T>C		NC_000019.9:g.36333292A>G	NM_004646.2:c.2495T>C	NM_004646.3:c.2495T>C	XM_005258961.1:c.2156T>C
NM_004646.3:c.2500G>T		NC_000019.9:g.36333287C>A	NM_004646.2:c.2500G>T	NM_004646.3:c.2500G>T	XM_005258961.1:c.2161G>T
NM_004646.3:c.2506+1G>T		NC_000019.9:g.36333280C>A	NM_004646.2:c.2506+1G>T	NM_004646.3:c.2506+1G>T	XM_005258961.1:c.2167+1G>T
NM_004646.3:c.2514_2515dupCC		NC_000019.9:g.36333174_36333175dup	NM_004646.2:c.2514_2515dup	NM_004646.3:c.2514_2515dup	XM_005258961.1:c.2175_2176dup
NM_004646.3:c.2515delC		NC_000019.9:g.36333174delG	NM_004646.2:c.2515delC	NM_004646.3:c.2515delC	XM_005258961.1:c.2176delC
NM_004646.3:c.2540_2543delCTAA		NC_000019.9:g.36333146_36333149delTTAG	NM_004646.2:c.2540_2543delCTAA	NM_004646.3:c.2540_2543delCTAA	XM_005258961.1:c.2201_2204delCTAA
NM_004646.3:c.2542A>C		NC_000019.9:g.36333147T>G	NM_004646.2:c.2542A>C	NM_004646.3:c.2542A>C	XM_005258961.1:c.2203A>C
NM_004646.3:c.2549_2558del10		NC_000019.9:g.36333131_36333140del10	NM_004646.2:c.2549_2558del10	NM_004646.3:c.2549_2558del10	XM_005258961.1:c.2210_2219del10
NM_004646.3:c.2587T>C		NC_000019.9:g.36333102A>G	NM_004646.2:c.2587T>C	NM_004646.3:c.2587T>C	XM_005258961.1:c.2248T>C
NM_004646.3:c.2596C>T		NC_000019.9:g.36333093G>A	NM_004646.2:c.2596C>T	NM_004646.3:c.2596C>T	XM_005258961.1:c.2257C>T
NM_004646.3:c.2600G>A		NC_000019.9:g.36333089C>T	NM_004646.2:c.2600G>A	NM_004646.3:c.2600G>A	XM_005258961.1:c.2261G>A
NM_004646.3:c.2606_2607dupCC		NC_000019.9:g.36333082_36333083dup	NM_004646.2:c.2606_2607dup	NM_004646.3:c.2606_2607dup	XM_005258961.1:c.2267_2268dup
NM_004646.3:c.2618_2620delTCAinsCC		NC_000019.9:g.36333069_36333071delinsGG	NM_004646.2:c.2618_2620delinsCC	NM_004646.3:c.2618_2620delinsCC	XM_005258961.1:c.2279_2281delinsCC
NM_004646.3:c.2625G>A		NC_000019.9:g.36333064C>T	NM_004646.2:c.2625G>A	NM_004646.3:c.2625G>A	XM_005258961.1:c.2286G>A
NM_004646.3:c.2633dupA		NC_000019.9:g.36333056dup	NM_004646.2:c.2633dup	NM_004646.3:c.2633dup	XM_005258961.1:c.2294dup
NM_004646.3:c.2664-4_2670del11		NC_000019.9:g.36332762_36332772del11	NM_004646.2:c.2664-4_2670del11	NM_004646.3:c.2664-4_2670del11	XM_005258961.1:c.2325-4_2331del11
NM_004646.3:c.2678_2679dupCA		NC_000019.9:g.36332753_36332754dup	NM_004646.2:c.2678_2679dup	NM_004646.3:c.2678_2679dup	XM_005258961.1:c.2339_2340dup
NM_004646.3:c.2728T>C		NC_000019.9:g.36332704A>G	NM_004646.2:c.2728T>C	NM_004646.3:c.2728T>C	XM_005258961.1:c.2389T>C
NM_004646.3:c.2734G>A		NC_000019.9:g.36332698C>T	NM_004646.2:c.2734G>A	NM_004646.3:c.2734G>A	XM_005258961.1:c.2395G>A
NM_004646.3:c.2765C>A		NC_000019.9:g.36332667G>T	NM_004646.2:c.2765C>A	NM_004646.3:c.2765C>A	XM_005258961.1:c.2426C>A
NM_004646.3:c.2769_2776delCAACGCCC		NC_000019.9:g.36332656_36332663delGGGCGTTG	NM_004646.2:c.2769_2776delCAACGCCC	NM_004646.3:c.2769_2776delCAACGCCC	XM_005258961.1:c.2430_2437delCAACGCCC
NM_004646.3:c.2800C>T		NC_000019.9:g.36332632G>A	NM_004646.2:c.2800C>T	NM_004646.3:c.2800C>T	XM_005258961.1:c.2461C>T
NM_004646.3:c.2815+2T>A		NC_000019.9:g.36332615A>T	NM_004646.2:c.2815+2T>A	NM_004646.3:c.2815+2T>A	XM_005258961.1:c.2476+2T>A
NM_004646.3:c.2815+5G>A		NC_000019.9:g.36332612C>T	NM_004646.2:c.2815+5G>A	NM_004646.3:c.2815+5G>A	XM_005258961.1:c.2476+5G>A
NM_004646.3:c.2815+3A>G		NC_000019.9:g.36332614T>C	NM_004646.2:c.2815+3A>G	NM_004646.3:c.2815+3A>G	XM_005258961.1:c.2476+3A>G
NM_004646.3:c.2816-4_2822del11		NC_000019.9:g.36330503_36330513del11	NM_004646.2:c.2816-4_2822del11	NM_004646.3:c.2816-4_2822del11	XM_005258961.1:c.2477-4_2483del11
NM_004646.3:c.2816-3T>G		NC_000019.9:g.36330512A>C	NM_004646.2:c.2816-3T>G	NM_004646.3:c.2816-3T>G	XM_005258961.1:c.2477-3T>G
NM_004646.3:c.2881T>C		NC_000019.9:g.36330444A>G	NM_004646.2:c.2881T>C	NM_004646.3:c.2881T>C	XM_005258961.1:c.2542T>C
NM_004646.3:c.2927+1G>A		NC_000019.9:g.36330397C>T	NM_004646.2:c.2927+1G>A	NM_004646.3:c.2927+1G>A	XM_005258961.1:c.2588+1G>A
NM_004646.3:c.2928G>T		NC_000019.9:g.36330320C>A	NM_004646.2:c.2928G>T	NM_004646.3:c.2928G>T	XM_005258961.1:c.2589G>T
NM_004646.3:c.2928-3C>G		NC_000019.9:g.36330323G>C	NM_004646.2:c.2928-3C>G	NM_004646.3:c.2928-3C>G	XM_005258961.1:c.2589-3C>G
NM_004646.3:c.2930A>G		NC_000019.9:g.36330318T>C	NM_004646.2:c.2930A>G	NM_004646.3:c.2930A>G	XM_005258961.1:c.2591A>G
NM_004646.3:c.2944dupA		NC_000019.9:g.36330304dup	NM_004646.2:c.2944dup	NM_004646.3:c.2944dup	XM_005258961.1:c.2605dup
NM_004646.3:c.3027C>G		NC_000019.9:g.36330221G>C	NM_004646.2:c.3027C>G	NM_004646.3:c.3027C>G	XM_005258961.1:c.2688C>G
NM_004646.3:c.3047G>A		NC_000019.9:g.36330201C>T	NM_004646.2:c.3047G>A	NM_004646.3:c.3047G>A	XM_005258961.1:c.2708G>A
NM_004646.3:c.3059G>T		NC_000019.9:g.36330189C>A	NM_004646.2:c.3059G>T	NM_004646.3:c.3059G>T	XM_005258961.1:c.2720G>T
NM_004646.3:c.3110-2A>G		NC_000019.9:g.36326665T>C	NM_004646.2:c.3110-2A>G	NM_004646.3:c.3110-2A>G	XM_005258961.1:c.2771-2A>G
NM_004646.3:c.3151A>G		NC_000019.9:g.36326622T>C	NM_004646.2:c.3151A>G	NM_004646.3:c.3151A>G	XM_005258961.1:c.2812A>G
NM_004646.3:c.3211G>T		NC_000019.9:g.36322620C>A	NM_004646.2:c.3211G>T	NM_004646.3:c.3211G>T	XM_005258961.1:c.2872G>T
NM_004646.3:c.3230A>G		NC_000019.9:g.36322601T>C	NM_004646.2:c.3230A>G	NM_004646.3:c.3230A>G	XM_005258961.1:c.2891A>G
NM_004646.3:c.3233C>A		NC_000019.9:g.36322598G>T	NM_004646.2:c.3233C>A	NM_004646.3:c.3233C>A	XM_005258961.1:c.2894C>A
NM_004646.3:c.3244G>A		NC_000019.9:g.36322587C>T	NM_004646.2:c.3244G>A	NM_004646.3:c.3244G>A	XM_005258961.1:c.2905G>A
NM_004646.3:c.3250dupG		NC_000019.9:g.36322581dup	NM_004646.2:c.3250dup	NM_004646.3:c.3250dup	XM_005258961.1:c.2911dup
NM_004646.3:c.3286G>T		NC_000019.9:g.36322545C>A	NM_004646.2:c.3286G>T	NM_004646.3:c.3286G>T	XM_005258961.1:c.2947G>T
NM_004646.3:c.3286+2T>C		NC_000019.9:g.36322543A>G	NM_004646.2:c.3286+2T>C	NM_004646.3:c.3286+2T>C	XM_005258961.1:c.2947+2T>C
NM_004646.3:c.3287delG		NC_000019.9:g.36322402delC	NM_004646.2:c.3287delG	NM_004646.3:c.3287delG	XM_005258961.1:c.2948delG
NM_004646.3:c.3287-11G>A		NC_000019.9:g.36322413C>T	NM_004646.2:c.3287-11G>A	NM_004646.3:c.3287-11G>A	XM_005258961.1:c.2948-11G>A
NM_004646.3:c.3312-1G>A		NC_000019.9:g.36322274C>T	NM_004646.2:c.3312-1G>A	NM_004646.3:c.3312-1G>A	XM_005258961.1:c.2973-1G>A
NM_004646.3:c.3325C>T		NC_000019.9:g.36322260G>A	NM_004646.2:c.3325C>T	NM_004646.3:c.3325C>T	XM_005258961.1:c.2986C>T
NM_004646.3:c.3343G>T		NC_000019.9:g.36322242C>A	NM_004646.2:c.3343G>T	NM_004646.3:c.3343G>T	XM_005258961.1:c.3004G>T
NM_004646.3:c.3418C>T		NC_000019.9:g.36322018G>A	NM_004646.2:c.3418C>T	NM_004646.3:c.3418C>T	XM_005258961.1:c.3079C>T
NM_004646.3:c.3442C>T		NC_000019.9:g.36321994G>A	NM_004646.2:c.3442C>T	NM_004646.3:c.3442C>T	XM_005258961.1:c.3103C>T
NM_004646.3:c.3478C>T		NC_000019.9:g.36321958G>A	NM_004646.2:c.3478C>T	NM_004646.3:c.3478C>T	XM_005258961.1:c.3139C>T
NM_004646.3:c.3481+1G>T		NC_000019.9:g.36321954C>A	NM_004646.2:c.3481+1G>T	NM_004646.3:c.3481+1G>T	XM_005258961.1:c.3142+1G>T
NM_004646.3:c.3482G>T		NC_000019.9:g.36321858C>A	NM_004646.2:c.3482G>T	NM_004646.3:c.3482G>T	XM_005258961.1:c.3143G>T
NM_004646.3:c.3482-2A>G		NC_000019.9:g.36321860T>C	NM_004646.2:c.3482-2A>G	NM_004646.3:c.3482-2A>G	XM_005258961.1:c.3143-2A>G
NM_004646.3:c.3544A>G		NC_000019.9:g.36321796T>C	NM_004646.2:c.3544A>G	NM_004646.3:c.3544A>G	XM_005258961.1:c.3205A>G
NM_004646.3:c.3595-2A>G		NC_000019.9:g.36317549T>C	NM_004646.2:c.3595-2A>G	NM_004646.3:c.3595-2A>G	XM_005258961.1:c.3256-2A>G
NM_004646.3:c.3720_*9del16		NC_000019.9:g.36317407_36317422del16	NM_004646.2:c.3720_*9del16	NM_004646.3:c.3720_*9del16	XM_005258961.1:c.3381_*9del16
