nucl,mutalyzer.prot,HWE.null.vs.hypomorphic,HWE.truncating.vs.missense,HWE.translatable,HWE.domain
c.1001+1G>A,,null,truncating,nontranslatable,
c.1001+5G>C,,,,,
c.1002-1G>T,,null,truncating,nontranslatable,
c.1004T>C,p.(Phe335Ser),,missense,translatable,
c.1079C>T,p.(Ala360Val),,missense,translatable,
c.109G>T,p.(Glu37*),null,truncating,nontranslatable,
c.1102G>T,p.(Gly368*),null,truncating,nontranslatable,
c.1133_1135delCCA,p.(Thr378del),,missense,translatable,
c.1147C>G,p.(Gln383Glu),,missense,translatable,
c.1149+1G>A,,null,truncating,nontranslatable,
c.1149+3A>G,,,,,
c.1151A>G,p.(Glu384Gly),,missense,translatable,
c.1173C>A,p.(Ser391Arg),,missense,translatable,
c.1174A>T,p.(Asn392Tyr),,missense,translatable,
c.1181_1183delTCT,p.(Phe394del),,missense,translatable,
c.1198delT,p.(Cys400Valfs*32),null,truncating,,
c.1225C>T,p.(Arg409Cys),,missense,translatable,
c.1226G>A,p.(Arg409His),,missense,translatable,
c.1226G>T,p.(Arg409Leu),,missense,translatable,
c.1229C>T,p.(Thr410Met),,missense,translatable,
c.1238A>C,p.(Gln413Pro),,missense,translatable,
c.1238A>G,p.(Gln413Arg),,missense,translatable,
c.1246A>C,p.(Thr416Pro),,missense,translatable,
c.1252G>A,p.(Gly418Arg),,missense,translatable,
c.1262A>C,p.(Gln421Pro),,missense,translatable,
c.1264-1G>C,,,,,
c.1271G>A,p.(Gly424Asp),,missense,translatable,
c.1284_1286delTGC,p.(Ala429del),,missense,translatable,
c.129dupC,p.(Lys44Glnfs*43),null,truncating,nontranslatable,
c.1318A>T,p.(Lys440*),null,truncating,,
c.1334T>G,p.(Leu445Trp),,missense,translatable,
c.1336C>T,p.(Gln446*),null,truncating,,
c.1341+1G>C,,null,truncating,,
c.1343_1344insAGTC,p.(Leu450Glyfs*19),null,truncating,,
c.1343C>A,p.(Ser448*),null,truncating,,
c.1343C>T,p.(Ser448Leu),,missense,translatable,
c.1369A>T,p.(Asn457Tyr),,missense,translatable,
c.1392delG,p.(Gln464Hisfs*24),null,truncating,,
c.1412delT,,,,,
c.1477G>T,p.(Gly493Trp),,,,
c.1489G>A,p.(Gly497Ser),,,,
c.1511T>C,p.(Phe504Ser),,,,
c.1520delT,p.(Leu507*),,,,
c.1522A>G,p.(Thr508Ala),,,,
c.1523C>A,p.(Thr508Asn),,,,
c.1536_1537delAG,p.(Arg512Serfs*14),,,,
c.1536delAG,,,,,
c.1540C>A,p.(Gln514Lys),,,,
c.1540C>T,p.(Gln514*),,,,
c.1541A>G,p.(Gln514Arg),,,,
c.1547dupC,p.(Ser517Phefs*10),,,,
c.1574C>T,p.(Pro525Leu),,,,
c.1579A>C,p.(Thr527Pro),,,,
c.1586T>G,p.(Ile529Ser),,,,
c.1588T>C,p.(Tyr530His),,,,
c.1589A>C,p.(Tyr530Ser),,,,
c.1590C>G,p.(Tyr530*),,,,
c.1594_1595delAGinsT,p.(Ser532Leufs*14),,,,
c.1594A>C,p.(Ser532Arg),,,,
c.1595G>T,p.(Ser532Ile),,,,
c.1614+1G>A,,,,,
c.1615-1G>A,,,,,
c.1615-2A>G,,,,,
c.164+1delG,,,,,
c.165-2A>G,,,,,
c.1655G>T,p.(Ser552Ile),,,,
c.1666T>C,p.(Tyr556His),,,,
c.1692dupA,p.(Cys565Metfs*9),,,,
c.1705+5G>A,,,,,
c.1707+5G>A,,,,,
c.1803+2T>C,,,,,
c.1829C>A,p.(Ser610*),,,,
c.1873G>T,p.(Glu625*),,,,
c.1919G>A,p.(Trp640*),,,,
c.1920G>A,p.(Trp640*),,,,
c.1949T>A,p.(Val650Asp),,,,
c.1970G>T,p.(Ser657Ile),,,,
c.1975G>C,p.(Val659Leu),,,,
c.1981G>T,p.(Asp661Tyr),,,,
c.2000T>C,p.(Phe667Ser),,,,
c.2015G>A,p.(Gly672Glu),,,,
c.2027T>A,p.(Leu676Gln),,,,
c.2044G>T,p.(Glu682*),,,,
c.2069T>C,p.(Val690Ala),,,,
c.2080T>C,p.(Ser694Pro),,,,
c.2086C>T,p.(Gln696*),,,,
c.2089+1G>A,,,,,
c.2090A>C,p.(Asp697Ala),,,,
c.2118C>A,p.(Cys706*),,,,
c.2127delT,p.(Phe709Leufs*12),,,,
c.2162C>T,p.(Thr721Met),,,,
c.2167C>G,p.(His723Asp),,,,
c.2168A>G,p.(His723Arg),,,,
c.2170G>A,p.(Asp724Asn),,,,
c.2171A>G,p.(Asp724Gly),,,,
c.2173G>C,p.(Ala725Pro),,,,
c.2174_2177dupCTAT,p.(Leu727Tyrfs*28),,,,
c.2177_2178insCTAT,p.(Leu727Tyrfs*28),,,,
c.2186T>C,p.(Leu729Pro),,,,
c.230A>T,p.(Lys77Ile),,,,
c.233A>G,p.(Tyr78Cys),,,,
c.2343A>G,p.(*781Trpext*42),,,,
c.249G>A,p.(Trp83*),,,,
c.259G>T,p.(Asp87Tyr),,,,
c.279delT,p.(Ser93Argfs*4),,,,
c.281C>T,p.(Thr94Ile),,,,
c.284G>C,p.(Gly95Ala),,,,
c.2T>C,p.?,,,,
c.3-2A>G,,,,,
c.-3-2A>G,,,,,
c.365dupT,p.(Ile124Tyrfs*58),,,,
c.392G>T,p.(Gly131Val),,,,
c.397T>A,p.(Ser133Thr),,,,
c.398C>A,p.(Ser133*),,,,
c.409T>C,p.(Ser137Pro),,,,
c.412G>T,p.(Val138Phe),,,,
c.414delT,p.(Gly139Aspfs*6),,,,
c.416G>T,p.(Gly139Val),,,,
c.419C>A,p.(Pro140His),,,,
c.422T>C,p.(Phe141Ser),,,,
c.425C>G,p.(Pro142Arg),,,,
c.425C>T,p.(Pro142Leu),,,,
c.439A>G,p.(Met147Val),,,,
c.440T>C,p.(Met147Thr),,,,
c.454delG,p.(Val152Phefs*2),,,,
c.496delA,p.(Ser166Alafs*6),,,,
c.563T>C,p.(Ile188Thr),,,,
c.578C>T,p.(Thr193Ile),,,,
c.589G>A,p.(Gly197Arg),,,,
c.600+2T>A,,,,,
c.626G>T,p.(Gly209Val),,,,
c.631del5,,,,,
c.644T>C,p.(Leu215Ser),,,,
c.665G>C,p.(Gly222Ala),,,,
c.679G>C,p.(Ala227Pro),,,,
c.68C>A,p.(Ser23*),,,,
c.707T>C,p.(Leu236Pro),,,,
c.716T>A,p.(Val239Asp),,,,
c.754T>C,p.(Ser252Pro),,,,
c.765+3A>T,,,,,
c.775_779delGAGAT,p.(Glu259Phefs*6),,,,
c.812A>G,p.(Asp271Gly),,,,
c.82A>C,p.(Ser28Arg),,,,
c.84C>A,p.(Ser28Arg),,,,
c.85G>C,p.(Glu29Gln),,,,
c.882_883delCA,p.(His294Glnfs*35),,,,
c.890delC,p.(Pro297Glnfs*6),,,,
c.916dupG,p.(Val306Glyfs*24),,,,
c.918+2T>C,,,,,
c.919-2A>G,,,,,
c.946G>T,p.(Gly316*),,,,
c.983T>G,p.(Val328Gly),,,,
