"nucl","prot","category"
"c.2T>C","p.M1T","missense/nonsense"
"c.68C>A","p.S23*","missense/nonsense"
"c.73C>A","p.P25T","missense/nonsense"
"c.84C>A","p.S28R","missense/nonsense"
"c.82A>C","p.S28R","missense/nonsense"
"c.85G>C","p.E29Q","missense/nonsense"
"c.109G>T","p.E37*","missense/nonsense"
"c.230A>T","p.K77I","missense/nonsense"
"c.233A>G","p.Y78C","missense/nonsense"
"c.249G>A","p.W83*","missense/nonsense"
"c.259G>T","p.D87Y","missense/nonsense"
"c.262G>A","p.V88I","missense/nonsense"
"c.269C>T","p.S90L","missense/nonsense"
"c.281C>T","p.T94I","missense/nonsense"
"c.284G>C","p.G95A","missense/nonsense"
"c.392G>T","p.G131V","missense/nonsense"
"c.398C>A","p.S133*","missense/nonsense"
"c.397T>A","p.S133T","missense/nonsense"
"c.409T>C","p.S137P","missense/nonsense"
"c.412G>T","p.V138F","missense/nonsense"
"c.416G>T","p.G139V","missense/nonsense"
"c.419C>A","p.P140H","missense/nonsense"
"c.422T>C","p.F141S","missense/nonsense"
"c.425C>G","p.P142R","missense/nonsense"
"c.425C>T","p.P142L","missense/nonsense"
"c.440T>C","p.M147T","missense/nonsense"
"c.439A>G","p.M147V","missense/nonsense"
"c.497G>A","p.S166N","missense/nonsense"
"c.563T>C","p.I188T","missense/nonsense"
"c.578C>T","p.T193I","missense/nonsense"
"c.589G>A","p.G197R","missense/nonsense"
"c.626G>T","p.G209V","missense/nonsense"
"c.644T>C","p.L215S","missense/nonsense"
"c.665G>C","p.G222A","missense/nonsense"
"c.679G>C","p.A227P","missense/nonsense"
"c.697G>C","p.V233L","missense/nonsense"
"c.707T>C","p.L236P","missense/nonsense"
"c.716T>A","p.V239D","missense/nonsense"
"c.754T>C","p.S252P","missense/nonsense"
"c.812A>G","p.D271G","missense/nonsense"
"c.898A>C","p.I300L","missense/nonsense"
"c.946G>T","p.G316*","missense/nonsense"
"c.983T>G","p.V328G","missense/nonsense"
"c.1003T>C","p.F335L","missense/nonsense"
"c.1004T>C","p.F335S","missense/nonsense"
"c.1079C>T","p.A360V","missense/nonsense"
"c.1102G>T","p.G368*","missense/nonsense"
"c.1147C>G","p.Q383E","missense/nonsense"
"c.1151A>G","p.E384G","missense/nonsense"
"c.1173C>A","p.S391R","missense/nonsense"
"c.1174A>T","p.N392Y","missense/nonsense"
"c.1225C>T","p.R409C","missense/nonsense"
"c.1226G>A","p.R409H","missense/nonsense"
"c.1226G>T","p.R409L","missense/nonsense"
"c.1226G>C","p.R409P","missense/nonsense"
"c.1229C>T","p.T410M","missense/nonsense"
"c.1238A>G","p.Q413R","missense/nonsense"
"c.1238A>C","p.Q413P","missense/nonsense"
"c.1246A>C","p.T416P","missense/nonsense"
"c.1252G>A","p.G418R","missense/nonsense"
"c.1262A>C","p.Q421P","missense/nonsense"
"c.1271G>A","p.G424D","missense/nonsense"
"c.1318A>T","p.K440*","missense/nonsense"
"c.1334T>G","p.L445W","missense/nonsense"
"c.1337A>G","p.Q446R","missense/nonsense"
"c.1336C>T","p.Q446*","missense/nonsense"
"c.1343C>T","p.S448L","missense/nonsense"
"c.1343C>A","p.S448*","missense/nonsense"
"c.1369A>T","p.N457Y","missense/nonsense"
"c.1454C>G","p.T485R","missense/nonsense"
"c.1477G>T","p.G493W","missense/nonsense"
"c.1489G>A","p.G497S","missense/nonsense"
"c.1511T>C","p.F504S","missense/nonsense"
"c.1522A>G","p.T508A","missense/nonsense"
"c.1523C>A","p.T508N","missense/nonsense"
"c.1541A>G","p.Q514R","missense/nonsense"
"c.1540C>A","p.Q514K","missense/nonsense"
"c.1540C>T","p.Q514*","missense/nonsense"
"c.1554G>A","p.W518*","missense/nonsense"
"c.1574C>T","p.P525L","missense/nonsense"
"c.1579A>C","p.T527P","missense/nonsense"
"c.1586T>G","p.I529S","missense/nonsense"
"c.1588T>C","p.Y530H","missense/nonsense"
"c.1589A>C","p.Y530S","missense/nonsense"
"c.1590C>G","p.Y530*","missense/nonsense"
"c.1594A>C","p.S532R","missense/nonsense"
"c.1595G>T","p.S532I","missense/nonsense"
"c.1655G>T","p.S552I","missense/nonsense"
"c.1666T>C","p.Y556H","missense/nonsense"
"c.1693T>C","p.C565R","missense/nonsense"
"c.1694G>A","p.C565Y","missense/nonsense"
"c.1790T>C","p.L597S","missense/nonsense"
"c.1826T>G","p.V609G","missense/nonsense"
"c.1829C>A","p.S610*","missense/nonsense"
"c.1873G>T","p.E625*","missense/nonsense"
"c.1919G>A","p.W640*","missense/nonsense"
"c.1920G>A","p.W640*","missense/nonsense"
"c.1949T>A","p.V650D","missense/nonsense"
"c.1970G>T","p.S657I","missense/nonsense"
"c.1975G>C","p.V659L","missense/nonsense"
"c.1981G>T","p.D661Y","missense/nonsense"
"c.2000T>C","p.F667S","missense/nonsense"
"c.2015G>A","p.G672E","missense/nonsense"
"c.2027T>A","p.L676Q","missense/nonsense"
"c.2044G>T","p.E682*","missense/nonsense"
"c.2069T>C","p.V690A","missense/nonsense"
"c.2080T>C","p.S694P","missense/nonsense"
"c.2086C>T","p.Q696*","missense/nonsense"
"c.2090A>C","p.D697A","missense/nonsense"
"c.2118C>A","p.C706*","missense/nonsense"
"c.2162C>T","p.T721M","missense/nonsense"
"c.2168A>G","p.H723R","missense/nonsense"
"c.2167C>G","p.H723D","missense/nonsense"
"c.2170G>A","p.D724N","missense/nonsense"
"c.2171A>G","p.D724G","missense/nonsense"
"c.2173G>C","p.A725P","missense/nonsense"
"c.2186T>C","p.L729P","missense/nonsense"
"c.2219G>T","p.G740V","missense/nonsense"
"c.2343A>G","p.*781W","missense/nonsense"
"c.-3-2A>G","","splicing"
"c.165-2A>G","","splicing"
"c.600+2T>A","","splicing"
"c.765+3A>T","","splicing"
"c.918+2T>C","","splicing"
"c.919-2A>G","","splicing"
"c.1001+1G>A","","splicing"
"c.1001+5G>C","","splicing"
"c.1002-1G>T","","splicing"
"c.1149+1G>A","","splicing"
"c.1149+3A>G","","splicing"
"c.1264-12T>A","","splicing"
"c.1264-1G>C","","splicing"
"c.1341+1G>C","","splicing"
"c.1544+9C>T","","splicing"
"c.1614+1G>A","","splicing"
"c.1615-2A>G","","splicing"
"c.1615-1G>A","","splicing"
"c.1707+5G>A","","splicing"
"c.1803+2T>C","","splicing"
"c.2089+1G>A","","splicing"
"c.164+1delG","","small deletions"
"c.279delT","","small deletions"
"c.414delT","","small deletions"
"c.454delG","","small deletions"
"c.496delA","","small deletions"
"c.775_779delGAGAT","","small deletions"
"c.882_883delCA","","small deletions"
"c.890delC","","small deletions"
"c.1133_1135delCCA","","small deletions"
"c.1181_1183delTCT","","small deletions"
"c.1198delT","","small deletions"
"c.1284_1286delTGC","","small deletions"
"c.1392delG","","small deletions"
"c.1412delT","","small deletions"
"c.1520delT","","small deletions"
"c.1536_1537delAG","","small deletions"
"c.2127delT","","small deletions"
"c.129dupC","","small insertions"
"c.365dupT","","small insertions"
"c.916dupG","","small insertions"
"c.1547dupC","","small insertions"
"c.1692dupA","","small insertions"
"c.2174_2177dupCTAT","","small insertions"
"c.1594_1595delAGinsT","","small indels"
