Input	Errors and warnings	AccNo	Genesymbol	Variant	Reference Sequence Start Descr.	Coding DNA Descr.	Protein Descr.	GeneSymbol Coding DNA Descr.	GeneSymbol Protein Descr.	Genomic Reference	Coding Reference	Protein Reference	Affected Transcripts	Affected Proteins	Restriction Sites Created	Restriction Sites Deleted
NM_000441.1:c.2T>C	(GenRecord): Mutation in start codon of gene SLC26A4 transcript 001.	NM_000441.1	SLC26A4_v001	c.2T>C	n.226T>C	c.2T>C	p.?	SLC26A4_v001:c.2T>C	SLC26A4_v001:p.?		NM_000441.1	NP_000432.1	NM_000441.1(SLC26A4_v001):c.2T>C	NM_000441.1(SLC26A4_i001):p.?	BceAI,Tsp45I	CviAII,FatI,NlaIII	
NM_000441.1:c.-3-2A>G	(variantchecker): Intronic position given for a non-genomic reference sequence.	
NM_000441.1:c.68C>A		NM_000441.1	SLC26A4_v001	c.68C>A	n.292C>A	c.68C>A	p.(Ser23*)	SLC26A4_v001:c.68C>A	SLC26A4_v001:p.(Ser23*)		NM_000441.1	NP_000432.1	NM_000441.1(SLC26A4_v001):c.68C>A	NM_000441.1(SLC26A4_i001):p.(Ser23*)		BstUI	
NM_000441.1:c.73C>A		NM_000441.1	SLC26A4_v001	c.73C>A	n.297C>A	c.73C>A	p.(Pro25Thr)	SLC26A4_v001:c.73C>A	SLC26A4_v001:p.(Pro25Thr)		NM_000441.1	NP_000432.1	NM_000441.1(SLC26A4_v001):c.73C>A	NM_000441.1(SLC26A4_i001):p.(Pro25Thr)	HpyCH4III	BsiEI,BsrFI,EaeI,EagI,HaeIII,HpaII,LpnPI,MspI	
NM_000441.1:c.82A>C		NM_000441.1	SLC26A4_v001	c.82A>C	n.306A>C	c.82A>C	p.(Ser28Arg)	SLC26A4_v001:c.82A>C	SLC26A4_v001:p.(Ser28Arg)		NM_000441.1	NP_000432.1	NM_000441.1(SLC26A4_v001):c.82A>C	NM_000441.1(SLC26A4_i001):p.(Ser28Arg)		SfcI	
NM_000441.1:c.84C>A		NM_000441.1	SLC26A4_v001	c.84C>A	n.308C>A	c.84C>A	p.(Ser28Arg)	SLC26A4_v001:c.84C>A	SLC26A4_v001:p.(Ser28Arg)		NM_000441.1	NP_000432.1	NM_000441.1(SLC26A4_v001):c.84C>A	NM_000441.1(SLC26A4_i001):p.(Ser28Arg)			
NM_000441.1:c.85G>C		NM_000441.1	SLC26A4_v001	c.85G>C	n.309G>C	c.85G>C	p.(Glu29Gln)	SLC26A4_v001:c.85G>C	SLC26A4_v001:p.(Glu29Gln)		NM_000441.1	NP_000432.1	NM_000441.1(SLC26A4_v001):c.85G>C	NM_000441.1(SLC26A4_i001):p.(Glu29Gln)		BanII,BsiHKAI,Bsp1286I,Eco53kI,SacI	
NM_000441.1:c.109G>T		NM_000441.1	SLC26A4_v001	c.109G>T	n.333G>T	c.109G>T	p.(Glu37*)	SLC26A4_v001:c.109G>T	SLC26A4_v001:p.(Glu37*)		NM_000441.1	NP_000432.1	NM_000441.1(SLC26A4_v001):c.109G>T	NM_000441.1(SLC26A4_i001):p.(Glu37*)	BfaI	BsrBI,BssSI	
NM_000441.1:c.129dupC		NM_000441.1	SLC26A4_v001	c.129dupC	n.353dup	c.129dup	p.(Lys44Glnfs*43)	SLC26A4_v001:c.129dup	SLC26A4_v001:p.(Lys44Glnfs*43)		NM_000441.1	NP_000432.1	NM_000441.1(SLC26A4_v001):c.129dup	NM_000441.1(SLC26A4_i001):p.(Lys44Glnfs*43)			
NM_000441.1:c.164+1delG	(variantchecker): Intronic position given for a non-genomic reference sequence.	
NM_000441.1:c.165-2A>G	(variantchecker): Intronic position given for a non-genomic reference sequence.	
NM_000441.1:c.230A>T		NM_000441.1	SLC26A4_v001	c.230A>T	n.454A>T	c.230A>T	p.(Lys77Ile)	SLC26A4_v001:c.230A>T	SLC26A4_v001:p.(Lys77Ile)		NM_000441.1	NP_000432.1	NM_000441.1(SLC26A4_v001):c.230A>T	NM_000441.1(SLC26A4_i001):p.(Lys77Ile)			
NM_000441.1:c.233A>G		NM_000441.1	SLC26A4_v001	c.233A>G	n.457A>G	c.233A>G	p.(Tyr78Cys)	SLC26A4_v001:c.233A>G	SLC26A4_v001:p.(Tyr78Cys)		NM_000441.1	NP_000432.1	NM_000441.1(SLC26A4_v001):c.233A>G	NM_000441.1(SLC26A4_i001):p.(Tyr78Cys)			
NM_000441.1:c.249G>A		NM_000441.1	SLC26A4_v001	c.249G>A	n.473G>A	c.249G>A	p.(Trp83*)	SLC26A4_v001:c.249G>A	SLC26A4_v001:p.(Trp83*)		NM_000441.1	NP_000432.1	NM_000441.1(SLC26A4_v001):c.249G>A	NM_000441.1(SLC26A4_i001):p.(Trp83*)		ApeKI,BbvI,CviKI_1,Fnu4HI,TseI	
NM_000441.1:c.259G>T		NM_000441.1	SLC26A4_v001	c.259G>T	n.483G>T	c.259G>T	p.(Asp87Tyr)	SLC26A4_v001:c.259G>T	SLC26A4_v001:p.(Asp87Tyr)		NM_000441.1	NP_000432.1	NM_000441.1(SLC26A4_v001):c.259G>T	NM_000441.1(SLC26A4_i001):p.(Asp87Tyr)		AatII,BsaHI,Tsp45I,ZraI	
NM_000441.1:c.262G>A		NM_000441.1	SLC26A4_v001	c.262G>A	n.486G>A	c.262G>A	p.(Val88Ile)	SLC26A4_v001:c.262G>A	SLC26A4_v001:p.(Val88Ile)		NM_000441.1	NP_000432.1	NM_000441.1(SLC26A4_v001):c.262G>A	NM_000441.1(SLC26A4_i001):p.(Val88Ile)		AatII,BsaHI,HpyCH4IV,ZraI	
NM_000441.1:c.269C>T		NM_000441.1	SLC26A4_v001	c.269C>T	n.493C>T	c.269C>T	p.(Ser90Leu)	SLC26A4_v001:c.269C>T	SLC26A4_v001:p.(Ser90Leu)		NM_000441.1	NP_000432.1	NM_000441.1(SLC26A4_v001):c.269C>T	NM_000441.1(SLC26A4_i001):p.(Ser90Leu)		Hpy188III	
NM_000441.1:c.279delT		NM_000441.1	SLC26A4_v001	c.279delT	n.503del	c.279del	p.(Ser93Argfs*4)	SLC26A4_v001:c.279del	SLC26A4_v001:p.(Ser93Argfs*4)		NM_000441.1	NP_000432.1	NM_000441.1(SLC26A4_v001):c.279del	NM_000441.1(SLC26A4_i001):p.(Ser93Argfs*4)		CviQI,RsaI,ScaI	
NM_000441.1:c.281C>T		NM_000441.1	SLC26A4_v001	c.281C>T	n.505C>T	c.281C>T	p.(Thr94Ile)	SLC26A4_v001:c.281C>T	SLC26A4_v001:p.(Thr94Ile)		NM_000441.1	NP_000432.1	NM_000441.1(SLC26A4_v001):c.281C>T	NM_000441.1(SLC26A4_i001):p.(Thr94Ile)		BmrI,BsrI,CviQI,LpnPI,RsaI,ScaI	
NM_000441.1:c.284G>C		NM_000441.1	SLC26A4_v001	c.284G>C	n.508G>C	c.284G>C	p.(Gly95Ala)	SLC26A4_v001:c.284G>C	SLC26A4_v001:p.(Gly95Ala)		NM_000441.1	NP_000432.1	NM_000441.1(SLC26A4_v001):c.284G>C	NM_000441.1(SLC26A4_i001):p.(Gly95Ala)	HhaI,HinP1I,MwoI	BmrI,BsrI,LpnPI	
NM_000441.1:c.305_600del	(variantchecker): Variant hits one or more splice sites in selected transcript.	NM_000441.1	SLC26A4_v001	c.305_600del	n.529_824del	c.305_600del	p.(Gly102Valfs*59)	SLC26A4_v001:c.305_600del	SLC26A4_v001:p.(Gly102Valfs*59)		NM_000441.1	NP_000432.1	NM_000441.1(SLC26A4_v001):c.305_600del	NM_000441.1(SLC26A4_i001):p.(Gly102Valfs*59)		AluI (3),AlwI,AlwNI,AvaII,BaeGI,BccI,BciVI,BcoDI,BfuCI,BsaI,BsmAI,Bsp1286I,BspCNI (2),BsrDI,BstYI,BtsCI,BtsI,BtsIMutI (3),CviAII,DdeI (2),DpnI,DpnII,FatI,FokI,HinfI (2),HphI,Hpy188I (2),Hpy188III (3),Hpy99I,HpyCH4III (2),LpnPI (8),MboI,MluCI,MlyI (2),MmeI (3),MseI (2),MwoI,NdeI,NlaIII,NlaIV,PleI (2),PstI (2),Sau3AI,Sau96I (2),SfcI (2),TspRI (3),XmnI	
NM_000441.1:c.365dupT		NM_000441.1	SLC26A4_v001	c.365dupT	n.589dup	c.365dup	p.(Ile124Tyrfs*58)	SLC26A4_v001:c.365dup	SLC26A4_v001:p.(Ile124Tyrfs*58)		NM_000441.1	NP_000432.1	NM_000441.1(SLC26A4_v001):c.365dup	NM_000441.1(SLC26A4_i001):p.(Ile124Tyrfs*58)			
NM_000441.1:c.392G>T		NM_000441.1	SLC26A4_v001	c.392G>T	n.616G>T	c.392G>T	p.(Gly131Val)	SLC26A4_v001:c.392G>T	SLC26A4_v001:p.(Gly131Val)		NM_000441.1	NP_000432.1	NM_000441.1(SLC26A4_v001):c.392G>T	NM_000441.1(SLC26A4_i001):p.(Gly131Val)			
NM_000441.1:c.397T>A		NM_000441.1	SLC26A4_v001	c.397T>A	n.621T>A	c.397T>A	p.(Ser133Thr)	SLC26A4_v001:c.397T>A	SLC26A4_v001:p.(Ser133Thr)		NM_000441.1	NP_000432.1	NM_000441.1(SLC26A4_v001):c.397T>A	NM_000441.1(SLC26A4_i001):p.(Ser133Thr)		Hpy188III	
NM_000441.1:c.398C>A		NM_000441.1	SLC26A4_v001	c.398C>A	n.622C>A	c.398C>A	p.(Ser133*)	SLC26A4_v001:c.398C>A	SLC26A4_v001:p.(Ser133*)		NM_000441.1	NP_000432.1	NM_000441.1(SLC26A4_v001):c.398C>A	NM_000441.1(SLC26A4_i001):p.(Ser133*)		Hpy188III	
NM_000441.1:c.409T>C		NM_000441.1	SLC26A4_v001	c.409T>C	n.633T>C	c.409T>C	p.(Ser137Pro)	SLC26A4_v001:c.409T>C	SLC26A4_v001:p.(Ser137Pro)		NM_000441.1	NP_000432.1	NM_000441.1(SLC26A4_v001):c.409T>C	NM_000441.1(SLC26A4_i001):p.(Ser137Pro)	BmrI,LpnPI	BspCNI,DdeI	
NM_000441.1:c.412G>T		NM_000441.1	SLC26A4_v001	c.412G>T	n.636G>T	c.412G>T	p.(Val138Phe)	SLC26A4_v001:c.412G>T	SLC26A4_v001:p.(Val138Phe)		NM_000441.1	NP_000432.1	NM_000441.1(SLC26A4_v001):c.412G>T	NM_000441.1(SLC26A4_i001):p.(Val138Phe)		BspCNI,DdeI,MmeI	
NM_000441.1:c.414delT		NM_000441.1	SLC26A4_v001	c.414delT	n.638del	c.414del	p.(Gly139Aspfs*6)	SLC26A4_v001:c.414del	SLC26A4_v001:p.(Gly139Aspfs*6)		NM_000441.1	NP_000432.1	NM_000441.1(SLC26A4_v001):c.414del	NM_000441.1(SLC26A4_i001):p.(Gly139Aspfs*6)	Hpy166II	MmeI	
NM_000441.1:c.416G>T		NM_000441.1	SLC26A4_v001	c.416G>T	n.640G>T	c.416G>T	p.(Gly139Val)	SLC26A4_v001:c.416G>T	SLC26A4_v001:p.(Gly139Val)		NM_000441.1	NP_000432.1	NM_000441.1(SLC26A4_v001):c.416G>T	NM_000441.1(SLC26A4_i001):p.(Gly139Val)	CviQI,RsaI	AvaII,MmeI,Sau96I	
NM_000441.1:c.419C>A		NM_000441.1	SLC26A4_v001	c.419C>A	n.643C>A	c.419C>A	p.(Pro140His)	SLC26A4_v001:c.419C>A	SLC26A4_v001:p.(Pro140His)		NM_000441.1	NP_000432.1	NM_000441.1(SLC26A4_v001):c.419C>A	NM_000441.1(SLC26A4_i001):p.(Pro140His)		AvaII,Sau96I	
NM_000441.1:c.422T>C		NM_000441.1	SLC26A4_v001	c.422T>C	n.646T>C	c.422T>C	p.(Phe141Ser)	SLC26A4_v001:c.422T>C	SLC26A4_v001:p.(Phe141Ser)		NM_000441.1	NP_000432.1	NM_000441.1(SLC26A4_v001):c.422T>C	NM_000441.1(SLC26A4_i001):p.(Phe141Ser)	BpmI,HpyAV		
NM_000441.1:c.425C>G		NM_000441.1	SLC26A4_v001	c.425C>G	n.649C>G	c.425C>G	p.(Pro142Arg)	SLC26A4_v001:c.425C>G	SLC26A4_v001:p.(Pro142Arg)		NM_000441.1	NP_000432.1	NM_000441.1(SLC26A4_v001):c.425C>G	NM_000441.1(SLC26A4_i001):p.(Pro142Arg)	TaqI	BsrI,BtsIMutI,LpnPI,TspRI	
NM_000441.1:c.425C>T		NM_000441.1	SLC26A4_v001	c.425C>T	n.649C>T	c.425C>T	p.(Pro142Leu)	SLC26A4_v001:c.425C>T	SLC26A4_v001:p.(Pro142Leu)		NM_000441.1	NP_000432.1	NM_000441.1(SLC26A4_v001):c.425C>T	NM_000441.1(SLC26A4_i001):p.(Pro142Leu)	BfaI	BsrI,BtsIMutI,LpnPI,TspRI	
NM_000441.1:c.439A>G		NM_000441.1	SLC26A4_v001	c.439A>G	n.663A>G	c.439A>G	p.(Met147Val)	SLC26A4_v001:c.439A>G	SLC26A4_v001:p.(Met147Val)		NM_000441.1	NP_000432.1	NM_000441.1(SLC26A4_v001):c.439A>G	NM_000441.1(SLC26A4_i001):p.(Met147Val)		MseI	
NM_000441.1:c.440T>C		NM_000441.1	SLC26A4_v001	c.440T>C	n.664T>C	c.440T>C	p.(Met147Thr)	SLC26A4_v001:c.440T>C	SLC26A4_v001:p.(Met147Thr)		NM_000441.1	NP_000432.1	NM_000441.1(SLC26A4_v001):c.440T>C	NM_000441.1(SLC26A4_i001):p.(Met147Thr)	HpyCH4III		
NM_000441.1:c.454delG		NM_000441.1	SLC26A4_v001	c.454delG	n.678del	c.454del	p.(Val152Phefs*2)	SLC26A4_v001:c.454del	SLC26A4_v001:p.(Val152Phefs*2)		NM_000441.1	NP_000432.1	NM_000441.1(SLC26A4_v001):c.454del	NM_000441.1(SLC26A4_i001):p.(Val152Phefs*2)			
NM_000441.1:c.496delA		NM_000441.1	SLC26A4_v001	c.496delA	n.720del	c.496del	p.(Ser166Alafs*6)	SLC26A4_v001:c.496del	SLC26A4_v001:p.(Ser166Alafs*6)		NM_000441.1	NP_000432.1	NM_000441.1(SLC26A4_v001):c.496del	NM_000441.1(SLC26A4_i001):p.(Ser166Alafs*6)	BstXI,HhaI,HinP1I	ApeKI,BbvI,Fnu4HI,TseI	
NM_000441.1:c.497G>A		NM_000441.1	SLC26A4_v001	c.497G>A	n.721G>A	c.497G>A	p.(Ser166Asn)	SLC26A4_v001:c.497G>A	SLC26A4_v001:p.(Ser166Asn)		NM_000441.1	NP_000432.1	NM_000441.1(SLC26A4_v001):c.497G>A	NM_000441.1(SLC26A4_i001):p.(Ser166Asn)		ApeKI,BbvI,BsrDI,Fnu4HI,TseI	
NM_000441.1:c.563T>C		NM_000441.1	SLC26A4_v001	c.563T>C	n.787T>C	c.563T>C	p.(Ile188Thr)	SLC26A4_v001:c.563T>C	SLC26A4_v001:p.(Ile188Thr)		NM_000441.1	NP_000432.1	NM_000441.1(SLC26A4_v001):c.563T>C	NM_000441.1(SLC26A4_i001):p.(Ile188Thr)			
NM_000441.1:c.578C>T		NM_000441.1	SLC26A4_v001	c.578C>T	n.802C>T	c.578C>T	p.(Thr193Ile)	SLC26A4_v001:c.578C>T	SLC26A4_v001:p.(Thr193Ile)		NM_000441.1	NP_000432.1	NM_000441.1(SLC26A4_v001):c.578C>T	NM_000441.1(SLC26A4_i001):p.(Thr193Ile)	TfiI		
NM_000441.1:c.589G>A		NM_000441.1	SLC26A4_v001	c.589G>A	n.813G>A	c.589G>A	p.(Gly197Arg)	SLC26A4_v001:c.589G>A	SLC26A4_v001:p.(Gly197Arg)		NM_000441.1	NP_000432.1	NM_000441.1(SLC26A4_v001):c.589G>A	NM_000441.1(SLC26A4_i001):p.(Gly197Arg)		MmeI	
NM_000441.1:c.600+2T>A	(variantchecker): Intronic position given for a non-genomic reference sequence.	
NM_000441.1:c.626G>T		NM_000441.1	SLC26A4_v001	c.626G>T	n.850G>T	c.626G>T	p.(Gly209Val)	SLC26A4_v001:c.626G>T	SLC26A4_v001:p.(Gly209Val)		NM_000441.1	NP_000432.1	NM_000441.1(SLC26A4_v001):c.626G>T	NM_000441.1(SLC26A4_i001):p.(Gly209Val)		HinfI,TfiI	
NM_000441.1:c.631del5	(variantchecker): The length (5) differed from that of the range (1).	
NM_000441.1:c.644T>C		NM_000441.1	SLC26A4_v001	c.644T>C	n.868T>C	c.644T>C	p.(Leu215Ser)	SLC26A4_v001:c.644T>C	SLC26A4_v001:p.(Leu215Ser)		NM_000441.1	NP_000432.1	NM_000441.1(SLC26A4_v001):c.644T>C	NM_000441.1(SLC26A4_i001):p.(Leu215Ser)	NmeAIII		
NM_000441.1:c.665G>C		NM_000441.1	SLC26A4_v001	c.665G>C	n.889G>C	c.665G>C	p.(Gly222Ala)	SLC26A4_v001:c.665G>C	SLC26A4_v001:p.(Gly222Ala)		NM_000441.1	NP_000432.1	NM_000441.1(SLC26A4_v001):c.665G>C	NM_000441.1(SLC26A4_i001):p.(Gly222Ala)	BanI,HpyAV,NlaIV		
NM_000441.1:c.679G>C		NM_000441.1	SLC26A4_v001	c.679G>C	n.903G>C	c.679G>C	p.(Ala227Pro)	SLC26A4_v001:c.679G>C	SLC26A4_v001:p.(Ala227Pro)		NM_000441.1	NP_000432.1	NM_000441.1(SLC26A4_v001):c.679G>C	NM_000441.1(SLC26A4_i001):p.(Ala227Pro)	BsaXI (2)	ApeKI,BbvI,Fnu4HI,MspA1I,PvuII,TseI	
NM_000441.1:c.697G>C		NM_000441.1	SLC26A4_v001	c.697G>C	n.921G>C	c.697G>C	p.(Val233Leu)	SLC26A4_v001:c.697G>C	SLC26A4_v001:p.(Val233Leu)		NM_000441.1	NP_000432.1	NM_000441.1(SLC26A4_v001):c.697G>C	NM_000441.1(SLC26A4_i001):p.(Val233Leu)	BbvI,MwoI	BcoDI,BsaI,BslI,BsmAI,LpnPI,PflMI	
NM_000441.1:c.707T>C		NM_000441.1	SLC26A4_v001	c.707T>C	n.931T>C	c.707T>C	p.(Leu236Pro)	SLC26A4_v001:c.707T>C	SLC26A4_v001:p.(Leu236Pro)		NM_000441.1	NP_000432.1	NM_000441.1(SLC26A4_v001):c.707T>C	NM_000441.1(SLC26A4_i001):p.(Leu236Pro)		AluI	
NM_000441.1:c.716T>A		NM_000441.1	SLC26A4_v001	c.716T>A	n.940T>A	c.716T>A	p.(Val239Asp)	SLC26A4_v001:c.716T>A	SLC26A4_v001:p.(Val239Asp)		NM_000441.1	NP_000432.1	NM_000441.1(SLC26A4_v001):c.716T>A	NM_000441.1(SLC26A4_i001):p.(Val239Asp)			
NM_000441.1:c.754T>C		NM_000441.1	SLC26A4_v001	c.754T>C	n.978T>C	c.754T>C	p.(Ser252Pro)	SLC26A4_v001:c.754T>C	SLC26A4_v001:p.(Ser252Pro)		NM_000441.1	NP_000432.1	NM_000441.1(SLC26A4_v001):c.754T>C	NM_000441.1(SLC26A4_i001):p.(Ser252Pro)			
NM_000441.1:c.765+3A>T	(variantchecker): Intronic position given for a non-genomic reference sequence.	
NM_000441.1:c.775_779delGAGAT		NM_000441.1	SLC26A4_v001	c.775_779delGAGAT	n.999_1003del	c.775_779del	p.(Glu259Phefs*6)	SLC26A4_v001:c.775_779del	SLC26A4_v001:p.(Glu259Phefs*6)		NM_000441.1	NP_000432.1	NM_000441.1(SLC26A4_v001):c.775_779del	NM_000441.1(SLC26A4_i001):p.(Glu259Phefs*6)			
NM_000441.1:c.812A>G		NM_000441.1	SLC26A4_v001	c.812A>G	n.1036A>G	c.812A>G	p.(Asp271Gly)	SLC26A4_v001:c.812A>G	SLC26A4_v001:p.(Asp271Gly)		NM_000441.1	NP_000432.1	NM_000441.1(SLC26A4_v001):c.812A>G	NM_000441.1(SLC26A4_i001):p.(Asp271Gly)			
NM_000441.1:c.882_883delCA		NM_000441.1	SLC26A4_v001	c.882_883delCA	n.1106_1107del	c.882_883del	p.(His294Glnfs*35)	SLC26A4_v001:c.882_883del	SLC26A4_v001:p.(His294Glnfs*35)		NM_000441.1	NP_000432.1	NM_000441.1(SLC26A4_v001):c.882_883del	NM_000441.1(SLC26A4_i001):p.(His294Glnfs*35)			
NM_000441.1:c.890delC		NM_000441.1	SLC26A4_v001	c.890delC	n.1114del	c.890del	p.(Pro297Glnfs*6)	SLC26A4_v001:c.890del	SLC26A4_v001:p.(Pro297Glnfs*6)		NM_000441.1	NP_000432.1	NM_000441.1(SLC26A4_v001):c.890del	NM_000441.1(SLC26A4_i001):p.(Pro297Glnfs*6)		BmrI	
NM_000441.1:c.898A>C		NM_000441.1	SLC26A4_v001	c.898A>C	n.1122A>C	c.898A>C	p.(Ile300Leu)	SLC26A4_v001:c.898A>C	SLC26A4_v001:p.(Ile300Leu)		NM_000441.1	NP_000432.1	NM_000441.1(SLC26A4_v001):c.898A>C	NM_000441.1(SLC26A4_i001):p.(Ile300Leu)	EarI,MboII,MnlI		
NM_000441.1:c.916dupG		NM_000441.1	SLC26A4_v001	c.916dupG	n.1140dup	c.916dup	p.(Val306Glyfs*24)	SLC26A4_v001:c.916dup	SLC26A4_v001:p.(Val306Glyfs*24)		NM_000441.1	NP_000432.1	NM_000441.1(SLC26A4_v001):c.916dup	NM_000441.1(SLC26A4_i001):p.(Val306Glyfs*24)	HphI		
NM_000441.1:c.918+2T>C	(variantchecker): Intronic position given for a non-genomic reference sequence.	
NM_000441.1:c.919-2A>G	(variantchecker): Intronic position given for a non-genomic reference sequence.	
NM_000441.1:c.946G>T		NM_000441.1	SLC26A4_v001	c.946G>T	n.1170G>T	c.946G>T	p.(Gly316*)	SLC26A4_v001:c.946G>T	SLC26A4_v001:p.(Gly316*)		NM_000441.1	NP_000432.1	NM_000441.1(SLC26A4_v001):c.946G>T	NM_000441.1(SLC26A4_i001):p.(Gly316*)		NdeI,NlaIV	
NM_000441.1:c.983T>G		NM_000441.1	SLC26A4_v001	c.983T>G	n.1207T>G	c.983T>G	p.(Val328Gly)	SLC26A4_v001:c.983T>G	SLC26A4_v001:p.(Val328Gly)		NM_000441.1	NP_000432.1	NM_000441.1(SLC26A4_v001):c.983T>G	NM_000441.1(SLC26A4_i001):p.(Val328Gly)		MseI	
NM_000441.1:c.1001+1G>A	(variantchecker): Intronic position given for a non-genomic reference sequence.	
NM_000441.1:c.1001+5G>C	(variantchecker): Intronic position given for a non-genomic reference sequence.	
NM_000441.1:c.1002-1G>T	(variantchecker): Intronic position given for a non-genomic reference sequence.	
NM_000441.1:c.1003T>C		NM_000441.1	SLC26A4_v001	c.1003T>C	n.1227T>C	c.1003T>C	p.(Phe335Leu)	SLC26A4_v001:c.1003T>C	SLC26A4_v001:p.(Phe335Leu)		NM_000441.1	NP_000432.1	NM_000441.1(SLC26A4_v001):c.1003T>C	NM_000441.1(SLC26A4_i001):p.(Phe335Leu)	CviKI_1		
NM_000441.1:c.1004T>C		NM_000441.1	SLC26A4_v001	c.1004T>C	n.1228T>C	c.1004T>C	p.(Phe335Ser)	SLC26A4_v001:c.1004T>C	SLC26A4_v001:p.(Phe335Ser)		NM_000441.1	NP_000432.1	NM_000441.1(SLC26A4_v001):c.1004T>C	NM_000441.1(SLC26A4_i001):p.(Phe335Ser)			
NM_000441.1:c.1079C>T		NM_000441.1	SLC26A4_v001	c.1079C>T	n.1303C>T	c.1079C>T	p.(Ala360Val)	SLC26A4_v001:c.1079C>T	SLC26A4_v001:p.(Ala360Val)		NM_000441.1	NP_000432.1	NM_000441.1(SLC26A4_v001):c.1079C>T	NM_000441.1(SLC26A4_i001):p.(Ala360Val)		CviKI_1,MwoI	
NM_000441.1:c.1102G>T		NM_000441.1	SLC26A4_v001	c.1102G>T	n.1326G>T	c.1102G>T	p.(Gly368*)	SLC26A4_v001:c.1102G>T	SLC26A4_v001:p.(Gly368*)		NM_000441.1	NP_000432.1	NM_000441.1(SLC26A4_v001):c.1102G>T	NM_000441.1(SLC26A4_i001):p.(Gly368*)		FspEI	
NM_000441.1:c.1133_1135delCCA		NM_000441.1	SLC26A4_v001	c.1133_1135delCCA	n.1357_1359del	c.1133_1135del	p.(Thr378del)	SLC26A4_v001:c.1133_1135del	SLC26A4_v001:p.(Thr378del)		NM_000441.1	NP_000432.1	NM_000441.1(SLC26A4_v001):c.1133_1135del	NM_000441.1(SLC26A4_i001):p.(Thr378del)		BslI	
NM_000441.1:c.1147C>G		NM_000441.1	SLC26A4_v001	c.1147C>G	n.1371C>G	c.1147C>G	p.(Gln383Glu)	SLC26A4_v001:c.1147C>G	SLC26A4_v001:p.(Gln383Glu)		NM_000441.1	NP_000432.1	NM_000441.1(SLC26A4_v001):c.1147C>G	NM_000441.1(SLC26A4_i001):p.(Gln383Glu)	MnlI	BssKI,BstNI,LpnPI,NlaIV,PspGI,ScrFI,StyD4I	
NM_000441.1:c.1149+3A>G	(variantchecker): Intronic position given for a non-genomic reference sequence.	
NM_000441.1:c.1149+1G>A	(variantchecker): Intronic position given for a non-genomic reference sequence.	
NM_000441.1:c.1151A>G		NM_000441.1	SLC26A4_v001	c.1151A>G	n.1375A>G	c.1151A>G	p.(Glu384Gly)	SLC26A4_v001:c.1151A>G	SLC26A4_v001:p.(Glu384Gly)		NM_000441.1	NP_000432.1	NM_000441.1(SLC26A4_v001):c.1151A>G	NM_000441.1(SLC26A4_i001):p.(Glu384Gly)	BsaJI,HinfI,TfiI	ApoI,EcoRI,MluCI	
NM_000441.1:c.1173C>A		NM_000441.1	SLC26A4_v001	c.1173C>A	n.1397C>A	c.1173C>A	p.(Ser391Arg)	SLC26A4_v001:c.1173C>A	SLC26A4_v001:p.(Ser391Arg)		NM_000441.1	NP_000432.1	NM_000441.1(SLC26A4_v001):c.1173C>A	NM_000441.1(SLC26A4_i001):p.(Ser391Arg)	Hpy188I		
NM_000441.1:c.1174A>T		NM_000441.1	SLC26A4_v001	c.1174A>T	n.1398A>T	c.1174A>T	p.(Asn392Tyr)	SLC26A4_v001:c.1174A>T	SLC26A4_v001:p.(Asn392Tyr)		NM_000441.1	NP_000432.1	NM_000441.1(SLC26A4_v001):c.1174A>T	NM_000441.1(SLC26A4_i001):p.(Asn392Tyr)	AluI,CviKI_1		
NM_000441.1:c.1181_1183delTCT		NM_000441.1	SLC26A4_v001	c.1181_1183delTCT	n.1405_1407del	c.1181_1183del	p.(Phe394del)	SLC26A4_v001:c.1181_1183del	SLC26A4_v001:p.(Phe394del)		NM_000441.1	NP_000432.1	NM_000441.1(SLC26A4_v001):c.1181_1183del	NM_000441.1(SLC26A4_i001):p.(Phe394del)			
NM_000441.1:c.1198delT		NM_000441.1	SLC26A4_v001	c.1198delT	n.1422del	c.1198del	p.(Cys400Valfs*32)	SLC26A4_v001:c.1198del	SLC26A4_v001:p.(Cys400Valfs*32)		NM_000441.1	NP_000432.1	NM_000441.1(SLC26A4_v001):c.1198del	NM_000441.1(SLC26A4_i001):p.(Cys400Valfs*32)			
NM_000441.1:c.1225C>T		NM_000441.1	SLC26A4_v001	c.1225C>T	n.1449C>T	c.1225C>T	p.(Arg409Cys)	SLC26A4_v001:c.1225C>T	SLC26A4_v001:p.(Arg409Cys)		NM_000441.1	NP_000432.1	NM_000441.1(SLC26A4_v001):c.1225C>T	NM_000441.1(SLC26A4_i001):p.(Arg409Cys)	BsgI,HpyCH4V	AciI,FauI	
NM_000441.1:c.1226G>A		NM_000441.1	SLC26A4_v001	c.1226G>A	n.1450G>A	c.1226G>A	p.(Arg409His)	SLC26A4_v001:c.1226G>A	SLC26A4_v001:p.(Arg409His)		NM_000441.1	NP_000432.1	NM_000441.1(SLC26A4_v001):c.1226G>A	NM_000441.1(SLC26A4_i001):p.(Arg409His)		AciI,FauI	
NM_000441.1:c.1226G>C		NM_000441.1	SLC26A4_v001	c.1226G>C	n.1450G>C	c.1226G>C	p.(Arg409Pro)	SLC26A4_v001:c.1226G>C	SLC26A4_v001:p.(Arg409Pro)		NM_000441.1	NP_000432.1	NM_000441.1(SLC26A4_v001):c.1226G>C	NM_000441.1(SLC26A4_i001):p.(Arg409Pro)	BsaJI,BtgI	AciI,FauI	
NM_000441.1:c.1226G>T		NM_000441.1	SLC26A4_v001	c.1226G>T	n.1450G>T	c.1226G>T	p.(Arg409Leu)	SLC26A4_v001:c.1226G>T	SLC26A4_v001:p.(Arg409Leu)		NM_000441.1	NP_000432.1	NM_000441.1(SLC26A4_v001):c.1226G>T	NM_000441.1(SLC26A4_i001):p.(Arg409Leu)	MnlI	AciI,FauI	
NM_000441.1:c.1229C>T		NM_000441.1	SLC26A4_v001	c.1229C>T	n.1453C>T	c.1229C>T	p.(Thr410Met)	SLC26A4_v001:c.1229C>T	SLC26A4_v001:p.(Thr410Met)		NM_000441.1	NP_000432.1	NM_000441.1(SLC26A4_v001):c.1229C>T	NM_000441.1(SLC26A4_i001):p.(Thr410Met)	CviAII,FatI,NlaIII	BsiEI,EagI	
NM_000441.1:c.1238A>C		NM_000441.1	SLC26A4_v001	c.1238A>C	n.1462A>C	c.1238A>C	p.(Gln413Pro)	SLC26A4_v001:c.1238A>C	SLC26A4_v001:p.(Gln413Pro)		NM_000441.1	NP_000432.1	NM_000441.1(SLC26A4_v001):c.1238A>C	NM_000441.1(SLC26A4_i001):p.(Gln413Pro)	BsmFI,HpaII,MspI,NciI	BstNI,PspGI,XcmI	
NM_000441.1:c.1238A>G		NM_000441.1	SLC26A4_v001	c.1238A>G	n.1462A>G	c.1238A>G	p.(Gln413Arg)	SLC26A4_v001:c.1238A>G	SLC26A4_v001:p.(Gln413Arg)		NM_000441.1	NP_000432.1	NM_000441.1(SLC26A4_v001):c.1238A>G	NM_000441.1(SLC26A4_i001):p.(Gln413Arg)	HpaII,MspI,NciI	BstNI,PspGI,XcmI	
NM_000441.1:c.1246A>C		NM_000441.1	SLC26A4_v001	c.1246A>C	n.1470A>C	c.1246A>C	p.(Thr416Pro)	SLC26A4_v001:c.1246A>C	SLC26A4_v001:p.(Thr416Pro)		NM_000441.1	NP_000432.1	NM_000441.1(SLC26A4_v001):c.1246A>C	NM_000441.1(SLC26A4_i001):p.(Thr416Pro)	BanII,BsaJI	BsiHKAI,BsrI,BtsIMutI,TspRI	
NM_000441.1:c.1252G>A		NM_000441.1	SLC26A4_v001	c.1252G>A	n.1476G>A	c.1252G>A	p.(Gly418Arg)	SLC26A4_v001:c.1252G>A	SLC26A4_v001:p.(Gly418Arg)		NM_000441.1	NP_000432.1	NM_000441.1(SLC26A4_v001):c.1252G>A	NM_000441.1(SLC26A4_i001):p.(Gly418Arg)	MboII	BpmI,MnlI	
NM_000441.1:c.1262A>C		NM_000441.1	SLC26A4_v001	c.1262A>C	n.1486A>C	c.1262A>C	p.(Gln421Pro)	SLC26A4_v001:c.1262A>C	SLC26A4_v001:p.(Gln421Pro)		NM_000441.1	NP_000432.1	NM_000441.1(SLC26A4_v001):c.1262A>C	NM_000441.1(SLC26A4_i001):p.(Gln421Pro)	AgeI,BsaWI,BslI,BsrFI,HpaII,MspI		
NM_000441.1:c.1264-12T>A	(variantchecker): Intronic position given for a non-genomic reference sequence.	
NM_000441.1:c.1264-1G>C	(variantchecker): Intronic position given for a non-genomic reference sequence.	
NM_000441.1:c.1271G>A		NM_000441.1	SLC26A4_v001	c.1271G>A	n.1495G>A	c.1271G>A	p.(Gly424Asp)	SLC26A4_v001:c.1271G>A	SLC26A4_v001:p.(Gly424Asp)		NM_000441.1	NP_000432.1	NM_000441.1(SLC26A4_v001):c.1271G>A	NM_000441.1(SLC26A4_i001):p.(Gly424Asp)		Cac8I,SfaNI	
NM_000441.1:c.1284_1286delTGC		NM_000441.1	SLC26A4_v001	c.1284_1286delTGC	n.1508_1510del	c.1284_1286del	p.(Ala429del)	SLC26A4_v001:c.1284_1286del	SLC26A4_v001:p.(Ala429del)		NM_000441.1	NP_000432.1	NM_000441.1(SLC26A4_v001):c.1284_1286del	NM_000441.1(SLC26A4_i001):p.(Ala429del)		ApeKI,BbvI,Fnu4HI,TseI	
NM_000441.1:c.1318A>T		NM_000441.1	SLC26A4_v001	c.1318A>T	n.1542A>T	c.1318A>T	p.(Lys440*)	SLC26A4_v001:c.1318A>T	SLC26A4_v001:p.(Lys440*)		NM_000441.1	NP_000432.1	NM_000441.1(SLC26A4_v001):c.1318A>T	NM_000441.1(SLC26A4_i001):p.(Lys440*)		HindIII	
NM_000441.1:c.1334T>G		NM_000441.1	SLC26A4_v001	c.1334T>G	n.1558T>G	c.1334T>G	p.(Leu445Trp)	SLC26A4_v001:c.1334T>G	SLC26A4_v001:p.(Leu445Trp)		NM_000441.1	NP_000432.1	NM_000441.1(SLC26A4_v001):c.1334T>G	NM_000441.1(SLC26A4_i001):p.(Leu445Trp)		HpyCH4V	
NM_000441.1:c.1336C>T		NM_000441.1	SLC26A4_v001	c.1336C>T	n.1560C>T	c.1336C>T	p.(Gln446*)	SLC26A4_v001:c.1336C>T	SLC26A4_v001:p.(Gln446*)		NM_000441.1	NP_000432.1	NM_000441.1(SLC26A4_v001):c.1336C>T	NM_000441.1(SLC26A4_i001):p.(Gln446*)		HpyCH4V	
NM_000441.1:c.1337A>G		NM_000441.1	SLC26A4_v001	c.1337A>G	n.1561A>G	c.1337A>G	p.(Gln446Arg)	SLC26A4_v001:c.1337A>G	SLC26A4_v001:p.(Gln446Arg)		NM_000441.1	NP_000432.1	NM_000441.1(SLC26A4_v001):c.1337A>G	NM_000441.1(SLC26A4_i001):p.(Gln446Arg)	AciI	HpyCH4V	
NM_000441.1:c.1341+1G>C	(variantchecker): Intronic position given for a non-genomic reference sequence.	
NM_000441.1:c.1343C>T		NM_000441.1	SLC26A4_v001	c.1343C>T	n.1567C>T	c.1343C>T	p.(Ser448Leu)	SLC26A4_v001:c.1343C>T	SLC26A4_v001:p.(Ser448Leu)		NM_000441.1	NP_000432.1	NM_000441.1(SLC26A4_v001):c.1343C>T	NM_000441.1(SLC26A4_i001):p.(Ser448Leu)			
NM_000441.1:c.1343C>A		NM_000441.1	SLC26A4_v001	c.1343C>A	n.1567C>A	c.1343C>A	p.(Ser448*)	SLC26A4_v001:c.1343C>A	SLC26A4_v001:p.(Ser448*)		NM_000441.1	NP_000432.1	NM_000441.1(SLC26A4_v001):c.1343C>A	NM_000441.1(SLC26A4_i001):p.(Ser448*)			
NM_000441.1:c.1343_1344insAGTC	(variantchecker): Insertion of AGTC at position 1567_1568 was given, however, the HGVS notation prescribes that it should be a duplication of AGTC at position 1567_1570.	NM_000441.1	SLC26A4_v001	c.1343_1344insAGTC	n.1564_1567dup	c.1340_1343dup	p.(Leu450Glyfs*19)	SLC26A4_v001:c.1340_1343dup	SLC26A4_v001:p.(Leu450Glyfs*19)		NM_000441.1	NP_000432.1	NM_000441.1(SLC26A4_v001):c.1340_1343dup	NM_000441.1(SLC26A4_i001):p.(Leu450Glyfs*19)			
NM_000441.1:c.1369A>T		NM_000441.1	SLC26A4_v001	c.1369A>T	n.1593A>T	c.1369A>T	p.(Asn457Tyr)	SLC26A4_v001:c.1369A>T	SLC26A4_v001:p.(Asn457Tyr)		NM_000441.1	NP_000432.1	NM_000441.1(SLC26A4_v001):c.1369A>T	NM_000441.1(SLC26A4_i001):p.(Asn457Tyr)			
NM_000441.1:c.1392delG		NM_000441.1	SLC26A4_v001	c.1392delG	n.1616del	c.1392del	p.(Gln464Hisfs*24)	SLC26A4_v001:c.1392del	SLC26A4_v001:p.(Gln464Hisfs*24)		NM_000441.1	NP_000432.1	NM_000441.1(SLC26A4_v001):c.1392del	NM_000441.1(SLC26A4_i001):p.(Gln464Hisfs*24)	BtsIMutI,DraIII,HpyCH4III,TspRI	AluI,ApeKI,BbvI,CviKI_1,Fnu4HI,MspA1I,PvuII,TseI	
NM_000441.1:c.1412delT		NM_000441.1	SLC26A4_v001	c.1412delT	n.1636del	c.1412del	p.(Leu471Argfs*17)	SLC26A4_v001:c.1412del	SLC26A4_v001:p.(Leu471Argfs*17)		NM_000441.1	NP_000432.1	NM_000441.1(SLC26A4_v001):c.1412del	NM_000441.1(SLC26A4_i001):p.(Leu471Argfs*17)	BslI,Hpy99I		
NM_000441.1:c.1454C>G		NM_000441.1	SLC26A4_v001	c.1454C>G	n.1678C>G	c.1454C>G	p.(Thr485Arg)	SLC26A4_v001:c.1454C>G	SLC26A4_v001:p.(Thr485Arg)		NM_000441.1	NP_000432.1	NM_000441.1(SLC26A4_v001):c.1454C>G	NM_000441.1(SLC26A4_i001):p.(Thr485Arg)		AflIII,BsaAI,Hpy166II,HpyCH4IV	
NM_000441.1:c.1477G>T		NM_000441.1	SLC26A4_v001	c.1477G>T	n.1701G>T	c.1477G>T	p.(Gly493Trp)	SLC26A4_v001:c.1477G>T	SLC26A4_v001:p.(Gly493Trp)		NM_000441.1	NP_000432.1	NM_000441.1(SLC26A4_v001):c.1477G>T	NM_000441.1(SLC26A4_i001):p.(Gly493Trp)		BstXI	
NM_000441.1:c.1489G>A		NM_000441.1	SLC26A4_v001	c.1489G>A	n.1713G>A	c.1489G>A	p.(Gly497Ser)	SLC26A4_v001:c.1489G>A	SLC26A4_v001:p.(Gly497Ser)		NM_000441.1	NP_000432.1	NM_000441.1(SLC26A4_v001):c.1489G>A	NM_000441.1(SLC26A4_i001):p.(Gly497Ser)	BspCNI,DdeI		
NM_000441.1:c.1511T>C		NM_000441.1	SLC26A4_v001	c.1511T>C	n.1735T>C	c.1511T>C	p.(Phe504Ser)	SLC26A4_v001:c.1511T>C	SLC26A4_v001:p.(Phe504Ser)		NM_000441.1	NP_000432.1	NM_000441.1(SLC26A4_v001):c.1511T>C	NM_000441.1(SLC26A4_i001):p.(Phe504Ser)	LpnPI		
NM_000441.1:c.1520delT		NM_000441.1	SLC26A4_v001	c.1520delT	n.1744del	c.1520del	p.(Leu507*)	SLC26A4_v001:c.1520del	SLC26A4_v001:p.(Leu507*)		NM_000441.1	NP_000432.1	NM_000441.1(SLC26A4_v001):c.1520del	NM_000441.1(SLC26A4_i001):p.(Leu507*)	Tsp45I	HincII,Hpy166II	
NM_000441.1:c.1522A>G		NM_000441.1	SLC26A4_v001	c.1522A>G	n.1746A>G	c.1522A>G	p.(Thr508Ala)	SLC26A4_v001:c.1522A>G	SLC26A4_v001:p.(Thr508Ala)		NM_000441.1	NP_000432.1	NM_000441.1(SLC26A4_v001):c.1522A>G	NM_000441.1(SLC26A4_i001):p.(Thr508Ala)		HincII,Hpy166II,PshAI	
NM_000441.1:c.1523C>A		NM_000441.1	SLC26A4_v001	c.1523C>A	n.1747C>A	c.1523C>A	p.(Thr508Asn)	SLC26A4_v001:c.1523C>A	SLC26A4_v001:p.(Thr508Asn)		NM_000441.1	NP_000432.1	NM_000441.1(SLC26A4_v001):c.1523C>A	NM_000441.1(SLC26A4_i001):p.(Thr508Asn)		HincII,Hpy166II,PshAI	
NM_000441.1:c.1536delAG	(variantchecker): AG not found at position 1760, found A instead.	
NM_000441.1:c.1536_1537delAG		NM_000441.1	SLC26A4_v001	c.1536_1537delAG	n.1760_1761del	c.1536_1537del	p.(Arg512Serfs*14)	SLC26A4_v001:c.1536_1537del	SLC26A4_v001:p.(Arg512Serfs*14)		NM_000441.1	NP_000432.1	NM_000441.1(SLC26A4_v001):c.1536_1537del	NM_000441.1(SLC26A4_i001):p.(Arg512Serfs*14)			
NM_000441.1:c.1540C>A		NM_000441.1	SLC26A4_v001	c.1540C>A	n.1764C>A	c.1540C>A	p.(Gln514Lys)	SLC26A4_v001:c.1540C>A	SLC26A4_v001:p.(Gln514Lys)		NM_000441.1	NP_000432.1	NM_000441.1(SLC26A4_v001):c.1540C>A	NM_000441.1(SLC26A4_i001):p.(Gln514Lys)	MseI		
NM_000441.1:c.1540C>T		NM_000441.1	SLC26A4_v001	c.1540C>T	n.1764C>T	c.1540C>T	p.(Gln514*)	SLC26A4_v001:c.1540C>T	SLC26A4_v001:p.(Gln514*)		NM_000441.1	NP_000432.1	NM_000441.1(SLC26A4_v001):c.1540C>T	NM_000441.1(SLC26A4_i001):p.(Gln514*)			
NM_000441.1:c.1541A>G		NM_000441.1	SLC26A4_v001	c.1541A>G	n.1765A>G	c.1541A>G	p.(Gln514Arg)	SLC26A4_v001:c.1541A>G	SLC26A4_v001:p.(Gln514Arg)		NM_000441.1	NP_000432.1	NM_000441.1(SLC26A4_v001):c.1541A>G	NM_000441.1(SLC26A4_i001):p.(Gln514Arg)			
NM_000441.1:c.1544+9C>T	(variantchecker): Intronic position given for a non-genomic reference sequence.	
NM_000441.1:c.1547dupC		NM_000441.1	SLC26A4_v001	c.1547dupC	n.1771dup	c.1547dup	p.(Ser517Phefs*10)	SLC26A4_v001:c.1547dup	SLC26A4_v001:p.(Ser517Phefs*10)		NM_000441.1	NP_000432.1	NM_000441.1(SLC26A4_v001):c.1547dup	NM_000441.1(SLC26A4_i001):p.(Ser517Phefs*10)			
NM_000441.1:c.1554G>A		NM_000441.1	SLC26A4_v001	c.1554G>A	n.1778G>A	c.1554G>A	p.(Trp518*)	SLC26A4_v001:c.1554G>A	SLC26A4_v001:p.(Trp518*)		NM_000441.1	NP_000432.1	NM_000441.1(SLC26A4_v001):c.1554G>A	NM_000441.1(SLC26A4_i001):p.(Trp518*)			
NM_000441.1:c.1558T>C	(variantchecker): T not found at position 1782, found G instead.	
NM_000441.1:c.1574C>T		NM_000441.1	SLC26A4_v001	c.1574C>T	n.1798C>T	c.1574C>T	p.(Pro525Leu)	SLC26A4_v001:c.1574C>T	SLC26A4_v001:p.(Pro525Leu)		NM_000441.1	NP_000432.1	NM_000441.1(SLC26A4_v001):c.1574C>T	NM_000441.1(SLC26A4_i001):p.(Pro525Leu)	Bpu10I,DdeI	BfaI	
NM_000441.1:c.1579A>C		NM_000441.1	SLC26A4_v001	c.1579A>C	n.1803A>C	c.1579A>C	p.(Thr527Pro)	SLC26A4_v001:c.1579A>C	SLC26A4_v001:p.(Thr527Pro)		NM_000441.1	NP_000432.1	NM_000441.1(SLC26A4_v001):c.1579A>C	NM_000441.1(SLC26A4_i001):p.(Thr527Pro)	LpnPI		
NM_000441.1:c.1586T>G		NM_000441.1	SLC26A4_v001	c.1586T>G	n.1810T>G	c.1586T>G	p.(Ile529Ser)	SLC26A4_v001:c.1586T>G	SLC26A4_v001:p.(Ile529Ser)		NM_000441.1	NP_000432.1	NM_000441.1(SLC26A4_v001):c.1586T>G	NM_000441.1(SLC26A4_i001):p.(Ile529Ser)	AluI,CviKI_1	EcoRV	
NM_000441.1:c.1588T>C		NM_000441.1	SLC26A4_v001	c.1588T>C	n.1812T>C	c.1588T>C	p.(Tyr530His)	SLC26A4_v001:c.1588T>C	SLC26A4_v001:p.(Tyr530His)		NM_000441.1	NP_000432.1	NM_000441.1(SLC26A4_v001):c.1588T>C	NM_000441.1(SLC26A4_i001):p.(Tyr530His)			
NM_000441.1:c.1589A>C		NM_000441.1	SLC26A4_v001	c.1589A>C	n.1813A>C	c.1589A>C	p.(Tyr530Ser)	SLC26A4_v001:c.1589A>C	SLC26A4_v001:p.(Tyr530Ser)		NM_000441.1	NP_000432.1	NM_000441.1(SLC26A4_v001):c.1589A>C	NM_000441.1(SLC26A4_i001):p.(Tyr530Ser)		BaeI (2)	
NM_000441.1:c.1590C>G		NM_000441.1	SLC26A4_v001	c.1590C>G	n.1814C>G	c.1590C>G	p.(Tyr530*)	SLC26A4_v001:c.1590C>G	SLC26A4_v001:p.(Tyr530*)		NM_000441.1	NP_000432.1	NM_000441.1(SLC26A4_v001):c.1590C>G	NM_000441.1(SLC26A4_i001):p.(Tyr530*)	Hpy188III,XbaI	BaeI (2)	
NM_000441.1:c.1594A>C		NM_000441.1	SLC26A4_v001	c.1594A>C	n.1818A>C	c.1594A>C	p.(Ser532Arg)	SLC26A4_v001:c.1594A>C	SLC26A4_v001:p.(Ser532Arg)		NM_000441.1	NP_000432.1	NM_000441.1(SLC26A4_v001):c.1594A>C	NM_000441.1(SLC26A4_i001):p.(Ser532Arg)	HpyCH4IV		
NM_000441.1:c.1594_1595delAGinsT		NM_000441.1	SLC26A4_v001	c.1594_1595delAGinsT	n.1818_1819delinsT	c.1594_1595delinsT	p.(Ser532Leufs*14)	SLC26A4_v001:c.1594_1595delinsT	SLC26A4_v001:p.(Ser532Leufs*14)		NM_000441.1	NP_000432.1	NM_000441.1(SLC26A4_v001):c.1594_1595delinsT	NM_000441.1(SLC26A4_i001):p.(Ser532Leufs*14)		BaeI (2),CviQI,RsaI	
NM_000441.1:c.1595G>T		NM_000441.1	SLC26A4_v001	c.1595G>T	n.1819G>T	c.1595G>T	p.(Ser532Ile)	SLC26A4_v001:c.1595G>T	SLC26A4_v001:p.(Ser532Ile)		NM_000441.1	NP_000432.1	NM_000441.1(SLC26A4_v001):c.1595G>T	NM_000441.1(SLC26A4_i001):p.(Ser532Ile)		BaeI (2),CviQI,RsaI	
NM_000441.1:c.1614+1G>A	(variantchecker): Intronic position given for a non-genomic reference sequence.	
NM_000441.1:c.1615-1G>A	(variantchecker): Intronic position given for a non-genomic reference sequence.	
NM_000441.1:c.1615-2A>G	(variantchecker): Intronic position given for a non-genomic reference sequence.	
NM_000441.1:c.1655G>T		NM_000441.1	SLC26A4_v001	c.1655G>T	n.1879G>T	c.1655G>T	p.(Ser552Ile)	SLC26A4_v001:c.1655G>T	SLC26A4_v001:p.(Ser552Ile)		NM_000441.1	NP_000432.1	NM_000441.1(SLC26A4_v001):c.1655G>T	NM_000441.1(SLC26A4_i001):p.(Ser552Ile)		BsrI,LpnPI	
NM_000441.1:c.1666T>C		NM_000441.1	SLC26A4_v001	c.1666T>C	n.1890T>C	c.1666T>C	p.(Tyr556His)	SLC26A4_v001:c.1666T>C	SLC26A4_v001:p.(Tyr556His)		NM_000441.1	NP_000432.1	NM_000441.1(SLC26A4_v001):c.1666T>C	NM_000441.1(SLC26A4_i001):p.(Tyr556His)	BsaJI,BtgI,CviAII,FatI,MslI,NcoI,NlaIII,StyI		
NM_000441.1:c.1692dupA		NM_000441.1	SLC26A4_v001	c.1692dupA	n.1916dup	c.1692dup	p.(Cys565Metfs*9)	SLC26A4_v001:c.1692dup	SLC26A4_v001:p.(Cys565Metfs*9)		NM_000441.1	NP_000432.1	NM_000441.1(SLC26A4_v001):c.1692dup	NM_000441.1(SLC26A4_i001):p.(Cys565Metfs*9)			
NM_000441.1:c.1693T>C		NM_000441.1	SLC26A4_v001	c.1693T>C	n.1917T>C	c.1693T>C	p.(Cys565Arg)	SLC26A4_v001:c.1693T>C	SLC26A4_v001:p.(Cys565Arg)		NM_000441.1	NP_000432.1	NM_000441.1(SLC26A4_v001):c.1693T>C	NM_000441.1(SLC26A4_i001):p.(Cys565Arg)	HpyCH4IV		
NM_000441.1:c.1694G>A		NM_000441.1	SLC26A4_v001	c.1694G>A	n.1918G>A	c.1694G>A	p.(Cys565Tyr)	SLC26A4_v001:c.1694G>A	SLC26A4_v001:p.(Cys565Tyr)		NM_000441.1	NP_000432.1	NM_000441.1(SLC26A4_v001):c.1694G>A	NM_000441.1(SLC26A4_i001):p.(Cys565Tyr)			
NM_000441.1:c.1705+5G>A	(variantchecker): Intronic position given for a non-genomic reference sequence.	
NM_000441.1:c.1707+5G>A	(variantchecker): Intronic position given for a non-genomic reference sequence.	
NM_000441.1:c.1790T>C		NM_000441.1	SLC26A4_v001	c.1790T>C	n.2014T>C	c.1790T>C	p.(Leu597Ser)	SLC26A4_v001:c.1790T>C	SLC26A4_v001:p.(Leu597Ser)		NM_000441.1	NP_000432.1	NM_000441.1(SLC26A4_v001):c.1790T>C	NM_000441.1(SLC26A4_i001):p.(Leu597Ser)	Hpy188III	MluCI,MseI	
NM_000441.1:c.1803+2T>C	(variantchecker): Intronic position given for a non-genomic reference sequence.	
NM_000441.1:c.1826T>G		NM_000441.1	SLC26A4_v001	c.1826T>G	n.2050T>G	c.1826T>G	p.(Val609Gly)	SLC26A4_v001:c.1826T>G	SLC26A4_v001:p.(Val609Gly)		NM_000441.1	NP_000432.1	NM_000441.1(SLC26A4_v001):c.1826T>G	NM_000441.1(SLC26A4_i001):p.(Val609Gly)	FspEI,LpnPI		
NM_000441.1:c.1829C>A		NM_000441.1	SLC26A4_v001	c.1829C>A	n.2053C>A	c.1829C>A	p.(Ser610*)	SLC26A4_v001:c.1829C>A	SLC26A4_v001:p.(Ser610*)		NM_000441.1	NP_000432.1	NM_000441.1(SLC26A4_v001):c.1829C>A	NM_000441.1(SLC26A4_i001):p.(Ser610*)	DraI,MseI,PmeI		
NM_000441.1:c.1873G>T		NM_000441.1	SLC26A4_v001	c.1873G>T	n.2097G>T	c.1873G>T	p.(Glu625*)	SLC26A4_v001:c.1873G>T	SLC26A4_v001:p.(Glu625*)		NM_000441.1	NP_000432.1	NM_000441.1(SLC26A4_v001):c.1873G>T	NM_000441.1(SLC26A4_i001):p.(Glu625*)	SfcI	BpmI,Hpy188III	
NM_000441.1:c.1919G>A		NM_000441.1	SLC26A4_v001	c.1919G>A	n.2143G>A	c.1919G>A	p.(Trp640*)	SLC26A4_v001:c.1919G>A	SLC26A4_v001:p.(Trp640*)		NM_000441.1	NP_000432.1	NM_000441.1(SLC26A4_v001):c.1919G>A	NM_000441.1(SLC26A4_i001):p.(Trp640*)			
NM_000441.1:c.1920G>A		NM_000441.1	SLC26A4_v001	c.1920G>A	n.2144G>A	c.1920G>A	p.(Trp640*)	SLC26A4_v001:c.1920G>A	SLC26A4_v001:p.(Trp640*)		NM_000441.1	NP_000432.1	NM_000441.1(SLC26A4_v001):c.1920G>A	NM_000441.1(SLC26A4_i001):p.(Trp640*)			
NM_000441.1:c.1949T>A		NM_000441.1	SLC26A4_v001	c.1949T>A	n.2173T>A	c.1949T>A	p.(Val650Asp)	SLC26A4_v001:c.1949T>A	SLC26A4_v001:p.(Val650Asp)		NM_000441.1	NP_000432.1	NM_000441.1(SLC26A4_v001):c.1949T>A	NM_000441.1(SLC26A4_i001):p.(Val650Asp)	AlwI,BfuCI,DpnI,DpnII,MboI,Sau3AI	AclI,HpyCH4IV	
NM_000441.1:c.1970G>T		NM_000441.1	SLC26A4_v001	c.1970G>T	n.2194G>T	c.1970G>T	p.(Ser657Ile)	SLC26A4_v001:c.1970G>T	SLC26A4_v001:p.(Ser657Ile)		NM_000441.1	NP_000432.1	NM_000441.1(SLC26A4_v001):c.1970G>T	NM_000441.1(SLC26A4_i001):p.(Ser657Ile)			
NM_000441.1:c.1975G>C		NM_000441.1	SLC26A4_v001	c.1975G>C	n.2199G>C	c.1975G>C	p.(Val659Leu)	SLC26A4_v001:c.1975G>C	SLC26A4_v001:p.(Val659Leu)		NM_000441.1	NP_000432.1	NM_000441.1(SLC26A4_v001):c.1975G>C	NM_000441.1(SLC26A4_i001):p.(Val659Leu)	HpyAV		
NM_000441.1:c.1981G>T		NM_000441.1	SLC26A4_v001	c.1981G>T	n.2205G>T	c.1981G>T	p.(Asp661Tyr)	SLC26A4_v001:c.1981G>T	SLC26A4_v001:p.(Asp661Tyr)		NM_000441.1	NP_000432.1	NM_000441.1(SLC26A4_v001):c.1981G>T	NM_000441.1(SLC26A4_i001):p.(Asp661Tyr)			
NM_000441.1:c.2000T>C		NM_000441.1	SLC26A4_v001	c.2000T>C	n.2224T>C	c.2000T>C	p.(Phe667Ser)	SLC26A4_v001:c.2000T>C	SLC26A4_v001:p.(Phe667Ser)		NM_000441.1	NP_000432.1	NM_000441.1(SLC26A4_v001):c.2000T>C	NM_000441.1(SLC26A4_i001):p.(Phe667Ser)	BsaJI,MboII		
NM_000441.1:c.2015G>A		NM_000441.1	SLC26A4_v001	c.2015G>A	n.2239G>A	c.2015G>A	p.(Gly672Glu)	SLC26A4_v001:c.2015G>A	SLC26A4_v001:p.(Gly672Glu)		NM_000441.1	NP_000432.1	NM_000441.1(SLC26A4_v001):c.2015G>A	NM_000441.1(SLC26A4_i001):p.(Gly672Glu)		MmeI	
NM_000441.1:c.2027T>A		NM_000441.1	SLC26A4_v001	c.2027T>A	n.2251T>A	c.2027T>A	p.(Leu676Gln)	SLC26A4_v001:c.2027T>A	SLC26A4_v001:p.(Leu676Gln)		NM_000441.1	NP_000432.1	NM_000441.1(SLC26A4_v001):c.2027T>A	NM_000441.1(SLC26A4_i001):p.(Leu676Gln)	MspA1I	BtsI,BtsIMutI,TspRI	
NM_000441.1:c.2044G>T		NM_000441.1	SLC26A4_v001	c.2044G>T	n.2268G>T	c.2044G>T	p.(Glu682*)	SLC26A4_v001:c.2044G>T	SLC26A4_v001:p.(Glu682*)		NM_000441.1	NP_000432.1	NM_000441.1(SLC26A4_v001):c.2044G>T	NM_000441.1(SLC26A4_i001):p.(Glu682*)		ApoI,EcoRI	
NM_000441.1:c.2069T>C		NM_000441.1	SLC26A4_v001	c.2069T>C	n.2293T>C	c.2069T>C	p.(Val690Ala)	SLC26A4_v001:c.2069T>C	SLC26A4_v001:p.(Val690Ala)		NM_000441.1	NP_000432.1	NM_000441.1(SLC26A4_v001):c.2069T>C	NM_000441.1(SLC26A4_i001):p.(Val690Ala)	BsmI,MwoI		
NM_000441.1:c.2080T>C		NM_000441.1	SLC26A4_v001	c.2080T>C	n.2304T>C	c.2080T>C	p.(Ser694Pro)	SLC26A4_v001:c.2080T>C	SLC26A4_v001:p.(Ser694Pro)		NM_000441.1	NP_000432.1	NM_000441.1(SLC26A4_v001):c.2080T>C	NM_000441.1(SLC26A4_i001):p.(Ser694Pro)	FspEI	SfaNI	
NM_000441.1:c.2086C>T		NM_000441.1	SLC26A4_v001	c.2086C>T	n.2310C>T	c.2086C>T	p.(Gln696*)	SLC26A4_v001:c.2086C>T	SLC26A4_v001:p.(Gln696*)		NM_000441.1	NP_000432.1	NM_000441.1(SLC26A4_v001):c.2086C>T	NM_000441.1(SLC26A4_i001):p.(Gln696*)	MseI	Hpy188III	
NM_000441.1:c.2089+1G>A	(variantchecker): Intronic position given for a non-genomic reference sequence.	
NM_000441.1:c.2090A>C		NM_000441.1	SLC26A4_v001	c.2090A>C	n.2314A>C	c.2090A>C	p.(Asp697Ala)	SLC26A4_v001:c.2090A>C	SLC26A4_v001:p.(Asp697Ala)		NM_000441.1	NP_000432.1	NM_000441.1(SLC26A4_v001):c.2090A>C	NM_000441.1(SLC26A4_i001):p.(Asp697Ala)	HindIII	Hpy188III	
NM_000441.1:c.2118C>A		NM_000441.1	SLC26A4_v001	c.2118C>A	n.2342C>A	c.2118C>A	p.(Cys706*)	SLC26A4_v001:c.2118C>A	SLC26A4_v001:p.(Cys706*)		NM_000441.1	NP_000432.1	NM_000441.1(SLC26A4_v001):c.2118C>A	NM_000441.1(SLC26A4_i001):p.(Cys706*)	MnlI	AciI,FauI	
NM_000441.1:c.2127delT		NM_000441.1	SLC26A4_v001	c.2127delT	n.2351del	c.2127del	p.(Phe709Leufs*12)	SLC26A4_v001:c.2127del	SLC26A4_v001:p.(Phe709Leufs*12)		NM_000441.1	NP_000432.1	NM_000441.1(SLC26A4_v001):c.2127del	NM_000441.1(SLC26A4_i001):p.(Phe709Leufs*12)	Hpy188III		
NM_000441.1:c.2162C>T		NM_000441.1	SLC26A4_v001	c.2162C>T	n.2386C>T	c.2162C>T	p.(Thr721Met)	SLC26A4_v001:c.2162C>T	SLC26A4_v001:p.(Thr721Met)		NM_000441.1	NP_000432.1	NM_000441.1(SLC26A4_v001):c.2162C>T	NM_000441.1(SLC26A4_i001):p.(Thr721Met)	BccI	HpyCH4III	
NM_000441.1:c.2167C>G		NM_000441.1	SLC26A4_v001	c.2167C>G	n.2391C>G	c.2167C>G	p.(His723Asp)	SLC26A4_v001:c.2167C>G	SLC26A4_v001:p.(His723Asp)		NM_000441.1	NP_000432.1	NM_000441.1(SLC26A4_v001):c.2167C>G	NM_000441.1(SLC26A4_i001):p.(His723Asp)	BsiEI,TaqI	AvaII,CviAII,FatI,NlaIII,Sau96I	
NM_000441.1:c.2168A>G		NM_000441.1	SLC26A4_v001	c.2168A>G	n.2392A>G	c.2168A>G	p.(His723Arg)	SLC26A4_v001:c.2168A>G	SLC26A4_v001:p.(His723Arg)		NM_000441.1	NP_000432.1	NM_000441.1(SLC26A4_v001):c.2168A>G	NM_000441.1(SLC26A4_i001):p.(His723Arg)	RsrII	CviAII,FatI,NlaIII	
NM_000441.1:c.2170G>A		NM_000441.1	SLC26A4_v001	c.2170G>A	n.2394G>A	c.2170G>A	p.(Asp724Asn)	SLC26A4_v001:c.2170G>A	SLC26A4_v001:p.(Asp724Asn)		NM_000441.1	NP_000432.1	NM_000441.1(SLC26A4_v001):c.2170G>A	NM_000441.1(SLC26A4_i001):p.(Asp724Asn)		CviAII,FatI,NlaIII,SfaNI	
NM_000441.1:c.2171A>G		NM_000441.1	SLC26A4_v001	c.2171A>G	n.2395A>G	c.2171A>G	p.(Asp724Gly)	SLC26A4_v001:c.2171A>G	SLC26A4_v001:p.(Asp724Gly)		NM_000441.1	NP_000432.1	NM_000441.1(SLC26A4_v001):c.2171A>G	NM_000441.1(SLC26A4_i001):p.(Asp724Gly)	BsaJI,BtgI,NcoI,StyI	SfaNI	
NM_000441.1:c.2173G>C		NM_000441.1	SLC26A4_v001	c.2173G>C	n.2397G>C	c.2173G>C	p.(Ala725Pro)	SLC26A4_v001:c.2173G>C	SLC26A4_v001:p.(Ala725Pro)		NM_000441.1	NP_000432.1	NM_000441.1(SLC26A4_v001):c.2173G>C	NM_000441.1(SLC26A4_i001):p.(Ala725Pro)	AlwI,BfuCI,DpnI,DpnII,MboI,Sau3AI	SfaNI	
NM_000441.1:c.2174_2177dupCTAT		NM_000441.1	SLC26A4_v001	c.2174_2177dupCTAT	n.2398_2401dup	c.2174_2177dup	p.(Leu727Tyrfs*28)	SLC26A4_v001:c.2174_2177dup	SLC26A4_v001:p.(Leu727Tyrfs*28)		NM_000441.1	NP_000432.1	NM_000441.1(SLC26A4_v001):c.2174_2177dup	NM_000441.1(SLC26A4_i001):p.(Leu727Tyrfs*28)			
NM_000441.1:c.2177_2178insCTAT	(variantchecker): Insertion of CTAT at position 2401_2402 was given, however, the HGVS notation prescribes that it should be a duplication of CTAT at position 2401_2404.	NM_000441.1	SLC26A4_v001	c.2177_2178insCTAT	n.2398_2401dup	c.2174_2177dup	p.(Leu727Tyrfs*28)	SLC26A4_v001:c.2174_2177dup	SLC26A4_v001:p.(Leu727Tyrfs*28)		NM_000441.1	NP_000432.1	NM_000441.1(SLC26A4_v001):c.2174_2177dup	NM_000441.1(SLC26A4_i001):p.(Leu727Tyrfs*28)			
NM_000441.1:c.2186T>C		NM_000441.1	SLC26A4_v001	c.2186T>C	n.2410T>C	c.2186T>C	p.(Leu729Pro)	SLC26A4_v001:c.2186T>C	SLC26A4_v001:p.(Leu729Pro)		NM_000441.1	NP_000432.1	NM_000441.1(SLC26A4_v001):c.2186T>C	NM_000441.1(SLC26A4_i001):p.(Leu729Pro)		SfcI	
NM_000441.1:c.2219G>T		NM_000441.1	SLC26A4_v001	c.2219G>T	n.2443G>T	c.2219G>T	p.(Gly740Val)	SLC26A4_v001:c.2219G>T	SLC26A4_v001:p.(Gly740Val)		NM_000441.1	NP_000432.1	NM_000441.1(SLC26A4_v001):c.2219G>T	NM_000441.1(SLC26A4_i001):p.(Gly740Val)		NlaIV	
NM_000441.1:c.2343A>G		NM_000441.1	SLC26A4_v001	c.2343A>G	n.2567A>G	c.2343A>G	p.(*781Trpext*42)	SLC26A4_v001:c.2343A>G	SLC26A4_v001:p.(*781Trpext*42)		NM_000441.1	NP_000432.1	NM_000441.1(SLC26A4_v001):c.2343A>G	NM_000441.1(SLC26A4_i001):p.(*781Trpext*42)	BssKI,BstNI,PspGI,ScrFI,StyD4I		
